Suite/Test/Step Name,Browser,Description,Tag,Start time,End time,Duration,Status
Configuracion General 1,Firefox 65.0,,,2019-06-27 14:07:58,2019-06-27 14:09:23,"1m - 24,771s",INCOMPLETE
,,,,,,,
Test Cases/1.Indicadores/Test Case General de Configuracion,Firefox 65.0,,,2019-06-27 14:07:59,2019-06-27 14:09:23,"1m - 24,446s",FAILED
"callTestCase(findTestCase(""1.Indicadores/Daruma/Acceso al modulo""), [:])",Firefox 65.0,,,2019-06-27 14:08:00,2019-06-27 14:08:29,"29,021s",PASSED
"click(findTestObject(""1.Indicadores/Configuracion/1.Tipos/1.Alto/0.Ver/1.a_Configuration""))",Firefox 65.0,,,2019-06-27 14:08:29,2019-06-27 14:08:33,"4,848s",PASSED
"click(findTestObject(""1.Indicadores/Configuracion/1.Tipos/1.Alto/0.Ver/2.a_Types""))",Firefox 65.0,,,2019-06-27 14:08:33,2019-06-27 14:08:34,"0,299s",PASSED
"click(findTestObject(""1.Indicadores/Configuracion/1.Tipos/1.Alto/1.Crear/1.btn_Create""))",Firefox 65.0,,,2019-06-27 14:08:34,2019-06-27 14:08:36,"1,853s",PASSED
"setText(findTestObject(""1.Indicadores/Configuracion/1.Tipos/1.Alto/1.Crear/2.input_typename""), ""Katalon"")",Firefox 65.0,,,2019-06-27 14:08:36,2019-06-27 14:08:37,"1,590s",PASSED
"click(findTestObject(""1.Indicadores/Configuracion/1.Tipos/1.Alto/1.Crear/3.inputCheck_selectAll""))",Firefox 65.0,,,2019-06-27 14:08:37,2019-06-27 14:08:38,"0,497s",PASSED
"click(findTestObject(""1.Indicadores/Configuracion/1.Tipos/1.Alto/1.Crear/3.inputCheck_selectAll""))",Firefox 65.0,,,2019-06-27 14:08:38,2019-06-27 14:08:38,"0,262s",PASSED
"click(findTestObject(""1.Indicadores/Configuracion/1.Tipos/1.Alto/1.Crear/4.inputCheck_notes_required""))",Firefox 65.0,,,2019-06-27 14:08:38,2019-06-27 14:08:38,"0,289s",PASSED
"setText(findTestObject(""1.Indicadores/Configuracion/1.Tipos/1.Alto/1.Crear/5.textarea_Description""), ""Esto es una prueba par Katalon."")",Firefox 65.0,,,2019-06-27 14:08:38,2019-06-27 14:08:38,"0,151s",PASSED
"click(findTestObject(""1.Indicadores/Configuracion/1.Tipos/1.Alto/1.Crear/6.btn_Save""))",Firefox 65.0,,,2019-06-27 14:08:38,2019-06-27 14:08:39,"0,321s",PASSED
"click(findTestObject(""Object Repository/1.Indicadores/TestCase General/Volver_Tipo""))",Firefox 65.0,,,2019-06-27 14:08:39,2019-06-27 14:08:39,"0,273s",PASSED
delay(5),Firefox 65.0,,,2019-06-27 14:08:39,2019-06-27 14:08:44,"5,001s",PASSED
"click(findTestObject(""1.Indicadores/Configuracion/1.Tipos/1.Alto/2.Editar/1.inputCheck_items""))",Firefox 65.0,,,2019-06-27 14:08:44,2019-06-27 14:08:44,"0,262s",PASSED
"click(findTestObject(""1.Indicadores/Configuracion/1.Tipos/1.Alto/2.Editar/2.btn_Edit""))",Firefox 65.0,,,2019-06-27 14:08:44,2019-06-27 14:08:45,"0,270s",PASSED
"setText(findTestObject(""1.Indicadores/Configuracion/1.Tipos/1.Alto/2.Editar/3.input_typename""), ""Edicion"")",Firefox 65.0,,,2019-06-27 14:08:45,2019-06-27 14:08:46,"1,599s",PASSED
"click(findTestObject(""1.Indicadores/Configuracion/1.Tipos/1.Alto/2.Editar/4.inputCheck_DeselectAll""))",Firefox 65.0,,,2019-06-27 14:08:46,2019-06-27 14:08:46,"0,264s",PASSED
"click(findTestObject(""1.Indicadores/Configuracion/1.Tipos/1.Alto/2.Editar/5.inputCheck_DeselectAll""))",Firefox 65.0,,,2019-06-27 14:08:46,2019-06-27 14:08:47,"0,259s",PASSED
"click(findTestObject(""1.Indicadores/Configuracion/1.Tipos/1.Alto/2.Editar/6.inputCheck_notes_required""))",Firefox 65.0,,,2019-06-27 14:08:47,2019-06-27 14:08:47,"0,263s",PASSED
"setText(findTestObject(""1.Indicadores/Configuracion/1.Tipos/1.Alto/2.Editar/7.textarea_Description""), ""Estoy editando un registro"")",Firefox 65.0,,,2019-06-27 14:08:47,2019-06-27 14:08:47,"0,116s",PASSED
"click(findTestObject(""1.Indicadores/Configuracion/1.Tipos/1.Alto/2.Editar/8.btn_Save""))",Firefox 65.0,,,2019-06-27 14:08:47,2019-06-27 14:08:47,"0,269s",PASSED
"click(findTestObject(""Object Repository/1.Indicadores/TestCase General/Volver_Tipo""))",Firefox 65.0,,,2019-06-27 14:08:47,2019-06-27 14:08:48,"0,286s",PASSED
delay(5),Firefox 65.0,,,2019-06-27 14:08:48,2019-06-27 14:08:53,"5,002s",PASSED
"click(findTestObject(""1.Indicadores/Configuracion/1.Tipos/1.Alto/3.Eliminar/1.inputCheck_Items""))",Firefox 65.0,,,2019-06-27 14:08:53,2019-06-27 14:09:23,"30,623s",FAILED
