Suite/Test/Step Name,Browser,Description,Tag,Start time,End time,Duration,Status
1.Analisis,Firefox 71.0,,,2019-12-23 17:07:07,2019-12-23 17:13:36,"6m - 29,488s",PASSED
,,,,,,,
Test Cases/2.Planes de Accion/Generales/1.Index/1.Crear Plan de Accion,Firefox 71.0,,,2019-12-23 17:07:07,2019-12-23 17:11:44,"4m - 36,344s",PASSED
"callTestCase(findTestCase(""2.Planes de Accion/Daruma/Acceso al modulo""), [:])",Firefox 71.0,,,2019-12-23 17:07:08,2019-12-23 17:07:57,"49,040s",PASSED
"click(findTestObject(""2.Planes de Accion/Generales/1.Index/1.1.Crear/1.btn_Create""))",Firefox 71.0,,,2019-12-23 17:07:57,2019-12-23 17:07:58,"0,598s",PASSED
delay(5),Firefox 71.0,,,2019-12-23 17:07:58,2019-12-23 17:08:03,"5,005s",PASSED
"test.Metodos.display_list_only(findTestObject(""Generales/Select2/1.display_list_only""), 0)",Firefox 71.0,,,2019-12-23 17:08:03,2019-12-23 17:08:15,"11,983s",PASSED
"test.Metodos.element_selected(findTestObject(""Object Repository/Generales/Select2/2.select_option""), 1)",Firefox 71.0,,,2019-12-23 17:08:15,2019-12-23 17:08:22,"7,075s",PASSED
"test.Metodos.display_list_only(findTestObject(""Generales/Select2/1.display_list_only""), 1)",Firefox 71.0,,,2019-12-23 17:08:22,2019-12-23 17:08:33,"11,017s",PASSED
"test.Metodos.element_selected(findTestObject(""Object Repository/Generales/Select2/2.select_option""), 1)",Firefox 71.0,,,2019-12-23 17:08:33,2019-12-23 17:08:40,"7,071s",PASSED
"test.Metodos.display_list_multi(findTestObject(""Object Repository/Generales/Select2/1.1.display_list_multi""), 0)",Firefox 71.0,,,2019-12-23 17:08:40,2019-12-23 17:08:51,"10,596s",PASSED
"test.Metodos.select2(findTestObject(""Object Repository/Generales/Select2/2.select_option""), 0)",Firefox 71.0,,,2019-12-23 17:08:51,2019-12-23 17:09:02,"11,123s",PASSED
"click(findTestObject(""2.Planes de Accion/Generales/1.Index/1.1.Crear/3.Origenes""))",Firefox 71.0,,,2019-12-23 17:09:02,2019-12-23 17:09:03,"0,861s",PASSED
"test.Metodos.display_list_multi(findTestObject(""Object Repository/Generales/Select2/1.1.display_list_multi""), 1)",Firefox 71.0,,,2019-12-23 17:09:03,2019-12-23 17:09:13,"10,815s",PASSED
"test.Metodos.select2(findTestObject(""Object Repository/Generales/Select2/2.1.select_option_multi""), 1)",Firefox 71.0,,,2019-12-23 17:09:13,2019-12-23 17:09:25,"11,077s",PASSED
"elementSelect = test.Metodos.select2_config(findTestObject(""2.Planes de Accion/Generales/1.Index/1.1.Crear/4.Element_select""))",Firefox 71.0,,,2019-12-23 17:09:25,2019-12-23 17:09:26,"1,166s",PASSED
"selectOptionByValue(findTestObject(""2.Planes de Accion/Generales/1.Index/1.1.Crear/5.select_type""), elementSelect.toString(), true)",Firefox 71.0,,,2019-12-23 17:09:26,2019-12-23 17:09:27,"1,448s",PASSED
"getNumberOfTotalOption(findTestObject(""2.Planes de Accion/Generales/1.Index/1.1.Crear/4.Element_select""))",Firefox 71.0,,,2019-12-23 17:09:27,2019-12-23 17:09:28,"0,573s",PASSED
"test.Metodos.tiny1(findTestObject(""2.Planes de Accion/Generales/1.Index/1.1.Crear/6.TinyMCE""), 0)",Firefox 71.0,,,2019-12-23 17:09:28,2019-12-23 17:09:29,"1,057s",PASSED
delay(5),Firefox 71.0,,,2019-12-23 17:09:29,2019-12-23 17:09:34,"5,004s",PASSED
"test.Metodos.tiny1(findTestObject(""2.Planes de Accion/Generales/1.Index/1.1.Crear/6.TinyMCE""), 1)",Firefox 71.0,,,2019-12-23 17:09:34,2019-12-23 17:09:35,"1,053s",PASSED
delay(5),Firefox 71.0,,,2019-12-23 17:09:35,2019-12-23 17:09:40,"5,005s",PASSED
"selectOptionByValue(findTestObject(""2.Planes de Accion/Generales/1.Index/1.1.Crear/7.select_track_freq""), ""4"", true)",Firefox 71.0,,,2019-12-23 17:09:40,2019-12-23 17:09:41,"1,073s",PASSED
"setText(findTestObject(""2.Planes de Accion/Generales/1.Index/1.1.Crear/8.input_num_periods""), ""1"")",Firefox 71.0,,,2019-12-23 17:09:41,2019-12-23 17:09:41,"0,555s",PASSED
"selectOptionByValue(findTestObject(""2.Planes de Accion/Generales/1.Index/1.1.Crear/9.select_criticality_id""), ""21"", true)",Firefox 71.0,,,2019-12-23 17:09:41,2019-12-23 17:09:43,"1,263s",PASSED
"test.Metodos.display_list_multi(findTestObject(""Object Repository/Generales/Select2/1.1.display_list_multi""), 2)",Firefox 71.0,,,2019-12-23 17:09:43,2019-12-23 17:09:53,"10,621s",PASSED
"test.Metodos.select2(findTestObject(""Object Repository/Generales/Select2/2.select_option""), 0)",Firefox 71.0,,,2019-12-23 17:09:53,2019-12-23 17:10:04,"11,024s",PASSED
"test.Metodos.display_list_multi(findTestObject(""Object Repository/Generales/Select2/1.1.display_list_multi""), 5)",Firefox 71.0,,,2019-12-23 17:10:04,2019-12-23 17:10:15,"10,637s",PASSED
delay(5),Firefox 71.0,,,2019-12-23 17:10:15,2019-12-23 17:10:20,"5,007s",PASSED
"test.Metodos.select2(findTestObject(""Object Repository/Generales/Select2/2.select_option""), 0)",Firefox 71.0,,,2019-12-23 17:10:20,2019-12-23 17:10:31,"11,129s",PASSED
"test.Metodos.display_list_multi(findTestObject(""Object Repository/Generales/Select2/1.1.display_list_multi""), 6)",Firefox 71.0,,,2019-12-23 17:10:31,2019-12-23 17:10:42,"10,620s",PASSED
"test.Metodos.select2(findTestObject(""Object Repository/Generales/Select2/2.select_option""), 0)",Firefox 71.0,,,2019-12-23 17:10:42,2019-12-23 17:10:53,"11,046s",PASSED
"test.Metodos.display_list_multi(findTestObject(""Object Repository/Generales/Select2/1.1.display_list_multi""), 7)",Firefox 71.0,,,2019-12-23 17:10:53,2019-12-23 17:11:03,"10,589s",PASSED
"test.Metodos.select2(findTestObject(""Object Repository/Generales/Select2/2.select_option""), 0)",Firefox 71.0,,,2019-12-23 17:11:03,2019-12-23 17:11:14,"11,024s",PASSED
"test.Metodos.display_list_multi(findTestObject(""Object Repository/Generales/Select2/1.1.display_list_multi""), 8)",Firefox 71.0,,,2019-12-23 17:11:14,2019-12-23 17:11:27,"12,620s",PASSED
"test.Metodos.select2(findTestObject(""Object Repository/Generales/Select2/2.select_option""), 0)",Firefox 71.0,,,2019-12-23 17:11:27,2019-12-23 17:11:38,"11,039s",PASSED
delay(5),Firefox 71.0,,,2019-12-23 17:11:38,2019-12-23 17:11:43,"5,006s",PASSED
"click(findTestObject(""2.Planes de Accion/Generales/1.Index/1.1.Crear/10.btn_Save""))",Firefox 71.0,,,2019-12-23 17:11:43,2019-12-23 17:11:44,"0,678s",PASSED
,,,,,,,
Test Cases/2.Planes de Accion/Generales/1.Index/1.1.Gestion del Plan/1.Analisis,Firefox 71.0,,,2019-12-23 17:11:44,2019-12-23 17:13:36,"1m - 52,630s",PASSED
"callTestCase(findTestCase(""2.Planes de Accion/Daruma/Acceso al modulo""), [:])",Firefox 71.0,,,2019-12-23 17:11:44,2019-12-23 17:12:30,"45,773s",PASSED
"id = test.Metodos.lista(findTestObject(""Object Repository/2.list_inputCheck""))",Firefox 71.0,,,2019-12-23 17:12:30,2019-12-23 17:12:34,"3,813s",PASSED
"test.Metodos.select_item_managment(findTestObject(""Generales/Select Item List/1.list_index""), id)",Firefox 71.0,,,2019-12-23 17:12:34,2019-12-23 17:12:35,"1,467s",PASSED
delay(5),Firefox 71.0,,,2019-12-23 17:12:35,2019-12-23 17:12:40,"5,003s",PASSED
"click(findTestObject(""2.Planes de Accion/Generales/1.Index/1.Gestion del Plan/1.Analisis/1.btn_option_more""))",Firefox 71.0,,,2019-12-23 17:12:40,2019-12-23 17:12:43,"2,511s",PASSED
"click(findTestObject(""2.Planes de Accion/Generales/1.Index/1.Gestion del Plan/1.Analisis/2.btn_analyze""))",Firefox 71.0,,,2019-12-23 17:12:43,2019-12-23 17:13:14,"31,343s",PASSED
"test.Metodos.tiny1(findTestObject(""Object Repository/Generales/TinyMCE/Iframe""), 0)",Firefox 71.0,,,2019-12-23 17:13:14,2019-12-23 17:13:15,"0,975s",PASSED
"click(findTestObject(""2.Planes de Accion/Generales/1.Index/1.Gestion del Plan/1.Analisis/3.btn_Save""))",Firefox 71.0,,,2019-12-23 17:13:15,2019-12-23 17:13:16,"0,793s",PASSED
delay(5),Firefox 71.0,,,2019-12-23 17:13:16,2019-12-23 17:13:21,"5,006s",PASSED
"selectOptionByValue(findTestObject(""2.Planes de Accion/Generales/1.Index/1.Gestion del Plan/1.Analisis/4.select_cause_effect""), ""2"", false)",Firefox 71.0,,,2019-12-23 17:13:21,2019-12-23 17:13:24,"3,083s",PASSED
"click(findTestObject(""2.Planes de Accion/Generales/1.Index/1.Gestion del Plan/1.Analisis/5.inputCheck_add_actions""))",Firefox 71.0,,,2019-12-23 17:13:24,2019-12-23 17:13:24,"0,581s",PASSED
"click(findTestObject(""2.Planes de Accion/Generales/1.Index/1.Gestion del Plan/1.Analisis/3.btn_Save""))",Firefox 71.0,,,2019-12-23 17:13:24,2019-12-23 17:13:25,"0,990s",PASSED
"test.Metodos.tiny1(findTestObject(""Object Repository/Generales/TinyMCE/Iframe""), 0)",Firefox 71.0,,,2019-12-23 17:13:25,2019-12-23 17:13:32,"6,240s",PASSED
"selectOptionByValue(findTestObject(""2.Planes de Accion/Generales/1.Index/1.Gestion del Plan/1.Analisis/6.select_action_type""), ""1"", true)",Firefox 71.0,,,2019-12-23 17:13:32,2019-12-23 17:13:33,"1,053s",PASSED
"selectOptionByValue(findTestObject(""2.Planes de Accion/Generales/1.Index/1.Gestion del Plan/1.Analisis/7.select_end_date_month""), ""11"", true)",Firefox 71.0,,,2019-12-23 17:13:33,2019-12-23 17:13:34,"1,403s",PASSED
"selectOptionByValue(findTestObject(""2.Planes de Accion/Generales/1.Index/1.Gestion del Plan/1.Analisis/8.select_end_date_day""), ""31"", true)",Firefox 71.0,,,2019-12-23 17:13:34,2019-12-23 17:13:36,"1,695s",PASSED
"click(findTestObject(""2.Planes de Accion/Generales/1.Index/1.Gestion del Plan/1.Analisis/3.btn_Save""))",Firefox 71.0,,,2019-12-23 17:13:36,2019-12-23 17:13:36,"0,574s",PASSED
