Suite/Test/Step Name,Browser,Description,Tag,Start time,End time,Duration,Status
Impactos,Firefox 71.0,,,2019-12-19 11:51:30,2019-12-19 11:58:15,"6m - 45,321s",PASSED
,,,,,,,
Test Cases/2.Planes de Accion/Configuracion/5.Impactos/1.Test Cases General/0.Ver,Firefox 71.0,,,2019-12-19 11:51:30,2019-12-19 11:52:27,"56,357s",PASSED
"callTestCase(findTestCase(""2.Planes de Accion/Daruma/Acceso al modulo""), [:])",Firefox 71.0,,,2019-12-19 11:51:31,2019-12-19 11:52:20,"49,215s",PASSED
"click(findTestObject(""2.Planes de Accion/Configuracion/5.Impactos/1.Generales/0.Ver/1.a_Configuration""))",Firefox 71.0,,,2019-12-19 11:52:20,2019-12-19 11:52:21,"0,588s",PASSED
"click(findTestObject(""2.Planes de Accion/Configuracion/5.Impactos/1.Generales/0.Ver/2.a_Impactos""))",Firefox 71.0,,,2019-12-19 11:52:21,2019-12-19 11:52:22,"0,813s",PASSED
delay(5),Firefox 71.0,,,2019-12-19 11:52:22,2019-12-19 11:52:27,"5,004s",PASSED
,,,,,,,
Test Cases/2.Planes de Accion/Configuracion/5.Impactos/1.Test Cases General/1.Crear,Firefox 71.0,,,2019-12-19 11:52:27,2019-12-19 11:53:32,"1m - 5,085s",PASSED
palabra = test.Metodos.randomString(),Firefox 71.0,,,2019-12-19 11:52:27,2019-12-19 11:52:27,"0,059s",PASSED
"callTestCase(findTestCase(""2.Planes de Accion/Daruma/Acceso al modulo""), [:])",Firefox 71.0,,,2019-12-19 11:52:27,2019-12-19 11:53:15,"48,094s",PASSED
"click(findTestObject(""2.Planes de Accion/Configuracion/5.Impactos/1.Generales/0.Ver/1.a_Configuration""))",Firefox 71.0,,,2019-12-19 11:53:15,2019-12-19 11:53:16,"0,590s",PASSED
"click(findTestObject(""2.Planes de Accion/Configuracion/5.Impactos/1.Generales/0.Ver/2.a_Impactos""))",Firefox 71.0,,,2019-12-19 11:53:16,2019-12-19 11:53:17,"0,787s",PASSED
delay(5),Firefox 71.0,,,2019-12-19 11:53:17,2019-12-19 11:53:22,"5,004s",PASSED
"click(findTestObject(""2.Planes de Accion/Configuracion/5.Impactos/1.Generales/1.Crear/1.btn_Create""))",Firefox 71.0,,,2019-12-19 11:53:22,2019-12-19 11:53:22,"0,612s",PASSED
"setText(findTestObject(""2.Planes de Accion/Configuracion/5.Impactos/1.Generales/1.Crear/2.input_impactname""), palabra)",Firefox 71.0,,,2019-12-19 11:53:22,2019-12-19 11:53:26,"3,481s",PASSED
"setText(findTestObject(""2.Planes de Accion/Configuracion/5.Impactos/1.Generales/1.Crear/3.textarea_impactnotes""), ""Esto es una Descripcion..."")",Firefox 71.0,,,2019-12-19 11:53:26,2019-12-19 11:53:26,"0,411s",PASSED
"click(findTestObject(""2.Planes de Accion/Configuracion/5.Impactos/1.Generales/1.Crear/4.btn_Save""))",Firefox 71.0,,,2019-12-19 11:53:26,2019-12-19 11:53:27,"0,680s",PASSED
delay(5),Firefox 71.0,,,2019-12-19 11:53:27,2019-12-19 11:53:32,"5,002s",PASSED
,,,,,,,
Test Cases/2.Planes de Accion/Configuracion/5.Impactos/1.Test Cases General/2.Editar,Firefox 71.0,,,2019-12-19 11:53:32,2019-12-19 11:54:53,"1m - 20,959s",PASSED
palabra = test.Metodos.randomStringEdit(),Firefox 71.0,,,2019-12-19 11:53:32,2019-12-19 11:53:32,"0,002s",PASSED
"callTestCase(findTestCase(""2.Planes de Accion/Configuracion/5.Impactos/1.Test Cases General/0.Ver""), [:])",Firefox 71.0,,,2019-12-19 11:53:32,2019-12-19 11:54:35,"1m - 3,202s",PASSED
"test.Metodos.lista(findTestObject(""Object Repository/2.list_inputCheck""))",Firefox 71.0,,,2019-12-19 11:54:35,2019-12-19 11:54:39,"3,988s",PASSED
"click(findTestObject(""2.Planes de Accion/Configuracion/5.Impactos/1.Generales/2.Editar/2.btn_Edit""))",Firefox 71.0,,,2019-12-19 11:54:39,2019-12-19 11:54:40,"0,611s",PASSED
"setText(findTestObject(""2.Planes de Accion/Configuracion/5.Impactos/1.Generales/2.Editar/3.input_impactname""), palabra)",Firefox 71.0,,,2019-12-19 11:54:40,2019-12-19 11:54:47,"6,747s",PASSED
"setText(findTestObject(""2.Planes de Accion/Configuracion/5.Impactos/1.Generales/2.Editar/4.textarea_impactnotes""), ""Esto es una Edicion de Flujo 1"")",Firefox 71.0,,,2019-12-19 11:54:47,2019-12-19 11:54:47,"0,456s",PASSED
"click(findTestObject(""2.Planes de Accion/Configuracion/5.Impactos/1.Generales/2.Editar/5.btn_Save""))",Firefox 71.0,,,2019-12-19 11:54:47,2019-12-19 11:54:48,"0,564s",PASSED
delay(5),Firefox 71.0,,,2019-12-19 11:54:48,2019-12-19 11:54:53,"5,004s",PASSED
,,,,,,,
Test Cases/2.Planes de Accion/Configuracion/5.Impactos/1.Test Cases General/3.Eliminar,Firefox 71.0,,,2019-12-19 11:54:53,2019-12-19 11:55:55,"1m - 2,701s",PASSED
"callTestCase(findTestCase(""2.Planes de Accion/Configuracion/5.Impactos/1.Test Cases General/0.Ver""), [:])",Firefox 71.0,,,2019-12-19 11:54:53,2019-12-19 11:55:46,"52,970s",PASSED
"test.Metodos.lista(findTestObject(""Object Repository/2.list_inputCheck""))",Firefox 71.0,,,2019-12-19 11:55:46,2019-12-19 11:55:50,"3,902s",PASSED
"click(findTestObject(""2.Planes de Accion/Configuracion/5.Impactos/1.Generales/3.Eliminar/2.btn_Delete""))",Firefox 71.0,,,2019-12-19 11:55:50,2019-12-19 11:55:50,"0,391s",PASSED
acceptAlert(),Firefox 71.0,,,2019-12-19 11:55:50,2019-12-19 11:55:50,"0,080s",PASSED
delay(5),Firefox 71.0,,,2019-12-19 11:55:50,2019-12-19 11:55:55,"5,010s",PASSED
,,,,,,,
Test Cases/2.Planes de Accion/Configuracion/5.Impactos/1.Test Cases General/4.Inhabilitar,Firefox 71.0,,,2019-12-19 11:55:55,2019-12-19 11:57:06,"1m - 10,189s",PASSED
"callTestCase(findTestCase(""2.Planes de Accion/Configuracion/5.Impactos/1.Test Cases General/0.Ver""), [:])",Firefox 71.0,,,2019-12-19 11:55:56,2019-12-19 11:56:56,"59,679s",PASSED
"test.Metodos.lista(findTestObject(""Object Repository/2.list_inputCheck""))",Firefox 71.0,,,2019-12-19 11:56:56,2019-12-19 11:56:59,"3,922s",PASSED
"click(findTestObject(""2.Planes de Accion/Configuracion/5.Impactos/1.Generales/4.Inhabilitar/2.btn_Disable_1""))",Firefox 71.0,,,2019-12-19 11:56:59,2019-12-19 11:57:00,"0,607s",PASSED
"click(findTestObject(""2.Planes de Accion/Configuracion/5.Impactos/1.Generales/4.Inhabilitar/3.btn_Disable_2""))",Firefox 71.0,,,2019-12-19 11:57:00,2019-12-19 11:57:01,"0,508s",PASSED
acceptAlert(),Firefox 71.0,,,2019-12-19 11:57:01,2019-12-19 11:57:01,"0,070s",PASSED
delay(5),Firefox 71.0,,,2019-12-19 11:57:01,2019-12-19 11:57:06,"5,004s",PASSED
,,,,,,,
Test Cases/2.Planes de Accion/Configuracion/5.Impactos/1.Test Cases General/5.Filtrar,Firefox 71.0,,,2019-12-19 11:57:06,2019-12-19 11:58:15,"1m - 9,330s",PASSED
"callTestCase(findTestCase(""2.Planes de Accion/Configuracion/5.Impactos/1.Test Cases General/0.Ver""), [:])",Firefox 71.0,,,2019-12-19 11:57:06,2019-12-19 11:58:04,"57,818s",PASSED
"click(findTestObject(""2.Planes de Accion/Configuracion/5.Impactos/1.Generales/5.Filtrar/1.open_filter""))",Firefox 71.0,,,2019-12-19 11:58:04,2019-12-19 11:58:05,"1,098s",PASSED
"setText(findTestObject(""2.Planes de Accion/Configuracion/5.Impactos/1.Generales/5.Filtrar/2.input_filtersnametext""), ""Legal"")",Firefox 71.0,,,2019-12-19 11:58:05,2019-12-19 11:58:05,"0,339s",PASSED
"click(findTestObject(""2.Planes de Accion/Configuracion/5.Impactos/1.Generales/5.Filtrar/3.input_filtersnotesis_empty""))",Firefox 71.0,,,2019-12-19 11:58:05,2019-12-19 11:58:06,"0,552s",PASSED
"selectOptionByValue(findTestObject(""2.Planes de Accion/Configuracion/5.Impactos/1.Generales/5.Filtrar/4.select_impact_filters_state""), ""1"", true)",Firefox 71.0,,,2019-12-19 11:58:06,2019-12-19 11:58:07,"1,078s",PASSED
"click(findTestObject(""2.Planes de Accion/Configuracion/5.Impactos/1.Generales/5.Filtrar/5.btn_filter""))",Firefox 71.0,,,2019-12-19 11:58:07,2019-12-19 11:58:07,"0,546s",PASSED
delay(5),Firefox 71.0,,,2019-12-19 11:58:07,2019-12-19 11:58:12,"5,002s",PASSED
"click(findTestObject(""2.Planes de Accion/Configuracion/5.Impactos/1.Generales/5.Filtrar/1.open_filter""))",Firefox 71.0,,,2019-12-19 11:58:12,2019-12-19 11:58:13,"0,532s",PASSED
"click(findTestObject(""2.Planes de Accion/Configuracion/5.Impactos/1.Generales/5.Filtrar/6.btn_Reset""))",Firefox 71.0,,,2019-12-19 11:58:13,2019-12-19 11:58:15,"1,947s",PASSED
