Suite/Test/Step Name,Browser,Description,Tag,Start time,End time,Duration,Status
24.Cancelacion de una accion,Firefox 71.0,,,2019-12-31 09:58:02,2019-12-31 10:06:16,"8m - 13,597s",PASSED
,,,,,,,
Test Cases/2.Planes de Accion/Generales/1.Index/1.Crear Plan de Accion,Firefox 71.0,,,2019-12-31 09:58:03,2019-12-31 10:02:35,"4m - 32,254s",PASSED
"callTestCase(findTestCase(""2.Planes de Accion/Daruma/Acceso al modulo""), [:])",Firefox 71.0,,,2019-12-31 09:58:04,2019-12-31 09:58:49,"45,900s",PASSED
"click(findTestObject(""2.Planes de Accion/Generales/1.Index/1.1.Crear/1.btn_Create""))",Firefox 71.0,,,2019-12-31 09:58:49,2019-12-31 09:58:50,"0,649s",PASSED
delay(5),Firefox 71.0,,,2019-12-31 09:58:50,2019-12-31 09:58:55,"5,033s",PASSED
"test.Metodos.display_list_only(findTestObject(""Generales/Select2/1.display_list_only""), 0)",Firefox 71.0,,,2019-12-31 09:58:55,2019-12-31 09:59:07,"11,959s",PASSED
"test.Metodos.element_selected(findTestObject(""Object Repository/Generales/Select2/2.select_option""), 1)",Firefox 71.0,,,2019-12-31 09:59:07,2019-12-31 09:59:14,"7,053s",PASSED
"test.Metodos.display_list_only(findTestObject(""Generales/Select2/1.display_list_only""), 1)",Firefox 71.0,,,2019-12-31 09:59:14,2019-12-31 09:59:25,"11,040s",PASSED
"test.Metodos.element_selected(findTestObject(""Object Repository/Generales/Select2/2.select_option""), 1)",Firefox 71.0,,,2019-12-31 09:59:25,2019-12-31 09:59:32,"7,080s",PASSED
"test.Metodos.display_list_multi(findTestObject(""Object Repository/Generales/Select2/1.1.display_list_multi""), 0)",Firefox 71.0,,,2019-12-31 09:59:32,2019-12-31 09:59:43,"10,614s",PASSED
"test.Metodos.select2(findTestObject(""Object Repository/Generales/Select2/2.select_option""), 0)",Firefox 71.0,,,2019-12-31 09:59:43,2019-12-31 09:59:54,"11,114s",PASSED
"click(findTestObject(""2.Planes de Accion/Generales/1.Index/1.1.Crear/3.Origenes""))",Firefox 71.0,,,2019-12-31 09:59:54,2019-12-31 09:59:55,"0,865s",PASSED
"test.Metodos.display_list_multi(findTestObject(""Object Repository/Generales/Select2/1.1.display_list_multi""), 1)",Firefox 71.0,,,2019-12-31 09:59:55,2019-12-31 10:00:06,"10,874s",PASSED
"test.Metodos.select2(findTestObject(""Object Repository/Generales/Select2/2.1.select_option_multi""), 1)",Firefox 71.0,,,2019-12-31 10:00:06,2019-12-31 10:00:17,"11,090s",PASSED
"elementSelect = test.Metodos.select2_config(findTestObject(""2.Planes de Accion/Generales/1.Index/1.1.Crear/4.Element_select""))",Firefox 71.0,,,2019-12-31 10:00:17,2019-12-31 10:00:18,"1,309s",PASSED
"selectOptionByValue(findTestObject(""2.Planes de Accion/Generales/1.Index/1.1.Crear/5.select_type""), elementSelect.toString(), true)",Firefox 71.0,,,2019-12-31 10:00:18,2019-12-31 10:00:20,"1,554s",PASSED
"getNumberOfTotalOption(findTestObject(""2.Planes de Accion/Generales/1.Index/1.1.Crear/4.Element_select""))",Firefox 71.0,,,2019-12-31 10:00:20,2019-12-31 10:00:20,"0,564s",PASSED
"test.Metodos.tiny1(findTestObject(""2.Planes de Accion/Generales/1.Index/1.1.Crear/6.TinyMCE""), 0)",Firefox 71.0,,,2019-12-31 10:00:20,2019-12-31 10:00:22,"1,214s",PASSED
delay(5),Firefox 71.0,,,2019-12-31 10:00:22,2019-12-31 10:00:27,"5,005s",PASSED
"test.Metodos.tiny1(findTestObject(""2.Planes de Accion/Generales/1.Index/1.1.Crear/6.TinyMCE""), 1)",Firefox 71.0,,,2019-12-31 10:00:27,2019-12-31 10:00:28,"0,997s",PASSED
delay(5),Firefox 71.0,,,2019-12-31 10:00:28,2019-12-31 10:00:33,"5,004s",PASSED
"selectOptionByValue(findTestObject(""2.Planes de Accion/Generales/1.Index/1.1.Crear/7.select_track_freq""), ""4"", true)",Firefox 71.0,,,2019-12-31 10:00:33,2019-12-31 10:00:34,"1,056s",PASSED
"setText(findTestObject(""2.Planes de Accion/Generales/1.Index/1.1.Crear/8.input_num_periods""), ""1"")",Firefox 71.0,,,2019-12-31 10:00:34,2019-12-31 10:00:34,"0,415s",PASSED
"selectOptionByValue(findTestObject(""2.Planes de Accion/Generales/1.Index/1.1.Crear/9.select_criticality_id""), ""21"", true)",Firefox 71.0,,,2019-12-31 10:00:34,2019-12-31 10:00:35,"1,267s",PASSED
"test.Metodos.display_list_multi(findTestObject(""Object Repository/Generales/Select2/1.1.display_list_multi""), 2)",Firefox 71.0,,,2019-12-31 10:00:35,2019-12-31 10:00:46,"10,599s",PASSED
"test.Metodos.select2(findTestObject(""Object Repository/Generales/Select2/2.select_option""), 0)",Firefox 71.0,,,2019-12-31 10:00:46,2019-12-31 10:00:57,"11,107s",PASSED
"test.Metodos.display_list_multi(findTestObject(""Object Repository/Generales/Select2/1.1.display_list_multi""), 5)",Firefox 71.0,,,2019-12-31 10:00:57,2019-12-31 10:01:08,"10,571s",PASSED
delay(5),Firefox 71.0,,,2019-12-31 10:01:08,2019-12-31 10:01:13,"5,005s",PASSED
"test.Metodos.select2(findTestObject(""Object Repository/Generales/Select2/2.select_option""), 0)",Firefox 71.0,,,2019-12-31 10:01:13,2019-12-31 10:01:24,"11,060s",PASSED
"test.Metodos.display_list_multi(findTestObject(""Object Repository/Generales/Select2/1.1.display_list_multi""), 6)",Firefox 71.0,,,2019-12-31 10:01:24,2019-12-31 10:01:34,"10,574s",PASSED
"test.Metodos.select2(findTestObject(""Object Repository/Generales/Select2/2.select_option""), 0)",Firefox 71.0,,,2019-12-31 10:01:34,2019-12-31 10:01:45,"11,099s",PASSED
"test.Metodos.display_list_multi(findTestObject(""Object Repository/Generales/Select2/1.1.display_list_multi""), 7)",Firefox 71.0,,,2019-12-31 10:01:45,2019-12-31 10:01:56,"10,596s",PASSED
"test.Metodos.select2(findTestObject(""Object Repository/Generales/Select2/2.select_option""), 0)",Firefox 71.0,,,2019-12-31 10:01:56,2019-12-31 10:02:07,"11,032s",PASSED
"test.Metodos.display_list_multi(findTestObject(""Object Repository/Generales/Select2/1.1.display_list_multi""), 8)",Firefox 71.0,,,2019-12-31 10:02:07,2019-12-31 10:02:19,"11,643s",PASSED
"test.Metodos.select2(findTestObject(""Object Repository/Generales/Select2/2.select_option""), 0)",Firefox 71.0,,,2019-12-31 10:02:19,2019-12-31 10:02:30,"11,007s",PASSED
delay(5),Firefox 71.0,,,2019-12-31 10:02:30,2019-12-31 10:02:35,"5,002s",PASSED
"click(findTestObject(""2.Planes de Accion/Generales/1.Index/1.1.Crear/10.btn_Save""))",Firefox 71.0,,,2019-12-31 10:02:35,2019-12-31 10:02:35,"0,551s",PASSED
,,,,,,,
Test Cases/2.Planes de Accion/Generales/1.Index/1.1.Gestion del Plan/2.Agregar Accion,Firefox 71.0,,,2019-12-31 10:02:35,2019-12-31 10:04:00,"1m - 24,888s",PASSED
"callTestCase(findTestCase(""2.Planes de Accion/Daruma/Acceso al modulo""), [:])",Firefox 71.0,,,2019-12-31 10:02:35,2019-12-31 10:03:23,"47,633s",PASSED
"id = test.Metodos.lista(findTestObject(""Object Repository/2.list_inputCheck""))",Firefox 71.0,,,2019-12-31 10:03:23,2019-12-31 10:03:27,"3,868s",PASSED
"test.Metodos.select_item_managment(findTestObject(""Generales/Select Item List/1.list_index""), id)",Firefox 71.0,,,2019-12-31 10:03:27,2019-12-31 10:03:28,"1,535s",PASSED
delay(5),Firefox 71.0,,,2019-12-31 10:03:28,2019-12-31 10:03:33,"5,003s",PASSED
"click(findTestObject(""2.Planes de Accion/Generales/1.Index/1.Gestion del Plan/1.Analisis/1.btn_option_more""))",Firefox 71.0,,,2019-12-31 10:03:33,2019-12-31 10:03:35,"1,409s",PASSED
"click(findTestObject(""2.Planes de Accion/Generales/1.Index/1.Gestion del Plan/1.Analisis/2.btn_analyze""))",Firefox 71.0,,,2019-12-31 10:03:35,2019-12-31 10:03:36,"0,874s",PASSED
"test.Metodos.tiny1(findTestObject(""Object Repository/Generales/TinyMCE/Iframe""), 0)",Firefox 71.0,,,2019-12-31 10:03:36,2019-12-31 10:03:40,"3,898s",PASSED
"click(findTestObject(""2.Planes de Accion/Generales/1.Index/1.Gestion del Plan/1.Analisis/3.btn_Save""))",Firefox 71.0,,,2019-12-31 10:03:40,2019-12-31 10:03:40,"0,801s",PASSED
delay(5),Firefox 71.0,,,2019-12-31 10:03:40,2019-12-31 10:03:45,"5,004s",PASSED
"selectOptionByValue(findTestObject(""2.Planes de Accion/Generales/1.Index/1.Gestion del Plan/1.Analisis/4.select_cause_effect""), ""2"", false)",Firefox 71.0,,,2019-12-31 10:03:45,2019-12-31 10:03:46,"0,785s",PASSED
"click(findTestObject(""2.Planes de Accion/Generales/1.Index/1.Gestion del Plan/1.Analisis/5.inputCheck_add_actions""))",Firefox 71.0,,,2019-12-31 10:03:46,2019-12-31 10:03:47,"0,546s",PASSED
"click(findTestObject(""2.Planes de Accion/Generales/1.Index/1.Gestion del Plan/1.Analisis/3.btn_Save""))",Firefox 71.0,,,2019-12-31 10:03:47,2019-12-31 10:03:47,"0,545s",PASSED
"test.Metodos.tiny1(findTestObject(""Object Repository/Generales/TinyMCE/Iframe""), 0)",Firefox 71.0,,,2019-12-31 10:03:47,2019-12-31 10:03:54,"6,476s",PASSED
"selectOptionByValue(findTestObject(""2.Planes de Accion/Generales/1.Index/1.Gestion del Plan/1.Analisis/6.select_action_type""), ""1"", true)",Firefox 71.0,,,2019-12-31 10:03:54,2019-12-31 10:03:55,"1,030s",PASSED
"selectOptionByValue(findTestObject(""2.Planes de Accion/Generales/1.Index/1.Gestion del Plan/1.Analisis/7.select_end_date_month""), ""12"", true)",Firefox 71.0,,,2019-12-31 10:03:55,2019-12-31 10:03:56,"1,156s",PASSED
"selectOptionByValue(findTestObject(""2.Planes de Accion/Generales/1.Index/1.Gestion del Plan/1.Analisis/8.select_end_date_day""), ""31"", true)",Firefox 71.0,,,2019-12-31 10:03:56,2019-12-31 10:03:58,"1,531s",PASSED
"setText(findTestObject(""Object Repository/2.Planes de Accion/Generales/1.Index/1.Gestion del Plan/1.Analisis/9.input_initial_budget""), ""5000000"")",Firefox 71.0,,,2019-12-31 10:03:58,2019-12-31 10:03:58,"0,370s",PASSED
"setText(findTestObject(""Object Repository/2.Planes de Accion/Generales/1.Index/1.Gestion del Plan/1.Analisis/10.input_investment_budget""), ""5100000"")",Firefox 71.0,,,2019-12-31 10:03:58,2019-12-31 10:03:58,"0,555s",PASSED
"setText(findTestObject(""Object Repository/2.Planes de Accion/Generales/1.Index/1.Gestion del Plan/1.Analisis/11.input_operating_budget""), ""4800000"")",Firefox 71.0,,,2019-12-31 10:03:58,2019-12-31 10:03:59,"0,353s",PASSED
"click(findTestObject(""2.Planes de Accion/Generales/1.Index/1.Gestion del Plan/1.Analisis/12.inputCheck_exclude_consolidate""))",Firefox 71.0,,,2019-12-31 10:03:59,2019-12-31 10:03:59,"0,593s",PASSED
"click(findTestObject(""2.Planes de Accion/Generales/1.Index/1.Gestion del Plan/1.Analisis/3.btn_Save""))",Firefox 71.0,,,2019-12-31 10:03:59,2019-12-31 10:04:00,"0,611s",PASSED
,,,,,,,
Test Cases/2.Planes de Accion/Generales/1.Index/1.1.Gestion del Plan/6.Solicitar aprobacion del plan,Firefox 71.0,,,2019-12-31 10:04:00,2019-12-31 10:05:04,"1m - 3,644s",PASSED
"callTestCase(findTestCase(""2.Planes de Accion/Daruma/Acceso al modulo""), [:])",Firefox 71.0,,,2019-12-31 10:04:00,2019-12-31 10:04:49,"48,758s",PASSED
"id = test.Metodos.lista(findTestObject(""Object Repository/2.list_inputCheck""))",Firefox 71.0,,,2019-12-31 10:04:49,2019-12-31 10:04:53,"3,791s",PASSED
"test.Metodos.select_item_managment(findTestObject(""Generales/Select Item List/1.list_index""), id)",Firefox 71.0,,,2019-12-31 10:04:53,2019-12-31 10:04:54,"1,415s",PASSED
delay(8),Firefox 71.0,,,2019-12-31 10:04:54,2019-12-31 10:05:02,"8,003s",PASSED
"click(findTestObject(""2.Planes de Accion/Generales/1.Index/1.Gestion del Plan/6.Solicitar Plan de Accion/1.btn_option_more""))",Firefox 71.0,,,2019-12-31 10:05:02,2019-12-31 10:05:03,"0,588s",PASSED
"click(findTestObject(""Object Repository/2.Planes de Accion/Generales/1.Index/1.Gestion del Plan/6.Solicitar Plan de Accion/2.btn_ask_for_approval""))",Firefox 71.0,,,2019-12-31 10:05:03,2019-12-31 10:05:04,"0,719s",PASSED
acceptAlert(),Firefox 71.0,,,2019-12-31 10:05:04,2019-12-31 10:05:04,"0,071s",PASSED
,,,,,,,
Test Cases/2.Planes de Accion/Generales/1.Index/1.1.Gestion del Plan/24.Cancelacion de una accion,Firefox 71.0,,,2019-12-31 10:05:04,2019-12-31 10:06:16,"1m - 12,238s",PASSED
"callTestCase(findTestCase(""2.Planes de Accion/Daruma/Acceso al modulo""), [:])",Firefox 71.0,,,2019-12-31 10:05:04,2019-12-31 10:05:55,"50,826s",PASSED
"id = test.Metodos.lista(findTestObject(""Object Repository/2.list_inputCheck""))",Firefox 71.0,,,2019-12-31 10:05:55,2019-12-31 10:05:59,"3,866s",PASSED
"test.Metodos.select_item_managment(findTestObject(""Generales/Select Item List/1.list_index""), id)",Firefox 71.0,,,2019-12-31 10:05:59,2019-12-31 10:06:00,"1,328s",PASSED
delay(5),Firefox 71.0,,,2019-12-31 10:06:00,2019-12-31 10:06:05,"5,004s",PASSED
"test.Metodos.select_items_actions(""#action-list-table > tbody > tr > td > a"")",Firefox 71.0,,,2019-12-31 10:06:05,2019-12-31 10:06:06,"1,174s",PASSED
delay(5),Firefox 71.0,,,2019-12-31 10:06:06,2019-12-31 10:06:11,"5,001s",PASSED
"click(findTestObject(""2.Planes de Accion/Generales/1.Index/1.Gestion del Plan/24.Cancelacion de una Accion/1.Cancelar""))",Firefox 71.0,,,2019-12-31 10:06:11,2019-12-31 10:06:12,"0,977s",PASSED
"test.Metodos.tiny1(findTestObject(""Object Repository/Generales/TinyMCE/Iframe""), 0)",Firefox 71.0,,,2019-12-31 10:06:12,2019-12-31 10:06:15,"2,832s",PASSED
"click(findTestObject(""2.Planes de Accion/Generales/1.Index/1.Gestion del Plan/24.Cancelacion de una Accion/2.Button_Save""))",Firefox 71.0,,,2019-12-31 10:06:15,2019-12-31 10:06:16,"0,742s",PASSED
