Suite/Test/Step Name,Browser,Description,Tag,Start time,End time,Duration,Status
1.gestion incidente,,,,2020-07-29 10:04:32,2020-07-29 10:07:01,"2m - 29,100s",FAILED
,,,,,,,
Test Cases/7.incidentes/generales/1.index/1.crear,,,,2020-07-29 10:04:33,2020-07-29 10:05:00,"26,848s",FAILED
"callTestCase(findTestCase(""7.incidentes/Daruma/Acceso al modulo""), [:], STOP_ON_FAILURE)",,,,2020-07-29 10:04:34,2020-07-29 10:05:00,"25,434s",FAILED
,,,,,,,
Test Cases/7.incidentes/generales/1.index/1.1 gestion_incidentes/1.analisis-en proceso,,,,2020-07-29 10:05:00,2020-07-29 10:06:05,"1m - 5,003s",FAILED
"callTestCase(findTestCase(""7.incidentes/generales/1.index/4.mostrar""), [:], STOP_ON_FAILURE)",,,,2020-07-29 10:05:01,2020-07-29 10:06:05,"1m - 3,084s",FAILED
,,,,,,,
Test Cases/7.incidentes/generales/1.index/1.1 gestion_incidentes/2.correccion-generar plan de accion,,,,2020-07-29 10:06:15,2020-07-29 10:06:47,"32,005s",FAILED
"callTestCase(findTestCase(""7.incidentes/generales/1.index/4.mostrar""), [:], STOP_ON_FAILURE)",,,,2020-07-29 10:06:16,2020-07-29 10:06:47,"30,306s",FAILED
,,,,,,,
Test Cases/7.incidentes/generales/1.index/1.1 gestion_incidentes/3.generar pplan de accion,,,,2020-07-29 10:06:47,2020-07-29 10:07:01,"14,163s",FAILED
"callTestCase(findTestCase(""7.incidentes/generales/1.index/4.mostrar""), [:], STOP_ON_FAILURE)",,,,2020-07-29 10:06:48,2020-07-29 10:07:01,"13,333s",FAILED
