Suite/Test/Step Name,Browser,Description,Tag,Start time,End time,Duration,Status
2.gestion incidente - tareas,Firefox 72.0,,,2020-03-03 14:59:51,2020-03-03 15:08:59,"9m - 7,336s",PASSED
,,,,,,,
Test Cases/7.incidentes/generales/1.index/1.crear,Firefox 72.0,,,2020-03-03 14:59:52,2020-03-03 15:01:50,"1m - 57,819s",PASSED
"callTestCase(findTestCase(""7.incidentes/Daruma/Acceso al modulo""), [:], STOP_ON_FAILURE)",Firefox 72.0,,,2020-03-03 14:59:52,2020-03-03 15:00:29,"36,083s",PASSED
"user = test.Metodos.get_Text(findTestObject(""7.incidentes/general/1.index/1.crear/1.uset""))",Firefox 72.0,,,2020-03-03 15:00:29,2020-03-03 15:00:29,"0,325s",PASSED
"click(findTestObject(""7.incidentes/general/1.index/1.crear/1.nuevo""))",Firefox 72.0,,,2020-03-03 15:00:29,2020-03-03 15:00:29,"0,551s",PASSED
delay(5),Firefox 72.0,,,2020-03-03 15:00:29,2020-03-03 15:00:34,"5,004s",PASSED
"selectOptionByValue(findTestObject(""7.incidentes/general/1.index/1.crear/1.select""), ""9"", false)",Firefox 72.0,,,2020-03-03 15:00:34,2020-03-03 15:00:35,"0,597s",PASSED
delay(5),Firefox 72.0,,,2020-03-03 15:00:35,2020-03-03 15:00:40,"5,022s",PASSED
"test.Metodos.tiny1(findTestObject(""Generales/TinyMCE/Iframe""), 0)",Firefox 72.0,,,2020-03-03 15:00:40,2020-03-03 15:00:41,"1,049s",PASSED
delay(5),Firefox 72.0,,,2020-03-03 15:00:41,2020-03-03 15:00:46,"5,004s",PASSED
"selectOptionByValue(findTestObject(""7.incidentes/general/1.index/1.crear/2.select""), ""1"", false)",Firefox 72.0,,,2020-03-03 15:00:46,2020-03-03 15:00:47,"0,819s",PASSED
delay(5),Firefox 72.0,,,2020-03-03 15:00:47,2020-03-03 15:00:52,"5,006s",PASSED
"click(findTestObject(""7.incidentes/general/1.index/1.crear/1.calendario""))",Firefox 72.0,,,2020-03-03 15:00:52,2020-03-03 15:00:52,"0,562s",PASSED
delay(5),Firefox 72.0,,,2020-03-03 15:00:52,2020-03-03 15:00:57,"5,007s",PASSED
"click(findTestObject(""7.incidentes/general/1.index/1.crear/1.fecha""))",Firefox 72.0,,,2020-03-03 15:00:57,2020-03-03 15:00:58,"0,560s",PASSED
delay(5),Firefox 72.0,,,2020-03-03 15:00:58,2020-03-03 15:01:03,"5,005s",PASSED
"setText(findTestObject(""7.incidentes/general/1.index/1.crear/1.input""), user)",Firefox 72.0,,,2020-03-03 15:01:03,2020-03-03 15:01:03,"0,348s",PASSED
delay(5),Firefox 72.0,,,2020-03-03 15:01:03,2020-03-03 15:01:08,"5,004s",PASSED
"test.Metodos.tiny1(findTestObject(""Generales/TinyMCE/Iframe""), 1)",Firefox 72.0,,,2020-03-03 15:01:08,2020-03-03 15:01:09,"0,842s",PASSED
delay(5),Firefox 72.0,,,2020-03-03 15:01:09,2020-03-03 15:01:14,"5,004s",PASSED
"test.Metodos.display_list_multi(findTestObject(""Generales/Select2/1.display_list_only""), 0)",Firefox 72.0,,,2020-03-03 15:01:14,2020-03-03 15:01:26,"11,240s",PASSED
delay(5),Firefox 72.0,,,2020-03-03 15:01:26,2020-03-03 15:01:31,"5,005s",PASSED
"setText(findTestObject(""7.incidentes/general/1.index/1.crear/2.input use""), user)",Firefox 72.0,,,2020-03-03 15:01:31,2020-03-03 15:01:31,"0,345s",PASSED
"enter = findWebElement(findTestObject(""7.incidentes/general/1.index/1.crear/2.input use""), 2)",Firefox 72.0,,,2020-03-03 15:01:31,2020-03-03 15:01:32,"0,881s",PASSED
enter.sendKeys(ENTER),Firefox 72.0,,,2020-03-03 15:01:32,2020-03-03 15:01:32,"0,072s",PASSED
delay(5),Firefox 72.0,,,2020-03-03 15:01:32,2020-03-03 15:01:37,"5,004s",PASSED
"selectOptionByValue(findTestObject(""7.incidentes/general/1.index/1.crear/3.select""), ""2"", false)",Firefox 72.0,,,2020-03-03 15:01:37,2020-03-03 15:01:38,"0,813s",PASSED
delay(5),Firefox 72.0,,,2020-03-03 15:01:38,2020-03-03 15:01:43,"5,007s",PASSED
"click(findTestObject(""7.incidentes/general/1.index/1.crear/1.btn_save""))",Firefox 72.0,,,2020-03-03 15:01:43,2020-03-03 15:01:43,"0,571s",PASSED
delay(5),Firefox 72.0,,,2020-03-03 15:01:43,2020-03-03 15:01:48,"5,006s",PASSED
"click(findTestObject(""7.incidentes/general/1.index/1.crear/1.btn_back""))",Firefox 72.0,,,2020-03-03 15:01:48,2020-03-03 15:01:50,"1,431s",PASSED
,,,,,,,
Test Cases/7.incidentes/generales/1.index/1.1 gestion_incidentes/6.analisis desde tareas,Firefox 72.0,,,2020-03-03 15:01:50,2020-03-03 15:03:26,"1m - 36,448s",PASSED
"callTestCase(findTestCase(""7.incidentes/generales/1.index/4.mostrar""), [:], STOP_ON_FAILURE)",Firefox 72.0,,,2020-03-03 15:01:50,2020-03-03 15:02:42,"52,063s",PASSED
"user = test.Metodos.get_Text(findTestObject(""7.incidentes/general/1.index/1.1gestion incidentes/3.generar_plan_de_accion/1.user""))",Firefox 72.0,,,2020-03-03 15:02:42,2020-03-03 15:02:42,"0,285s",PASSED
"codigo = test.Metodos.get_Text(findTestObject(""7.incidentes/general/1.index/1.1gestion incidentes/7.correccion_desde_tareas/1.id""))",Firefox 72.0,,,2020-03-03 15:02:42,2020-03-03 15:02:43,"0,285s",PASSED
comment(codigo),Firefox 72.0,,,2020-03-03 15:02:43,2020-03-03 15:02:43,"0,003s",PASSED
delay(3),Firefox 72.0,,,2020-03-03 15:02:43,2020-03-03 15:02:46,"3,004s",PASSED
"click(findTestObject(""7.incidentes/general/1.index/1.1gestion incidentes/7.correccion_desde_tareas/1.tareas""))",Firefox 72.0,,,2020-03-03 15:02:46,2020-03-03 15:02:46,"0,521s",PASSED
delay(3),Firefox 72.0,,,2020-03-03 15:02:46,2020-03-03 15:02:49,"3,005s",PASSED
"click(findTestObject(""7.incidentes/general/1.index/1.1gestion incidentes/6.analisis_desde_tareas/1.dezliegue""))",Firefox 72.0,,,2020-03-03 15:02:49,2020-03-03 15:02:50,"0,535s",PASSED
delay(3),Firefox 72.0,,,2020-03-03 15:02:50,2020-03-03 15:02:53,"3,003s",PASSED
"test.Metodos.comparar(findTestObject(""7.incidentes/general/1.index/1.1gestion incidentes/7.correccion_desde_tareas/1.casos""), codigo)",Firefox 72.0,,,2020-03-03 15:02:53,2020-03-03 15:02:56,"3,810s",PASSED
delay(3),Firefox 72.0,,,2020-03-03 15:02:56,2020-03-03 15:02:59,"3,003s",PASSED
"test.Metodos.tiny1(findTestObject(""Generales/TinyMCE/Iframe""), 0)",Firefox 72.0,,,2020-03-03 15:02:59,2020-03-03 15:03:00,"0,856s",PASSED
delay(3),Firefox 72.0,,,2020-03-03 15:03:00,2020-03-03 15:03:03,"3,002s",PASSED
"test.Metodos.display_list_multi(findTestObject(""Generales/Select2/1.1.display_list_multi""), 0)",Firefox 72.0,,,2020-03-03 15:03:03,2020-03-03 15:03:14,"10,587s",PASSED
"click(findTestObject(""7.incidentes/general/1.index/1.1gestion incidentes/1.analisis-en_proceso/1.seleccion""), STOP_ON_FAILURE)",Firefox 72.0,,,2020-03-03 15:03:14,2020-03-03 15:03:15,"1,017s",PASSED
delay(3),Firefox 72.0,,,2020-03-03 15:03:15,2020-03-03 15:03:18,"3,004s",PASSED
"test.Metodos.tiny1(findTestObject(""Generales/TinyMCE/Iframe""), 1)",Firefox 72.0,,,2020-03-03 15:03:18,2020-03-03 15:03:19,"0,875s",PASSED
delay(3),Firefox 72.0,,,2020-03-03 15:03:19,2020-03-03 15:03:22,"3,001s",PASSED
"selectOptionByValue(findTestObject(""7.incidentes/general/1.index/1.1gestion incidentes/1.analisis-en_proceso/2.select""), ""11"", false)",Firefox 72.0,,,2020-03-03 15:03:22,2020-03-03 15:03:23,"0,814s",PASSED
delay(3),Firefox 72.0,,,2020-03-03 15:03:23,2020-03-03 15:03:26,"3,006s",PASSED
"click(findTestObject(""7.incidentes/general/1.index/1.1gestion incidentes/1.analisis-en_proceso/1.btn_save""), STOP_ON_FAILURE)",Firefox 72.0,,,2020-03-03 15:03:26,2020-03-03 15:03:26,"0,522s",PASSED
,,,,,,,
Test Cases/7.incidentes/generales/1.index/1.1 gestion_incidentes/7.correccion desde tareas,Firefox 72.0,,,2020-03-03 15:03:26,2020-03-03 15:04:55,"1m - 28,808s",PASSED
"callTestCase(findTestCase(""7.incidentes/generales/1.index/4.mostrar""), [:], STOP_ON_FAILURE)",Firefox 72.0,,,2020-03-03 15:03:26,2020-03-03 15:04:17,"50,167s",PASSED
"codigo = test.Metodos.get_Text(findTestObject(""7.incidentes/general/1.index/1.1gestion incidentes/7.correccion_desde_tareas/1.id""))",Firefox 72.0,,,2020-03-03 15:04:17,2020-03-03 15:04:17,"0,285s",PASSED
comment(codigo),Firefox 72.0,,,2020-03-03 15:04:17,2020-03-03 15:04:17,"0,002s",PASSED
delay(3),Firefox 72.0,,,2020-03-03 15:04:17,2020-03-03 15:04:20,"3,004s",PASSED
"click(findTestObject(""7.incidentes/general/1.index/1.1gestion incidentes/7.correccion_desde_tareas/1.tareas""))",Firefox 72.0,,,2020-03-03 15:04:20,2020-03-03 15:04:20,"0,547s",PASSED
delay(3),Firefox 72.0,,,2020-03-03 15:04:20,2020-03-03 15:04:23,"3,003s",PASSED
"click(findTestObject(""7.incidentes/general/1.index/1.1gestion incidentes/6.analisis_desde_tareas/1.dezliegue""))",Firefox 72.0,,,2020-03-03 15:04:23,2020-03-03 15:04:24,"0,534s",PASSED
delay(3),Firefox 72.0,,,2020-03-03 15:04:24,2020-03-03 15:04:27,"3,004s",PASSED
"test.Metodos.comparar(findTestObject(""7.incidentes/general/1.index/1.1gestion incidentes/7.correccion_desde_tareas/1.casos""), codigo)",Firefox 72.0,,,2020-03-03 15:04:27,2020-03-03 15:04:31,"3,833s",PASSED
delay(3),Firefox 72.0,,,2020-03-03 15:04:31,2020-03-03 15:04:34,"3,004s",PASSED
palabra = test.Metodos.randomString(),Firefox 72.0,,,2020-03-03 15:04:34,2020-03-03 15:04:34,"0,014s",PASSED
delay(3),Firefox 72.0,,,2020-03-03 15:04:34,2020-03-03 15:04:37,"3,002s",PASSED
"setText(findTestObject(""7.incidentes/general/1.index/1.1gestion incidentes/2.correccion/1.text area""), palabra)",Firefox 72.0,,,2020-03-03 15:04:37,2020-03-03 15:04:37,"0,362s",PASSED
delay(3),Firefox 72.0,,,2020-03-03 15:04:37,2020-03-03 15:04:40,"3,003s",PASSED
"setText(findTestObject(""7.incidentes/general/1.index/1.1gestion incidentes/2.correccion/1.input_costo""), ""182525"")",Firefox 72.0,,,2020-03-03 15:04:40,2020-03-03 15:04:41,"0,331s",PASSED
delay(3),Firefox 72.0,,,2020-03-03 15:04:41,2020-03-03 15:04:44,"3,003s",PASSED
"selectOptionByValue(findTestObject(""7.incidentes/general/1.index/1.1gestion incidentes/2.correccion/1.select""), """", false)",Firefox 72.0,,,2020-03-03 15:04:44,2020-03-03 15:04:44,"0,002s",NOT_RUN
delay(3),Firefox 72.0,,,2020-03-03 15:04:44,2020-03-03 15:04:44,"0,001s",NOT_RUN
"selectOptionByValue(findTestObject(""7.incidentes/general/1.index/1.1gestion incidentes/2.correccion/2.select""), """", false)",Firefox 72.0,,,2020-03-03 15:04:44,2020-03-03 15:04:44,"0,001s",NOT_RUN
delay(3),Firefox 72.0,,,2020-03-03 15:04:44,2020-03-03 15:04:47,"3,002s",PASSED
"test.Metodos.tiny1(findTestObject(""Generales/TinyMCE/Iframe""), 0)",Firefox 72.0,,,2020-03-03 15:04:47,2020-03-03 15:04:47,"0,914s",PASSED
delay(3),Firefox 72.0,,,2020-03-03 15:04:47,2020-03-03 15:04:50,"3,003s",PASSED
"selectOptionByValue(findTestObject(""7.incidentes/general/1.index/1.1gestion incidentes/2.correccion/3.select""), ""10"", false)",Firefox 72.0,,,2020-03-03 15:04:50,2020-03-03 15:04:51,"0,844s",PASSED
delay(3),Firefox 72.0,,,2020-03-03 15:04:51,2020-03-03 15:04:54,"3,005s",PASSED
"click(findTestObject(""7.incidentes/general/1.index/1.1gestion incidentes/2.correccion/1btn_save""))",Firefox 72.0,,,2020-03-03 15:04:54,2020-03-03 15:04:55,"0,583s",PASSED
,,,,,,,
Test Cases/7.incidentes/generales/1.index/1.1 gestion_incidentes/8.generar plan de accion tareas,Firefox 72.0,,,2020-03-03 15:04:55,2020-03-03 15:08:59,"4m - 3,866s",PASSED
"callTestCase(findTestCase(""7.incidentes/generales/1.index/4.mostrar""), [:], STOP_ON_FAILURE)",Firefox 72.0,,,2020-03-03 15:04:55,2020-03-03 15:05:45,"49,945s",PASSED
"user = test.Metodos.get_Text(findTestObject(""7.incidentes/general/1.index/1.1gestion incidentes/3.generar_plan_de_accion/1.user""))",Firefox 72.0,,,2020-03-03 15:05:45,2020-03-03 15:05:45,"0,287s",PASSED
"codigo = test.Metodos.get_Text(findTestObject(""7.incidentes/general/1.index/1.1gestion incidentes/7.correccion_desde_tareas/1.id""))",Firefox 72.0,,,2020-03-03 15:05:45,2020-03-03 15:05:46,"0,281s",PASSED
comment(codigo),Firefox 72.0,,,2020-03-03 15:05:46,2020-03-03 15:05:46,"0,002s",PASSED
delay(3),Firefox 72.0,,,2020-03-03 15:05:46,2020-03-03 15:05:49,"3,002s",PASSED
"click(findTestObject(""7.incidentes/general/1.index/1.1gestion incidentes/7.correccion_desde_tareas/1.tareas""))",Firefox 72.0,,,2020-03-03 15:05:49,2020-03-03 15:05:49,"0,532s",PASSED
delay(3),Firefox 72.0,,,2020-03-03 15:05:49,2020-03-03 15:05:52,"3,002s",PASSED
"click(findTestObject(""7.incidentes/general/1.index/1.1gestion incidentes/6.analisis_desde_tareas/1.dezliegue""))",Firefox 72.0,,,2020-03-03 15:05:52,2020-03-03 15:05:53,"0,533s",PASSED
delay(3),Firefox 72.0,,,2020-03-03 15:05:53,2020-03-03 15:05:56,"3,005s",PASSED
"test.Metodos.comparar(findTestObject(""7.incidentes/general/1.index/1.1gestion incidentes/7.correccion_desde_tareas/1.casos""), codigo)",Firefox 72.0,,,2020-03-03 15:05:56,2020-03-03 15:06:00,"3,784s",PASSED
delay(3),Firefox 72.0,,,2020-03-03 15:06:00,2020-03-03 15:06:03,"3,003s",PASSED
"test.Metodos.display_list_only(findTestObject(""Generales/Select2/1.display_list_only""), 0)",Firefox 72.0,,,2020-03-03 15:06:03,2020-03-03 15:06:14,"11,002s",PASSED
"test.Metodos.element_selected(findTestObject(""Object Repository/Generales/Select2/2.select_option""), 1)",Firefox 72.0,,,2020-03-03 15:06:14,2020-03-03 15:06:21,"7,014s",PASSED
"test.Metodos.display_list_only(findTestObject(""Generales/Select2/1.display_list_only""), 1)",Firefox 72.0,,,2020-03-03 15:06:21,2020-03-03 15:06:32,"11,017s",PASSED
"test.Metodos.element_selected(findTestObject(""Object Repository/Generales/Select2/2.select_option""), 1)",Firefox 72.0,,,2020-03-03 15:06:32,2020-03-03 15:06:39,"7,016s",PASSED
"click(findTestObject(""2.Planes de Accion/Generales/1.Index/1.1.Crear/3.Origenes""))",Firefox 72.0,,,2020-03-03 15:06:39,2020-03-03 15:06:39,"0,795s",PASSED
"selectOptionByValue(findTestObject(""7.incidentes/general/1.index/1.1gestion incidentes/3.generar_plan_de_accion/1.select""), ""1"", false)",Firefox 72.0,,,2020-03-03 15:06:39,2020-03-03 15:06:40,"0,805s",PASSED
"test.Metodos.tiny1(findTestObject(""Generales/TinyMCE/Iframe""), 0)",Firefox 72.0,,,2020-03-03 15:06:40,2020-03-03 15:06:41,"0,846s",PASSED
delay(5),Firefox 72.0,,,2020-03-03 15:06:41,2020-03-03 15:06:46,"5,002s",PASSED
"test.Metodos.tiny1(findTestObject(""Generales/TinyMCE/Iframe""), 1)",Firefox 72.0,,,2020-03-03 15:06:46,2020-03-03 15:06:47,"0,866s",PASSED
delay(5),Firefox 72.0,,,2020-03-03 15:06:47,2020-03-03 15:06:52,"5,003s",PASSED
"test.Metodos.tiny1(findTestObject(""Generales/TinyMCE/Iframe""), 2)",Firefox 72.0,,,2020-03-03 15:06:52,2020-03-03 15:06:53,"0,826s",PASSED
delay(5),Firefox 72.0,,,2020-03-03 15:06:53,2020-03-03 15:06:58,"5,002s",PASSED
delay(5),Firefox 72.0,,,2020-03-03 15:06:58,2020-03-03 15:07:03,"5,003s",PASSED
"test.Metodos.tiny1(findTestObject(""Generales/TinyMCE/Iframe""), 3)",Firefox 72.0,,,2020-03-03 15:07:03,2020-03-03 15:07:04,"0,840s",PASSED
delay(5),Firefox 72.0,,,2020-03-03 15:07:04,2020-03-03 15:07:09,"5,001s",PASSED
"test.Metodos.tiny1(findTestObject(""Generales/TinyMCE/Iframe""), 4)",Firefox 72.0,,,2020-03-03 15:07:09,2020-03-03 15:07:09,"0,815s",PASSED
delay(5),Firefox 72.0,,,2020-03-03 15:07:09,2020-03-03 15:07:14,"5,001s",PASSED
"test.Metodos.display_list_multi(findTestObject(""Generales/Select2/1.1.display_list_multi""), 2)",Firefox 72.0,,,2020-03-03 15:07:14,2020-03-03 15:07:25,"10,629s",PASSED
delay(5),Firefox 72.0,,,2020-03-03 15:07:25,2020-03-03 15:07:30,"5,004s",PASSED
"setText(findTestObject(""7.incidentes/general/1.index/1.1gestion incidentes/3.generar_plan_de_accion/1.input""), user)",Firefox 72.0,,,2020-03-03 15:07:30,2020-03-03 15:07:31,"0,395s",PASSED
"enter = findWebElement(findTestObject(""7.incidentes/general/1.index/1.1gestion incidentes/3.generar_plan_de_accion/1.input""), 2)",Firefox 72.0,,,2020-03-03 15:07:31,2020-03-03 15:07:31,"0,873s",PASSED
enter.sendKeys(ENTER),Firefox 72.0,,,2020-03-03 15:07:31,2020-03-03 15:07:31,"0,082s",PASSED
delay(5),Firefox 72.0,,,2020-03-03 15:07:31,2020-03-03 15:07:36,"5,003s",PASSED
"test.Metodos.display_list_multi(findTestObject(""Generales/Select2/1.1.display_list_multi""), 5)",Firefox 72.0,,,2020-03-03 15:07:36,2020-03-03 15:07:47,"10,564s",PASSED
delay(5),Firefox 72.0,,,2020-03-03 15:07:47,2020-03-03 15:07:52,"5,004s",PASSED
"test.Metodos.select2(findTestObject(""Object Repository/Generales/Select2/2.select_option""), 0)",Firefox 72.0,,,2020-03-03 15:07:52,2020-03-03 15:08:03,"11,036s",PASSED
"test.Metodos.display_list_multi(findTestObject(""Object Repository/Generales/Select2/1.1.display_list_multi""), 6)",Firefox 72.0,,,2020-03-03 15:08:03,2020-03-03 15:08:14,"10,551s",PASSED
"test.Metodos.select2(findTestObject(""Object Repository/Generales/Select2/2.select_option""), 0)",Firefox 72.0,,,2020-03-03 15:08:14,2020-03-03 15:08:25,"11,007s",PASSED
"test.Metodos.display_list_multi(findTestObject(""Object Repository/Generales/Select2/1.1.display_list_multi""), 7)",Firefox 72.0,,,2020-03-03 15:08:25,2020-03-03 15:08:35,"10,557s",PASSED
"test.Metodos.select2(findTestObject(""Object Repository/Generales/Select2/2.select_option""), 0)",Firefox 72.0,,,2020-03-03 15:08:35,2020-03-03 15:08:46,"11,006s",PASSED
delay(5),Firefox 72.0,,,2020-03-03 15:08:46,2020-03-03 15:08:51,"5,003s",PASSED
"test.Metodos.tiny1(findTestObject(""Generales/TinyMCE/Iframe""), 5)",Firefox 72.0,,,2020-03-03 15:08:51,2020-03-03 15:08:52,"0,886s",PASSED
delay(5),Firefox 72.0,,,2020-03-03 15:08:52,2020-03-03 15:08:57,"5,002s",PASSED
"selectOptionByValue(findTestObject(""7.incidentes/general/1.index/1.1gestion incidentes/3.generar_plan_de_accion/2.select""), ""13"", false)",Firefox 72.0,,,2020-03-03 15:08:57,2020-03-03 15:08:58,"0,817s",PASSED
"click(findTestObject(""7.incidentes/general/1.index/1.1gestion incidentes/3.generar_plan_de_accion/1.btn_save""))",Firefox 72.0,,,2020-03-03 15:08:58,2020-03-03 15:08:59,"0,875s",PASSED
