Suite/Test/Step Name,Browser,Description,Tag,Start time,End time,Duration,Status
2.Origenes planes de accion,Firefox 72.0,,,2020-01-21 15:14:27,2020-01-21 15:19:56,"5m - 29,579s",PASSED
,,,,,,,
Test Cases/2.Planes de Accion/Configuracion/2.Origenes planes de Accion/1.Test Cases General/0.Ver,Firefox 72.0,,,2020-01-21 15:14:27,2020-01-21 15:15:20,"53,004s",PASSED
"callTestCase(findTestCase(""2.Planes de Accion/Daruma/Acceso al modulo""), [:])",Firefox 72.0,,,2020-01-21 15:14:28,2020-01-21 15:15:14,"46,082s",PASSED
"click(findTestObject(""2.Planes de Accion/Configuracion/2.Origenes planes de Accion/1.Generales/0.Ver/1.a_Configuration""))",Firefox 72.0,,,2020-01-21 15:15:14,2020-01-21 15:15:14,"0,616s",PASSED
"click(findTestObject(""2.Planes de Accion/Configuracion/2.Origenes planes de Accion/1.Generales/0.Ver/2.a_Origins""))",Firefox 72.0,,,2020-01-21 15:15:14,2020-01-21 15:15:15,"0,752s",PASSED
delay(5),Firefox 72.0,,,2020-01-21 15:15:15,2020-01-21 15:15:20,"5,009s",PASSED
,,,,,,,
Test Cases/2.Planes de Accion/Configuracion/2.Origenes planes de Accion/1.Test Cases General/1.Crear,Firefox 72.0,,,2020-01-21 15:15:20,2020-01-21 15:16:15,"55,143s",PASSED
palabra = test.Metodos.randomString(),Firefox 72.0,,,2020-01-21 15:15:20,2020-01-21 15:15:20,"0,036s",PASSED
"callTestCase(findTestCase(""2.Planes de Accion/Configuracion/2.Origenes planes de Accion/1.Test Cases General/0.Ver""), [:])",Firefox 72.0,,,2020-01-21 15:15:20,2020-01-21 15:16:06,"45,851s",PASSED
"click(findTestObject(""2.Planes de Accion/Configuracion/2.Origenes planes de Accion/1.Generales/1.Crear/1.btn_Create""))",Firefox 72.0,,,2020-01-21 15:16:06,2020-01-21 15:16:07,"0,618s",PASSED
"setText(findTestObject(""2.Planes de Accion/Configuracion/2.Origenes planes de Accion/1.Generales/1.Crear/2.input_classname""), palabra)",Firefox 72.0,,,2020-01-21 15:16:07,2020-01-21 15:16:08,"1,136s",PASSED
"selectOptionByValue(findTestObject(""2.Planes de Accion/Configuracion/2.Origenes planes de Accion/1.Generales/1.Crear/3.select_related_record""), ""AccidentBase"", true)",Firefox 72.0,,,2020-01-21 15:16:08,2020-01-21 15:16:10,"1,585s",PASSED
"click(findTestObject(""2.Planes de Accion/Configuracion/2.Origenes planes de Accion/1.Generales/1.Crear/4.btn_Save""))",Firefox 72.0,,,2020-01-21 15:16:10,2020-01-21 15:16:10,"0,655s",PASSED
delay(5),Firefox 72.0,,,2020-01-21 15:16:10,2020-01-21 15:16:15,"5,006s",PASSED
,,,,,,,
Test Cases/2.Planes de Accion/Configuracion/2.Origenes planes de Accion/1.Test Cases General/2.Editar,Firefox 72.0,,,2020-01-21 15:16:15,2020-01-21 15:17:12,"56,444s",PASSED
palabra = test.Metodos.randomStringEdit(),Firefox 72.0,,,2020-01-21 15:16:16,2020-01-21 15:16:16,"0,002s",PASSED
"callTestCase(findTestCase(""2.Planes de Accion/Configuracion/2.Origenes planes de Accion/1.Test Cases General/0.Ver""), [:])",Firefox 72.0,,,2020-01-21 15:16:16,2020-01-21 15:17:01,"45,692s",PASSED
"click(findTestObject(""2.Planes de Accion/Configuracion/2.Origenes planes de Accion/1.Generales/2.Editar/1.inputCheck_items""))",Firefox 72.0,,,2020-01-21 15:17:01,2020-01-21 15:17:02,"0,600s",PASSED
"click(findTestObject(""2.Planes de Accion/Configuracion/2.Origenes planes de Accion/1.Generales/2.Editar/2.btn_Edit""))",Firefox 72.0,,,2020-01-21 15:17:02,2020-01-21 15:17:03,"0,607s",PASSED
"setText(findTestObject(""2.Planes de Accion/Configuracion/2.Origenes planes de Accion/1.Generales/2.Editar/3.input_classname""), palabra)",Firefox 72.0,,,2020-01-21 15:17:03,2020-01-21 15:17:05,"2,131s",PASSED
"selectOptionByValue(findTestObject(""2.Planes de Accion/Configuracion/2.Origenes planes de Accion/1.Generales/2.Editar/4.select_related_record""), ""StrategyBase"", true)",Firefox 72.0,,,2020-01-21 15:17:05,2020-01-21 15:17:06,"1,459s",PASSED
"click(findTestObject(""2.Planes de Accion/Configuracion/2.Origenes planes de Accion/1.Generales/2.Editar/5.btn_Save""))",Firefox 72.0,,,2020-01-21 15:17:06,2020-01-21 15:17:07,"0,625s",PASSED
delay(5),Firefox 72.0,,,2020-01-21 15:17:07,2020-01-21 15:17:12,"5,006s",PASSED
,,,,,,,
Test Cases/2.Planes de Accion/Configuracion/2.Origenes planes de Accion/1.Test Cases General/3.Eliminar,Firefox 72.0,,,2020-01-21 15:17:12,2020-01-21 15:18:03,"51,270s",PASSED
"callTestCase(findTestCase(""2.Planes de Accion/Configuracion/2.Origenes planes de Accion/1.Test Cases General/0.Ver""), [:])",Firefox 72.0,,,2020-01-21 15:17:12,2020-01-21 15:17:57,"44,792s",PASSED
"click(findTestObject(""2.Planes de Accion/Configuracion/2.Origenes planes de Accion/1.Generales/3.Eliminar/1.inputCheck_items""))",Firefox 72.0,,,2020-01-21 15:17:57,2020-01-21 15:17:58,"0,598s",PASSED
"click(findTestObject(""2.Planes de Accion/Configuracion/2.Origenes planes de Accion/1.Generales/3.Eliminar/2.btn_Delete""))",Firefox 72.0,,,2020-01-21 15:17:58,2020-01-21 15:17:58,"0,452s",PASSED
acceptAlert(),Firefox 72.0,,,2020-01-21 15:17:58,2020-01-21 15:17:58,"0,074s",PASSED
delay(5),Firefox 72.0,,,2020-01-21 15:17:58,2020-01-21 15:18:03,"5,003s",PASSED
,,,,,,,
Test Cases/2.Planes de Accion/Configuracion/2.Origenes planes de Accion/1.Test Cases General/4.Inhabilitar,Firefox 72.0,,,2020-01-21 15:18:03,2020-01-21 15:18:57,"54,103s",PASSED
"callTestCase(findTestCase(""2.Planes de Accion/Configuracion/2.Origenes planes de Accion/1.Test Cases General/0.Ver""), [:])",Firefox 72.0,,,2020-01-21 15:18:03,2020-01-21 15:18:51,"47,237s",PASSED
"click(findTestObject(""2.Planes de Accion/Configuracion/2.Origenes planes de Accion/1.Generales/4.Inhabilitar/1.inputCheck_items""))",Firefox 72.0,,,2020-01-21 15:18:51,2020-01-21 15:18:51,"0,594s",PASSED
"click(findTestObject(""2.Planes de Accion/Configuracion/2.Origenes planes de Accion/1.Generales/4.Inhabilitar/2.btn_Disable_1""))",Firefox 72.0,,,2020-01-21 15:18:51,2020-01-21 15:18:52,"0,574s",PASSED
"click(findTestObject(""2.Planes de Accion/Configuracion/2.Origenes planes de Accion/1.Generales/4.Inhabilitar/3.btn_Disable_2""))",Firefox 72.0,,,2020-01-21 15:18:52,2020-01-21 15:18:52,"0,406s",PASSED
acceptAlert(),Firefox 72.0,,,2020-01-21 15:18:52,2020-01-21 15:18:52,"0,080s",PASSED
delay(5),Firefox 72.0,,,2020-01-21 15:18:52,2020-01-21 15:18:57,"5,005s",PASSED
,,,,,,,
Test Cases/2.Planes de Accion/Configuracion/2.Origenes planes de Accion/1.Test Cases General/5.Filtrar,Firefox 72.0,,,2020-01-21 15:18:57,2020-01-21 15:19:56,"59,066s",PASSED
"callTestCase(findTestCase(""2.Planes de Accion/Configuracion/2.Origenes planes de Accion/1.Test Cases General/0.Ver""), [:])",Firefox 72.0,,,2020-01-21 15:18:58,2020-01-21 15:19:48,"50,711s",PASSED
"click(findTestObject(""Object Repository/2.Planes de Accion/Configuracion/2.Origenes planes de Accion/1.Generales/5.Filtrar/1.btn_Filter""))",Firefox 72.0,,,2020-01-21 15:19:48,2020-01-21 15:19:49,"0,593s",PASSED
"setText(findTestObject(""2.Planes de Accion/Configuracion/2.Origenes planes de Accion/1.Generales/5.Filtrar/2.input_filtersnametext""), ""Editando ando"")",Firefox 72.0,,,2020-01-21 15:19:49,2020-01-21 15:19:49,"0,397s",PASSED
"selectOptionByValue(findTestObject(""2.Planes de Accion/Configuracion/2.Origenes planes de Accion/1.Generales/5.Filtrar/3.select_related_record""), ""AccidentBase"", true)",Firefox 72.0,,,2020-01-21 15:19:49,2020-01-21 15:19:51,"1,489s",PASSED
"click(findTestObject(""2.Planes de Accion/Configuracion/2.Origenes planes de Accion/1.Generales/5.Filtrar/4.btn_Filter""))",Firefox 72.0,,,2020-01-21 15:19:51,2020-01-21 15:19:51,"0,550s",PASSED
delay(5),Firefox 72.0,,,2020-01-21 15:19:51,2020-01-21 15:19:56,"5,004s",PASSED
