Suite/Test/Step Name,Browser,Description,Tag,Start time,End time,Duration,Status
4.Informes-Reporte general por acciones_Imprimir,Firefox 71.0,,,2020-01-02 17:07:22,2020-01-02 17:11:38,"4m - 15,325s",PASSED
,,,,,,,
Test Cases/2.Planes de Accion/Generales/5.Informes/4.Informes-Reporte general por acciones_Imprimir,Firefox 71.0,,,2020-01-02 17:07:23,2020-01-02 17:11:38,"4m - 14,533s",PASSED
"callTestCase(findTestCase(""2.Planes de Accion/Daruma/Acceso al modulo""), [:])",Firefox 71.0,,,2020-01-02 17:07:24,2020-01-02 17:08:14,"49,942s",PASSED
delay(6),Firefox 71.0,,,2020-01-02 17:08:14,2020-01-02 17:08:20,"6,012s",PASSED
"click(findTestObject(""2.Planes de Accion/Daruma/Acceso al modulo/5.Open_Reports""))",Firefox 71.0,,,2020-01-02 17:08:20,2020-01-02 17:08:21,"0,637s",PASSED
"click(findTestObject(""2.Planes de Accion/Generales/4.Informes/1.Informes por acciones_filtro/1.General_informes""))",Firefox 71.0,,,2020-01-02 17:08:21,2020-01-02 17:08:26,"5,440s",PASSED
"switchToWindowUrl(""http://52.11.126.234/app.php/staff/actionplan/viewReportByGeneral"")",Firefox 71.0,,,2020-01-02 17:08:26,2020-01-02 17:08:27,"1,380s",PASSED
delay(6),Firefox 71.0,,,2020-01-02 17:08:27,2020-01-02 17:08:33,"6,006s",PASSED
"click(findTestObject(""2.Planes de Accion/Generales/4.Informes/4.Informes_Reporte general por acciones_Imprimir/1.Print""))",Firefox 71.0,,,2020-01-02 17:08:33,2020-01-02 17:11:38,"3m - 4,214s",PASSED
