Suite/Test/Step Name,Browser,Description,Tag,Start time,End time,Duration,Status
16.Seguir Accion,Firefox 71.0,,,2019-12-27 15:10:09,2019-12-27 15:20:59,"10m - 50,070s",PASSED
,,,,,,,
Test Cases/2.Planes de Accion/Generales/1.Index/1.Crear Plan de Accion,Firefox 71.0,,,2019-12-27 15:10:10,2019-12-27 15:14:46,"4m - 36,441s",PASSED
"callTestCase(findTestCase(""2.Planes de Accion/Daruma/Acceso al modulo""), [:])",Firefox 71.0,,,2019-12-27 15:10:11,2019-12-27 15:10:58,"46,778s",PASSED
"click(findTestObject(""2.Planes de Accion/Generales/1.Index/1.1.Crear/1.btn_Create""))",Firefox 71.0,,,2019-12-27 15:10:58,2019-12-27 15:10:59,"0,578s",PASSED
delay(5),Firefox 71.0,,,2019-12-27 15:10:59,2019-12-27 15:11:04,"5,005s",PASSED
"test.Metodos.display_list_only(findTestObject(""Generales/Select2/1.display_list_only""), 0)",Firefox 71.0,,,2019-12-27 15:11:04,2019-12-27 15:11:15,"11,854s",PASSED
"test.Metodos.element_selected(findTestObject(""Object Repository/Generales/Select2/2.select_option""), 1)",Firefox 71.0,,,2019-12-27 15:11:15,2019-12-27 15:11:23,"7,082s",PASSED
"test.Metodos.display_list_only(findTestObject(""Generales/Select2/1.display_list_only""), 1)",Firefox 71.0,,,2019-12-27 15:11:23,2019-12-27 15:11:34,"11,036s",PASSED
"test.Metodos.element_selected(findTestObject(""Object Repository/Generales/Select2/2.select_option""), 1)",Firefox 71.0,,,2019-12-27 15:11:34,2019-12-27 15:11:41,"7,078s",PASSED
"test.Metodos.display_list_multi(findTestObject(""Object Repository/Generales/Select2/1.1.display_list_multi""), 0)",Firefox 71.0,,,2019-12-27 15:11:41,2019-12-27 15:11:51,"10,626s",PASSED
"test.Metodos.select2(findTestObject(""Object Repository/Generales/Select2/2.select_option""), 0)",Firefox 71.0,,,2019-12-27 15:11:51,2019-12-27 15:12:02,"11,120s",PASSED
"click(findTestObject(""2.Planes de Accion/Generales/1.Index/1.1.Crear/3.Origenes""))",Firefox 71.0,,,2019-12-27 15:12:02,2019-12-27 15:12:03,"0,910s",PASSED
"test.Metodos.display_list_multi(findTestObject(""Object Repository/Generales/Select2/1.1.display_list_multi""), 1)",Firefox 71.0,,,2019-12-27 15:12:03,2019-12-27 15:12:14,"10,890s",PASSED
"test.Metodos.select2(findTestObject(""Object Repository/Generales/Select2/2.1.select_option_multi""), 1)",Firefox 71.0,,,2019-12-27 15:12:14,2019-12-27 15:12:27,"12,402s",PASSED
"elementSelect = test.Metodos.select2_config(findTestObject(""2.Planes de Accion/Generales/1.Index/1.1.Crear/4.Element_select""))",Firefox 71.0,,,2019-12-27 15:12:27,2019-12-27 15:12:28,"1,359s",PASSED
"selectOptionByValue(findTestObject(""2.Planes de Accion/Generales/1.Index/1.1.Crear/5.select_type""), elementSelect.toString(), true)",Firefox 71.0,,,2019-12-27 15:12:28,2019-12-27 15:12:29,"1,522s",PASSED
"getNumberOfTotalOption(findTestObject(""2.Planes de Accion/Generales/1.Index/1.1.Crear/4.Element_select""))",Firefox 71.0,,,2019-12-27 15:12:29,2019-12-27 15:12:30,"0,583s",PASSED
"test.Metodos.tiny1(findTestObject(""2.Planes de Accion/Generales/1.Index/1.1.Crear/6.TinyMCE""), 0)",Firefox 71.0,,,2019-12-27 15:12:30,2019-12-27 15:12:31,"1,016s",PASSED
delay(5),Firefox 71.0,,,2019-12-27 15:12:31,2019-12-27 15:12:36,"5,004s",PASSED
"test.Metodos.tiny1(findTestObject(""2.Planes de Accion/Generales/1.Index/1.1.Crear/6.TinyMCE""), 1)",Firefox 71.0,,,2019-12-27 15:12:36,2019-12-27 15:12:37,"1,008s",PASSED
delay(5),Firefox 71.0,,,2019-12-27 15:12:37,2019-12-27 15:12:42,"5,004s",PASSED
"selectOptionByValue(findTestObject(""2.Planes de Accion/Generales/1.Index/1.1.Crear/7.select_track_freq""), ""4"", true)",Firefox 71.0,,,2019-12-27 15:12:42,2019-12-27 15:12:43,"1,098s",PASSED
"setText(findTestObject(""2.Planes de Accion/Generales/1.Index/1.1.Crear/8.input_num_periods""), ""1"")",Firefox 71.0,,,2019-12-27 15:12:43,2019-12-27 15:12:44,"0,424s",PASSED
"selectOptionByValue(findTestObject(""2.Planes de Accion/Generales/1.Index/1.1.Crear/9.select_criticality_id""), ""21"", true)",Firefox 71.0,,,2019-12-27 15:12:44,2019-12-27 15:12:46,"2,534s",PASSED
"test.Metodos.display_list_multi(findTestObject(""Object Repository/Generales/Select2/1.1.display_list_multi""), 2)",Firefox 71.0,,,2019-12-27 15:12:46,2019-12-27 15:12:58,"11,734s",PASSED
"test.Metodos.select2(findTestObject(""Object Repository/Generales/Select2/2.select_option""), 0)",Firefox 71.0,,,2019-12-27 15:12:58,2019-12-27 15:13:09,"11,097s",PASSED
"test.Metodos.display_list_multi(findTestObject(""Object Repository/Generales/Select2/1.1.display_list_multi""), 5)",Firefox 71.0,,,2019-12-27 15:13:09,2019-12-27 15:13:20,"10,580s",PASSED
delay(5),Firefox 71.0,,,2019-12-27 15:13:20,2019-12-27 15:13:25,"5,006s",PASSED
"test.Metodos.select2(findTestObject(""Object Repository/Generales/Select2/2.select_option""), 0)",Firefox 71.0,,,2019-12-27 15:13:25,2019-12-27 15:13:36,"11,084s",PASSED
"test.Metodos.display_list_multi(findTestObject(""Object Repository/Generales/Select2/1.1.display_list_multi""), 6)",Firefox 71.0,,,2019-12-27 15:13:36,2019-12-27 15:13:46,"10,600s",PASSED
"test.Metodos.select2(findTestObject(""Object Repository/Generales/Select2/2.select_option""), 0)",Firefox 71.0,,,2019-12-27 15:13:46,2019-12-27 15:13:57,"11,040s",PASSED
"test.Metodos.display_list_multi(findTestObject(""Object Repository/Generales/Select2/1.1.display_list_multi""), 7)",Firefox 71.0,,,2019-12-27 15:13:57,2019-12-27 15:14:08,"10,589s",PASSED
"test.Metodos.select2(findTestObject(""Object Repository/Generales/Select2/2.select_option""), 0)",Firefox 71.0,,,2019-12-27 15:14:08,2019-12-27 15:14:19,"11,046s",PASSED
"test.Metodos.display_list_multi(findTestObject(""Object Repository/Generales/Select2/1.1.display_list_multi""), 8)",Firefox 71.0,,,2019-12-27 15:14:19,2019-12-27 15:14:30,"10,618s",PASSED
"test.Metodos.select2(findTestObject(""Object Repository/Generales/Select2/2.select_option""), 0)",Firefox 71.0,,,2019-12-27 15:14:30,2019-12-27 15:14:41,"11,069s",PASSED
delay(5),Firefox 71.0,,,2019-12-27 15:14:41,2019-12-27 15:14:46,"5,005s",PASSED
"click(findTestObject(""2.Planes de Accion/Generales/1.Index/1.1.Crear/10.btn_Save""))",Firefox 71.0,,,2019-12-27 15:14:46,2019-12-27 15:14:46,"0,618s",PASSED
,,,,,,,
Test Cases/2.Planes de Accion/Generales/1.Index/1.1.Gestion del Plan/2.Agregar Accion,Firefox 71.0,,,2019-12-27 15:14:46,2019-12-27 15:16:11,"1m - 24,298s",PASSED
"callTestCase(findTestCase(""2.Planes de Accion/Daruma/Acceso al modulo""), [:])",Firefox 71.0,,,2019-12-27 15:14:47,2019-12-27 15:15:33,"46,714s",PASSED
"id = test.Metodos.lista(findTestObject(""Object Repository/2.list_inputCheck""))",Firefox 71.0,,,2019-12-27 15:15:33,2019-12-27 15:15:37,"3,853s",PASSED
"test.Metodos.select_item_managment(findTestObject(""Generales/Select Item List/1.list_index""), id)",Firefox 71.0,,,2019-12-27 15:15:37,2019-12-27 15:15:39,"1,465s",PASSED
delay(5),Firefox 71.0,,,2019-12-27 15:15:39,2019-12-27 15:15:44,"5,003s",PASSED
"click(findTestObject(""2.Planes de Accion/Generales/1.Index/1.Gestion del Plan/1.Analisis/1.btn_option_more""))",Firefox 71.0,,,2019-12-27 15:15:44,2019-12-27 15:15:44,"0,531s",PASSED
"click(findTestObject(""2.Planes de Accion/Generales/1.Index/1.Gestion del Plan/1.Analisis/2.btn_analyze""))",Firefox 71.0,,,2019-12-27 15:15:44,2019-12-27 15:15:45,"0,803s",PASSED
"test.Metodos.tiny1(findTestObject(""Object Repository/Generales/TinyMCE/Iframe""), 0)",Firefox 71.0,,,2019-12-27 15:15:45,2019-12-27 15:15:49,"3,803s",PASSED
"click(findTestObject(""2.Planes de Accion/Generales/1.Index/1.Gestion del Plan/1.Analisis/3.btn_Save""))",Firefox 71.0,,,2019-12-27 15:15:49,2019-12-27 15:15:51,"1,893s",PASSED
delay(5),Firefox 71.0,,,2019-12-27 15:15:51,2019-12-27 15:15:56,"5,004s",PASSED
"selectOptionByValue(findTestObject(""2.Planes de Accion/Generales/1.Index/1.Gestion del Plan/1.Analisis/4.select_cause_effect""), ""2"", false)",Firefox 71.0,,,2019-12-27 15:15:56,2019-12-27 15:15:56,"0,820s",PASSED
"click(findTestObject(""2.Planes de Accion/Generales/1.Index/1.Gestion del Plan/1.Analisis/5.inputCheck_add_actions""))",Firefox 71.0,,,2019-12-27 15:15:56,2019-12-27 15:15:57,"0,552s",PASSED
"click(findTestObject(""2.Planes de Accion/Generales/1.Index/1.Gestion del Plan/1.Analisis/3.btn_Save""))",Firefox 71.0,,,2019-12-27 15:15:57,2019-12-27 15:15:58,"0,551s",PASSED
"test.Metodos.tiny1(findTestObject(""Object Repository/Generales/TinyMCE/Iframe""), 0)",Firefox 71.0,,,2019-12-27 15:15:58,2019-12-27 15:16:04,"6,600s",PASSED
"selectOptionByValue(findTestObject(""2.Planes de Accion/Generales/1.Index/1.Gestion del Plan/1.Analisis/6.select_action_type""), ""1"", true)",Firefox 71.0,,,2019-12-27 15:16:04,2019-12-27 15:16:05,"1,047s",PASSED
"selectOptionByValue(findTestObject(""2.Planes de Accion/Generales/1.Index/1.Gestion del Plan/1.Analisis/7.select_end_date_month""), ""12"", true)",Firefox 71.0,,,2019-12-27 15:16:05,2019-12-27 15:16:06,"1,245s",PASSED
"selectOptionByValue(findTestObject(""2.Planes de Accion/Generales/1.Index/1.Gestion del Plan/1.Analisis/8.select_end_date_day""), ""31"", true)",Firefox 71.0,,,2019-12-27 15:16:06,2019-12-27 15:16:08,"1,859s",PASSED
"setText(findTestObject(""Object Repository/2.Planes de Accion/Generales/1.Index/1.Gestion del Plan/1.Analisis/9.input_initial_budget""), ""5000000"")",Firefox 71.0,,,2019-12-27 15:16:08,2019-12-27 15:16:09,"0,375s",PASSED
"setText(findTestObject(""Object Repository/2.Planes de Accion/Generales/1.Index/1.Gestion del Plan/1.Analisis/10.input_investment_budget""), ""5100000"")",Firefox 71.0,,,2019-12-27 15:16:09,2019-12-27 15:16:09,"0,330s",PASSED
"setText(findTestObject(""Object Repository/2.Planes de Accion/Generales/1.Index/1.Gestion del Plan/1.Analisis/11.input_operating_budget""), ""4800000"")",Firefox 71.0,,,2019-12-27 15:16:09,2019-12-27 15:16:09,"0,341s",PASSED
"click(findTestObject(""2.Planes de Accion/Generales/1.Index/1.Gestion del Plan/1.Analisis/12.inputCheck_exclude_consolidate""))",Firefox 71.0,,,2019-12-27 15:16:09,2019-12-27 15:16:10,"0,561s",PASSED
"click(findTestObject(""2.Planes de Accion/Generales/1.Index/1.Gestion del Plan/1.Analisis/3.btn_Save""))",Firefox 71.0,,,2019-12-27 15:16:10,2019-12-27 15:16:11,"0,577s",PASSED
,,,,,,,
Test Cases/2.Planes de Accion/Generales/1.Index/1.1.Gestion del Plan/6.Solicitar aprobacion del plan,Firefox 71.0,,,2019-12-27 15:16:11,2019-12-27 15:17:10,"59,586s",PASSED
"callTestCase(findTestCase(""2.Planes de Accion/Daruma/Acceso al modulo""), [:])",Firefox 71.0,,,2019-12-27 15:16:11,2019-12-27 15:16:56,"44,799s",PASSED
"id = test.Metodos.lista(findTestObject(""Object Repository/2.list_inputCheck""))",Firefox 71.0,,,2019-12-27 15:16:56,2019-12-27 15:16:59,"3,831s",PASSED
"test.Metodos.select_item_managment(findTestObject(""Generales/Select Item List/1.list_index""), id)",Firefox 71.0,,,2019-12-27 15:16:59,2019-12-27 15:17:01,"1,393s",PASSED
delay(8),Firefox 71.0,,,2019-12-27 15:17:01,2019-12-27 15:17:09,"8,003s",PASSED
"click(findTestObject(""2.Planes de Accion/Generales/1.Index/1.Gestion del Plan/6.Solicitar Plan de Accion/1.btn_option_more""))",Firefox 71.0,,,2019-12-27 15:17:09,2019-12-27 15:17:09,"0,530s",PASSED
"click(findTestObject(""Object Repository/2.Planes de Accion/Generales/1.Index/1.Gestion del Plan/6.Solicitar Plan de Accion/2.btn_ask_for_approval""))",Firefox 71.0,,,2019-12-27 15:17:09,2019-12-27 15:17:10,"0,713s",PASSED
acceptAlert(),Firefox 71.0,,,2019-12-27 15:17:10,2019-12-27 15:17:10,"0,073s",PASSED
,,,,,,,
Test Cases/2.Planes de Accion/Generales/1.Index/1.1.Gestion del Plan/7.Ejecutar Acciones,Firefox 71.0,,,2019-12-27 15:17:10,2019-12-27 15:18:23,"1m - 12,782s",PASSED
"callTestCase(findTestCase(""2.Planes de Accion/Daruma/Acceso al modulo""), [:])",Firefox 71.0,,,2019-12-27 15:17:11,2019-12-27 15:17:57,"46,559s",PASSED
"id = test.Metodos.lista(findTestObject(""Object Repository/2.list_inputCheck""))",Firefox 71.0,,,2019-12-27 15:17:57,2019-12-27 15:18:01,"3,817s",PASSED
"test.Metodos.select_item_managment(findTestObject(""Generales/Select Item List/1.list_index""), id)",Firefox 71.0,,,2019-12-27 15:18:01,2019-12-27 15:18:02,"1,336s",PASSED
delay(8),Firefox 71.0,,,2019-12-27 15:18:02,2019-12-27 15:18:10,"8,006s",PASSED
"test.Metodos.select_items_actions(""#action-list-table > tbody > tr > td > a"")",Firefox 71.0,,,2019-12-27 15:18:10,2019-12-27 15:18:11,"0,502s",PASSED
delay(5),Firefox 71.0,,,2019-12-27 15:18:11,2019-12-27 15:18:16,"5,006s",PASSED
"test.Metodos.select2_multiselect(findTestObject(""Object Repository/2.Planes de Accion/Generales/1.Index/1.Gestion del Plan/7.Crear Tareas del Plan de Accion/1.add_list""), 0)",Firefox 71.0,,,2019-12-27 15:18:16,2019-12-27 15:18:16,"0,550s",PASSED
"enter = findWebElement(findTestObject(""Object Repository/2.Planes de Accion/Generales/1.Index/1.Gestion del Plan/7.Crear Tareas del Plan de Accion/2.input_task_list_name""), 5)",Firefox 71.0,,,2019-12-27 15:18:16,2019-12-27 15:18:17,"0,292s",PASSED
enter.sendKeys(ENTER),Firefox 71.0,,,2019-12-27 15:18:17,2019-12-27 15:18:17,"0,031s",PASSED
delay(5),Firefox 71.0,,,2019-12-27 15:18:17,2019-12-27 15:18:22,"5,003s",PASSED
"test.Metodos.select2_multiselect(findTestObject(""Object Repository/2.Planes de Accion/Generales/1.Index/1.Gestion del Plan/7.Crear Tareas del Plan de Accion/1.add_list""), 1)",Firefox 71.0,,,2019-12-27 15:18:22,2019-12-27 15:18:22,"0,547s",PASSED
"setText(findTestObject(""Object Repository/2.Planes de Accion/Generales/1.Index/1.Gestion del Plan/7.Crear Tareas del Plan de Accion/4.input_task_notes""), ""Una tarea..."")",Firefox 71.0,,,2019-12-27 15:18:22,2019-12-27 15:18:23,"0,379s",PASSED
"enter2 = findWebElement(findTestObject(""Object Repository/2.Planes de Accion/Generales/1.Index/1.Gestion del Plan/7.Crear Tareas del Plan de Accion/4.input_task_notes""), 5)",Firefox 71.0,,,2019-12-27 15:18:23,2019-12-27 15:18:23,"0,266s",PASSED
enter2.sendKeys(ENTER),Firefox 71.0,,,2019-12-27 15:18:23,2019-12-27 15:18:23,"0,017s",PASSED
,,,,,,,
Test Cases/2.Planes de Accion/Generales/1.Index/1.1.Gestion del Plan/8.Aprobar acciones,Firefox 71.0,,,2019-12-27 15:18:23,2019-12-27 15:19:35,"1m - 12,325s",PASSED
"callTestCase(findTestCase(""2.Planes de Accion/Daruma/Acceso al modulo""), [:])",Firefox 71.0,,,2019-12-27 15:18:23,2019-12-27 15:19:10,"47,310s",PASSED
"id = test.Metodos.lista(findTestObject(""Object Repository/2.list_inputCheck""))",Firefox 71.0,,,2019-12-27 15:19:10,2019-12-27 15:19:14,"3,802s",PASSED
"test.Metodos.select_item_managment(findTestObject(""Generales/Select Item List/1.list_index""), id)",Firefox 71.0,,,2019-12-27 15:19:14,2019-12-27 15:19:16,"1,265s",PASSED
delay(8),Firefox 71.0,,,2019-12-27 15:19:16,2019-12-27 15:19:24,"8,004s",PASSED
"test.Metodos.select_items_actions(""#action-list-table > tbody > tr > td > a"")",Firefox 71.0,,,2019-12-27 15:19:24,2019-12-27 15:19:24,"0,499s",PASSED
delay(5),Firefox 71.0,,,2019-12-27 15:19:24,2019-12-27 15:19:29,"5,006s",PASSED
"test.Metodos.selectItem_taskState(findTestObject(""Object Repository/2.Planes de Accion/Generales/1.Index/1.Gestion del Plan/8.Aprobar Acciones/2.inputCheck_task_state""))",Firefox 71.0,,,2019-12-27 15:19:29,2019-12-27 15:19:33,"4,216s",PASSED
"click(findTestObject(""Object Repository/2.Planes de Accion/Generales/1.Index/1.Gestion del Plan/8.Aprobar Acciones/3.btn_return_actionPlan""))",Firefox 71.0,,,2019-12-27 15:19:33,2019-12-27 15:19:35,"1,970s",PASSED
,,,,,,,
Test Cases/2.Planes de Accion/Generales/1.Index/1.1.Gestion del Plan/16.Seguir Accion,Firefox 71.0,,,2019-12-27 15:19:35,2019-12-27 15:20:59,"1m - 23,843s",PASSED
"callTestCase(findTestCase(""2.Planes de Accion/Daruma/Acceso al modulo""), [:])",Firefox 71.0,,,2019-12-27 15:19:36,2019-12-27 15:20:20,"44,592s",PASSED
"id = test.Metodos.lista(findTestObject(""Object Repository/2.list_inputCheck""))",Firefox 71.0,,,2019-12-27 15:20:20,2019-12-27 15:20:24,"3,847s",PASSED
"test.Metodos.select_item_managment(findTestObject(""Generales/Select Item List/1.list_index""), id)",Firefox 71.0,,,2019-12-27 15:20:24,2019-12-27 15:20:25,"1,350s",PASSED
delay(10),Firefox 71.0,,,2019-12-27 15:20:25,2019-12-27 15:20:35,"10,004s",PASSED
"test.Metodos.select_items_actions(""#action-list-table > tbody > tr > td > a"")",Firefox 71.0,,,2019-12-27 15:20:35,2019-12-27 15:20:36,"0,512s",PASSED
delay(5),Firefox 71.0,,,2019-12-27 15:20:36,2019-12-27 15:20:41,"5,004s",PASSED
"click(findTestObject(""2.Planes de Accion/Generales/1.Index/1.Gestion del Plan/16.Seguir Accion/btn_conclude action""))",Firefox 71.0,,,2019-12-27 15:20:41,2019-12-27 15:20:42,"0,605s",PASSED
delay(5),Firefox 71.0,,,2019-12-27 15:20:42,2019-12-27 15:20:47,"5,003s",PASSED
"test.Metodos.tiny1(findTestObject(""Object Repository/Generales/TinyMCE/Iframe""), 0)",Firefox 71.0,,,2019-12-27 15:20:47,2019-12-27 15:20:47,"0,978s",PASSED
"selectOptionByValue(findTestObject(""2.Planes de Accion/Generales/1.Index/1.Gestion del Plan/16.Seguir Accion/select1""), ""100"", true)",Firefox 71.0,,,2019-12-27 15:20:47,2019-12-27 15:20:51,"3,537s",PASSED
"click(findTestObject(""2.Planes de Accion/Generales/1.Index/1.Gestion del Plan/16.Seguir Accion/button_save""))",Firefox 71.0,,,2019-12-27 15:20:51,2019-12-27 15:20:52,"0,782s",PASSED
delay(5),Firefox 71.0,,,2019-12-27 15:20:52,2019-12-27 15:20:57,"5,003s",PASSED
"click(findTestObject(""2.Planes de Accion/Generales/1.Index/1.Gestion del Plan/16.Seguir Accion/a_return""))",Firefox 71.0,,,2019-12-27 15:20:57,2019-12-27 15:20:59,"2,365s",PASSED
