Suite/Test/Step Name,Browser,Description,Tag,Start time,End time,Duration,Status
1getionar incidente,Firefox 72.0,,,2020-03-02 12:34:49,2020-03-02 12:40:47,"5m - 58,504s",FAILED
,,,,,,,
Test Cases/7.incidentes/generales/1.index/1.crear,Firefox 72.0,,,2020-03-02 12:34:49,2020-03-02 12:36:43,"1m - 53,199s",PASSED
"callTestCase(findTestCase(""7.incidentes/Daruma/Acceso al modulo""), [:], STOP_ON_FAILURE)",Firefox 72.0,,,2020-03-02 12:34:50,2020-03-02 12:35:22,"32,304s",PASSED
"user = test.Metodos.get_Text(findTestObject(""7.incidentes/general/1.index/1.crear/1.uset""))",Firefox 72.0,,,2020-03-02 12:35:22,2020-03-02 12:35:23,"0,332s",PASSED
"click(findTestObject(""7.incidentes/general/1.index/1.crear/1.nuevo""))",Firefox 72.0,,,2020-03-02 12:35:23,2020-03-02 12:35:23,"0,592s",PASSED
delay(5),Firefox 72.0,,,2020-03-02 12:35:23,2020-03-02 12:35:28,"5,005s",PASSED
"selectOptionByValue(findTestObject(""7.incidentes/general/1.index/1.crear/1.select""), ""9"", false)",Firefox 72.0,,,2020-03-02 12:35:28,2020-03-02 12:35:29,"0,609s",PASSED
delay(5),Firefox 72.0,,,2020-03-02 12:35:29,2020-03-02 12:35:34,"5,010s",PASSED
"test.Metodos.tiny1(findTestObject(""Generales/TinyMCE/Iframe""), 0)",Firefox 72.0,,,2020-03-02 12:35:34,2020-03-02 12:35:35,"1,091s",PASSED
delay(5),Firefox 72.0,,,2020-03-02 12:35:35,2020-03-02 12:35:40,"5,004s",PASSED
"selectOptionByValue(findTestObject(""7.incidentes/general/1.index/1.crear/2.select""), ""1"", false)",Firefox 72.0,,,2020-03-02 12:35:40,2020-03-02 12:35:41,"0,837s",PASSED
delay(5),Firefox 72.0,,,2020-03-02 12:35:41,2020-03-02 12:35:46,"5,002s",PASSED
"click(findTestObject(""7.incidentes/general/1.index/1.crear/1.calendario""))",Firefox 72.0,,,2020-03-02 12:35:46,2020-03-02 12:35:46,"0,556s",PASSED
delay(5),Firefox 72.0,,,2020-03-02 12:35:46,2020-03-02 12:35:51,"5,002s",PASSED
"click(findTestObject(""7.incidentes/general/1.index/1.crear/1.fecha""))",Firefox 72.0,,,2020-03-02 12:35:51,2020-03-02 12:35:52,"0,584s",PASSED
delay(5),Firefox 72.0,,,2020-03-02 12:35:52,2020-03-02 12:35:57,"5,002s",PASSED
"setText(findTestObject(""7.incidentes/general/1.index/1.crear/1.input""), user)",Firefox 72.0,,,2020-03-02 12:35:57,2020-03-02 12:35:57,"0,363s",PASSED
delay(5),Firefox 72.0,,,2020-03-02 12:35:57,2020-03-02 12:36:02,"5,002s",PASSED
"test.Metodos.tiny1(findTestObject(""Generales/TinyMCE/Iframe""), 1)",Firefox 72.0,,,2020-03-02 12:36:02,2020-03-02 12:36:03,"0,878s",PASSED
delay(5),Firefox 72.0,,,2020-03-02 12:36:03,2020-03-02 12:36:08,"5,003s",PASSED
"test.Metodos.display_list_multi(findTestObject(""Generales/Select2/1.display_list_only""), 0)",Firefox 72.0,,,2020-03-02 12:36:08,2020-03-02 12:36:19,"11,060s",PASSED
delay(5),Firefox 72.0,,,2020-03-02 12:36:19,2020-03-02 12:36:24,"5,002s",PASSED
"setText(findTestObject(""7.incidentes/general/1.index/1.crear/2.input use""), user)",Firefox 72.0,,,2020-03-02 12:36:24,2020-03-02 12:36:25,"0,381s",PASSED
"enter = findWebElement(findTestObject(""7.incidentes/general/1.index/1.crear/2.input use""), 2)",Firefox 72.0,,,2020-03-02 12:36:25,2020-03-02 12:36:26,"0,886s",PASSED
enter.sendKeys(ENTER),Firefox 72.0,,,2020-03-02 12:36:26,2020-03-02 12:36:26,"0,061s",PASSED
delay(5),Firefox 72.0,,,2020-03-02 12:36:26,2020-03-02 12:36:31,"5,018s",PASSED
"selectOptionByValue(findTestObject(""7.incidentes/general/1.index/1.crear/3.select""), ""2"", false)",Firefox 72.0,,,2020-03-02 12:36:31,2020-03-02 12:36:31,"0,830s",PASSED
delay(5),Firefox 72.0,,,2020-03-02 12:36:31,2020-03-02 12:36:36,"5,001s",PASSED
"click(findTestObject(""7.incidentes/general/1.index/1.crear/1.btn_save""))",Firefox 72.0,,,2020-03-02 12:36:36,2020-03-02 12:36:37,"0,562s",PASSED
delay(5),Firefox 72.0,,,2020-03-02 12:36:37,2020-03-02 12:36:42,"5,000s",PASSED
"click(findTestObject(""7.incidentes/general/1.index/1.crear/1.btn_back""))",Firefox 72.0,,,2020-03-02 12:36:42,2020-03-02 12:36:43,"0,553s",PASSED
,,,,,,,
Test Cases/7.incidentes/generales/1.index/1.1 gestion incidentes/1.analisis-en proceso,Firefox 72.0,,,2020-03-02 12:36:43,2020-03-02 12:37:38,"54,950s",FAILED
"callTestCase(findTestCase(""7.incidentes/generales/1.index/4.mostrar""), [:], STOP_ON_FAILURE)",Firefox 72.0,,,2020-03-02 12:36:43,2020-03-02 12:37:34,"51,443s",PASSED
delay(3),Firefox 72.0,,,2020-03-02 12:37:34,2020-03-02 12:37:37,"3,006s",PASSED
"click(findTestObject(""7.incidentes/general/1.index/1.1gestion incidentes/1.analisis/1.btn_analisis""))",Firefox 72.0,,,2020-03-02 12:37:37,2020-03-02 12:37:38,"0,189s",FAILED
,,,,,,,
Test Cases/7.incidentes/generales/1.index/1.1 gestion incidentes/2.correccion-generar plan de accion,Firefox 72.0,,,2020-03-02 12:37:38,2020-03-02 12:39:12,"1m - 34,722s",FAILED
"callTestCase(findTestCase(""7.incidentes/generales/1.index/4.mostrar""), [:], STOP_ON_FAILURE)",Firefox 72.0,,,2020-03-02 12:37:38,2020-03-02 12:38:29,"50,885s",PASSED
"click(findTestObject(""7.incidentes/general/1.index/1.1gestion incidentes/2.correccion/1.btn_correcion""))",Firefox 72.0,,,2020-03-02 12:38:29,2020-03-02 12:39:12,"43,512s",FAILED
,,,,,,,
Test Cases/7.incidentes/generales/1.index/1.1 gestion incidentes/3.generar pplan de accion,Firefox 72.0,,,2020-03-02 12:39:12,2020-03-02 12:40:47,"1m - 35,199s",FAILED
"callTestCase(findTestCase(""7.incidentes/generales/1.index/4.mostrar""), [:], STOP_ON_FAILURE)",Firefox 72.0,,,2020-03-02 12:39:13,2020-03-02 12:40:04,"51,446s",PASSED
"click(findTestObject(""7.incidentes/general/1.index/1.1gestion incidentes/2.correccion/1.btn_correcion""))",Firefox 72.0,,,2020-03-02 12:40:04,2020-03-02 12:40:47,"43,451s",FAILED
