Suite/Test/Step Name,Browser,Description,Tag,Start time,End time,Duration,Status
Priorizacion de Causas,Firefox 71.0,,,2019-12-19 11:08:45,2019-12-19 11:15:20,"6m - 35,393s",PASSED
,,,,,,,
Test Cases/2.Planes de Accion/Configuracion/4.Priorizacion de Causas/1.Test Cases General/0.Ver,Firefox 71.0,,,2019-12-19 11:08:45,2019-12-19 11:09:46,"1m - 0,509s",PASSED
"callTestCase(findTestCase(""2.Planes de Accion/Daruma/Acceso al modulo""), [:])",Firefox 71.0,,,2019-12-19 11:08:46,2019-12-19 11:09:39,"53,489s",PASSED
"click(findTestObject(""2.Planes de Accion/Configuracion/4.Priorizacion de Causas/1.Generales/0.Ver/1.a_Configurations""))",Firefox 71.0,,,2019-12-19 11:09:39,2019-12-19 11:09:40,"0,612s",PASSED
"click(findTestObject(""2.Planes de Accion/Configuracion/4.Priorizacion de Causas/1.Generales/0.Ver/2.a_prioritization_causes""))",Firefox 71.0,,,2019-12-19 11:09:40,2019-12-19 11:09:41,"0,797s",PASSED
delay(5),Firefox 71.0,,,2019-12-19 11:09:41,2019-12-19 11:09:46,"5,004s",PASSED
,,,,,,,
Test Cases/2.Planes de Accion/Configuracion/4.Priorizacion de Causas/1.Test Cases General/1.Crear,Firefox 71.0,,,2019-12-19 11:09:46,2019-12-19 11:10:51,"1m - 5,658s",PASSED
palabra = test.Metodos.randomString(),Firefox 71.0,,,2019-12-19 11:09:46,2019-12-19 11:09:46,"0,058s",PASSED
"callTestCase(findTestCase(""2.Planes de Accion/Configuracion/4.Priorizacion de Causas/1.Test Cases General/0.Ver""), [:])",Firefox 71.0,,,2019-12-19 11:09:46,2019-12-19 11:10:40,"53,605s",PASSED
"click(findTestObject(""2.Planes de Accion/Configuracion/4.Priorizacion de Causas/1.Generales/1.Crear/1.btn_create""))",Firefox 71.0,,,2019-12-19 11:10:40,2019-12-19 11:10:40,"0,599s",PASSED
"setText(findTestObject(""2.Planes de Accion/Configuracion/4.Priorizacion de Causas/1.Generales/1.Crear/2.input_effectname""), palabra)",Firefox 71.0,,,2019-12-19 11:10:40,2019-12-19 11:10:44,"4,128s",PASSED
"click(findTestObject(""2.Planes de Accion/Configuracion/4.Priorizacion de Causas/1.Generales/1.Crear/3.inputCheck_effectpriority_cause""))",Firefox 71.0,,,2019-12-19 11:10:44,2019-12-19 11:10:45,"0,606s",PASSED
"setText(findTestObject(""2.Planes de Accion/Configuracion/4.Priorizacion de Causas/1.Generales/1.Crear/4.textarea_effectnotes""), ""Esto es una descripcion"")",Firefox 71.0,,,2019-12-19 11:10:45,2019-12-19 11:10:46,"0,676s",PASSED
"click(findTestObject(""2.Planes de Accion/Configuracion/4.Priorizacion de Causas/1.Generales/1.Crear/5.btn_Save""))",Firefox 71.0,,,2019-12-19 11:10:46,2019-12-19 11:10:46,"0,577s",PASSED
delay(5),Firefox 71.0,,,2019-12-19 11:10:46,2019-12-19 11:10:51,"5,003s",PASSED
,,,,,,,
Test Cases/2.Planes de Accion/Configuracion/4.Priorizacion de Causas/1.Test Cases General/2.Editar,Firefox 71.0,,,2019-12-19 11:10:51,2019-12-19 11:12:01,"1m - 9,658s",PASSED
palabra = test.Metodos.randomStringEdit(),Firefox 71.0,,,2019-12-19 11:10:52,2019-12-19 11:10:52,"0,003s",PASSED
"callTestCase(findTestCase(""2.Planes de Accion/Configuracion/4.Priorizacion de Causas/1.Test Cases General/0.Ver""), [:])",Firefox 71.0,,,2019-12-19 11:10:52,2019-12-19 11:11:45,"53,436s",PASSED
"test.Metodos.lista(findTestObject(""Object Repository/2.list_inputCheck""))",Firefox 71.0,,,2019-12-19 11:11:45,2019-12-19 11:11:49,"3,927s",PASSED
"click(findTestObject(""2.Planes de Accion/Configuracion/4.Priorizacion de Causas/1.Generales/2.Editar/2.btn_Edit""))",Firefox 71.0,,,2019-12-19 11:11:49,2019-12-19 11:11:50,"0,611s",PASSED
"setText(findTestObject(""2.Planes de Accion/Configuracion/4.Priorizacion de Causas/1.Generales/2.Editar/3.input_effectname""), palabra)",Firefox 71.0,,,2019-12-19 11:11:50,2019-12-19 11:11:53,"3,651s",PASSED
"click(findTestObject(""2.Planes de Accion/Configuracion/4.Priorizacion de Causas/1.Generales/2.Editar/4.inputCheck_effectpriority_cause""))",Firefox 71.0,,,2019-12-19 11:11:53,2019-12-19 11:11:54,"0,579s",PASSED
"setText(findTestObject(""2.Planes de Accion/Configuracion/4.Priorizacion de Causas/1.Generales/2.Editar/5.textarea_effectnotes""), ""Esto es una Edicion"")",Firefox 71.0,,,2019-12-19 11:11:54,2019-12-19 11:11:55,"0,634s",PASSED
"click(findTestObject(""2.Planes de Accion/Configuracion/4.Priorizacion de Causas/1.Generales/2.Editar/6.btn_Save""))",Firefox 71.0,,,2019-12-19 11:11:55,2019-12-19 11:11:56,"1,416s",PASSED
delay(5),Firefox 71.0,,,2019-12-19 11:11:56,2019-12-19 11:12:01,"5,003s",PASSED
,,,,,,,
Test Cases/2.Planes de Accion/Configuracion/4.Priorizacion de Causas/1.Test Cases General/3.Eliminar,Firefox 71.0,,,2019-12-19 11:12:01,2019-12-19 11:13:04,"1m - 3,180s",PASSED
"callTestCase(findTestCase(""2.Planes de Accion/Configuracion/4.Priorizacion de Causas/1.Test Cases General/0.Ver""), [:])",Firefox 71.0,,,2019-12-19 11:12:02,2019-12-19 11:12:55,"53,285s",PASSED
"test.Metodos.lista(findTestObject(""Object Repository/2.list_inputCheck""))",Firefox 71.0,,,2019-12-19 11:12:55,2019-12-19 11:12:59,"3,865s",PASSED
"click(findTestObject(""2.Planes de Accion/Configuracion/4.Priorizacion de Causas/1.Generales/3.Eliminar/2.btn_Delete""))",Firefox 71.0,,,2019-12-19 11:12:59,2019-12-19 11:12:59,"0,438s",PASSED
acceptAlert(),Firefox 71.0,,,2019-12-19 11:12:59,2019-12-19 11:12:59,"0,081s",PASSED
delay(5),Firefox 71.0,,,2019-12-19 11:12:59,2019-12-19 11:13:04,"5,004s",PASSED
,,,,,,,
Test Cases/2.Planes de Accion/Configuracion/4.Priorizacion de Causas/1.Test Cases General/4.Inhabilitar,Firefox 71.0,,,2019-12-19 11:13:04,2019-12-19 11:14:09,"1m - 4,456s",PASSED
"callTestCase(findTestCase(""2.Planes de Accion/Configuracion/4.Priorizacion de Causas/1.Test Cases General/0.Ver""), [:])",Firefox 71.0,,,2019-12-19 11:13:05,2019-12-19 11:13:58,"53,835s",PASSED
"test.Metodos.lista(findTestObject(""Object Repository/2.list_inputCheck""))",Firefox 71.0,,,2019-12-19 11:13:58,2019-12-19 11:14:02,"3,957s",PASSED
"click(findTestObject(""2.Planes de Accion/Configuracion/4.Priorizacion de Causas/1.Generales/4.Inhabilitar/2.btn_Disable_1""))",Firefox 71.0,,,2019-12-19 11:14:02,2019-12-19 11:14:03,"0,808s",PASSED
"click(findTestObject(""2.Planes de Accion/Configuracion/4.Priorizacion de Causas/1.Generales/4.Inhabilitar/3.btn_Disable_2""))",Firefox 71.0,,,2019-12-19 11:14:03,2019-12-19 11:14:04,"0,424s",PASSED
acceptAlert(),Firefox 71.0,,,2019-12-19 11:14:04,2019-12-19 11:14:04,"0,066s",PASSED
delay(5),Firefox 71.0,,,2019-12-19 11:14:04,2019-12-19 11:14:09,"5,003s",PASSED
,,,,,,,
Test Cases/2.Planes de Accion/Configuracion/4.Priorizacion de Causas/1.Test Cases General/5.Filtrar,Firefox 71.0,,,2019-12-19 11:14:09,2019-12-19 11:15:20,"1m - 11,240s",PASSED
"callTestCase(findTestCase(""2.Planes de Accion/Configuracion/4.Priorizacion de Causas/1.Test Cases General/0.Ver""), [:])",Firefox 71.0,,,2019-12-19 11:14:09,2019-12-19 11:15:06,"57,084s",PASSED
"click(findTestObject(""2.Planes de Accion/Configuracion/4.Priorizacion de Causas/1.Generales/5.Filtrar/1.open_Filter""))",Firefox 71.0,,,2019-12-19 11:15:06,2019-12-19 11:15:07,"0,613s",PASSED
"setText(findTestObject(""2.Planes de Accion/Configuracion/4.Priorizacion de Causas/1.Generales/5.Filtrar/2.input_effect_filtersnametext""), ""1.Baja"")",Firefox 71.0,,,2019-12-19 11:15:07,2019-12-19 11:15:07,"0,352s",PASSED
"selectOptionByValue(findTestObject(""2.Planes de Accion/Configuracion/4.Priorizacion de Causas/1.Generales/5.Filtrar/3.select_filters_priority_cause""), ""0"", true)",Firefox 71.0,,,2019-12-19 11:15:07,2019-12-19 11:15:08,"1,157s",PASSED
"selectOptionByValue(findTestObject(""2.Planes de Accion/Configuracion/4.Priorizacion de Causas/1.Generales/5.Filtrar/4.select_filters_state""), ""1"", true)",Firefox 71.0,,,2019-12-19 11:15:08,2019-12-19 11:15:09,"1,075s",PASSED
"click(findTestObject(""2.Planes de Accion/Configuracion/4.Priorizacion de Causas/1.Generales/5.Filtrar/5.input_filtersnotesis_empty""))",Firefox 71.0,,,2019-12-19 11:15:09,2019-12-19 11:15:10,"0,523s",PASSED
"click(findTestObject(""2.Planes de Accion/Configuracion/4.Priorizacion de Causas/1.Generales/5.Filtrar/6.btn_filter""))",Firefox 71.0,,,2019-12-19 11:15:10,2019-12-19 11:15:10,"0,522s",PASSED
"click(findTestObject(""2.Planes de Accion/Configuracion/4.Priorizacion de Causas/1.Generales/5.Filtrar/7.open_filters""))",Firefox 71.0,,,2019-12-19 11:15:10,2019-12-19 11:15:14,"3,665s",PASSED
"click(findTestObject(""2.Planes de Accion/Configuracion/4.Priorizacion de Causas/1.Generales/5.Filtrar/8.btn_Reset_filter""))",Firefox 71.0,,,2019-12-19 11:15:14,2019-12-19 11:15:15,"0,835s",PASSED
delay(5),Firefox 71.0,,,2019-12-19 11:15:15,2019-12-19 11:15:20,"5,003s",PASSED
