Suite/Test/Step Name,Browser,Description,Tag,Start time,End time,Duration,Status
Nivel Criticidad,Firefox 71.0,,,2019-12-20 10:36:57,2019-12-20 10:44:42,"7m - 44,545s",PASSED
,,,,,,,
Test Cases/2.Planes de Accion/Configuracion/8.Nivel de Criticidad/1.Test Cases General/0.Ver,Firefox 71.0,,,2019-12-20 10:36:58,2019-12-20 10:37:54,"56,319s",PASSED
"callTestCase(findTestCase(""2.Planes de Accion/Daruma/Acceso al modulo""), [:])",Firefox 71.0,,,2019-12-20 10:36:58,2019-12-20 10:37:48,"49,273s",PASSED
"click(findTestObject(""2.Planes de Accion/Configuracion/8.Nivel de Criticidad/1.Generales/0.Ver/1.a_Configuration""))",Firefox 71.0,,,2019-12-20 10:37:48,2019-12-20 10:37:48,"0,603s",PASSED
"click(findTestObject(""2.Planes de Accion/Configuracion/8.Nivel de Criticidad/1.Generales/0.Ver/2.a_Nivel de criticidad""))",Firefox 71.0,,,2019-12-20 10:37:48,2019-12-20 10:37:49,"0,819s",PASSED
delay(5),Firefox 71.0,,,2019-12-20 10:37:49,2019-12-20 10:37:54,"5,004s",PASSED
,,,,,,,
Test Cases/2.Planes de Accion/Configuracion/8.Nivel de Criticidad/1.Test Cases General/1.Crear,Firefox 71.0,,,2019-12-20 10:37:54,2019-12-20 10:39:14,"1m - 19,609s",PASSED
palabra = test.Metodos.randomString(),Firefox 71.0,,,2019-12-20 10:37:54,2019-12-20 10:37:54,"0,064s",PASSED
"callTestCase(findTestCase(""2.Planes de Accion/Configuracion/8.Nivel de Criticidad/1.Test Cases General/0.Ver""), [:])",Firefox 71.0,,,2019-12-20 10:37:54,2019-12-20 10:38:58,"1m - 3,793s",PASSED
"click(findTestObject(""2.Planes de Accion/Configuracion/8.Nivel de Criticidad/1.Generales/1.Crear/1.btn_create""))",Firefox 71.0,,,2019-12-20 10:38:58,2019-12-20 10:39:00,"1,830s",PASSED
"setText(findTestObject(""2.Planes de Accion/Configuracion/8.Nivel de Criticidad/1.Generales/1.Crear/2.input_criticalityname""), palabra)",Firefox 71.0,,,2019-12-20 10:39:00,2019-12-20 10:39:08,"8,009s",PASSED
"click(findTestObject(""2.Planes de Accion/Configuracion/8.Nivel de Criticidad/1.Generales/1.Crear/3.btn_Save""))",Firefox 71.0,,,2019-12-20 10:39:08,2019-12-20 10:39:09,"0,626s",PASSED
delay(5),Firefox 71.0,,,2019-12-20 10:39:09,2019-12-20 10:39:14,"5,004s",PASSED
,,,,,,,
Test Cases/2.Planes de Accion/Configuracion/8.Nivel de Criticidad/1.Test Cases General/2.Editar,Firefox 71.0,,,2019-12-20 10:39:14,2019-12-20 10:40:23,"1m - 8,885s",PASSED
palabra = test.Metodos.randomStringEdit(),Firefox 71.0,,,2019-12-20 10:39:14,2019-12-20 10:39:14,"0,002s",PASSED
"callTestCase(findTestCase(""2.Planes de Accion/Configuracion/8.Nivel de Criticidad/1.Test Cases General/0.Ver""), [:])",Firefox 71.0,,,2019-12-20 10:39:14,2019-12-20 10:40:08,"53,682s",PASSED
"test.Metodos.lista(findTestObject(""Object Repository/2.list_inputCheck""))",Firefox 71.0,,,2019-12-20 10:40:08,2019-12-20 10:40:12,"3,923s",PASSED
"click(findTestObject(""2.Planes de Accion/Configuracion/8.Nivel de Criticidad/1.Generales/2.Editar/2.btn_Edit""))",Firefox 71.0,,,2019-12-20 10:40:12,2019-12-20 10:40:12,"0,617s",PASSED
"setText(findTestObject(""2.Planes de Accion/Configuracion/8.Nivel de Criticidad/1.Generales/2.Editar/3.input_criticalityname""), palabra)",Firefox 71.0,,,2019-12-20 10:40:12,2019-12-20 10:40:17,"4,726s",PASSED
"click(findTestObject(""2.Planes de Accion/Configuracion/8.Nivel de Criticidad/1.Generales/2.Editar/4.btn_Save""))",Firefox 71.0,,,2019-12-20 10:40:17,2019-12-20 10:40:18,"0,619s",PASSED
delay(5),Firefox 71.0,,,2019-12-20 10:40:18,2019-12-20 10:40:23,"5,002s",PASSED
,,,,,,,
Test Cases/2.Planes de Accion/Configuracion/8.Nivel de Criticidad/1.Test Cases General/3.Eliminar,Firefox 71.0,,,2019-12-20 10:40:23,2019-12-20 10:41:24,"1m - 1,860s",PASSED
"callTestCase(findTestCase(""2.Planes de Accion/Configuracion/8.Nivel de Criticidad/1.Test Cases General/0.Ver""), [:])",Firefox 71.0,,,2019-12-20 10:40:23,2019-12-20 10:41:15,"52,266s",PASSED
"test.Metodos.lista(findTestObject(""Object Repository/2.list_inputCheck""))",Firefox 71.0,,,2019-12-20 10:41:15,2019-12-20 10:41:19,"3,798s",PASSED
"click(findTestObject(""2.Planes de Accion/Configuracion/8.Nivel de Criticidad/1.Generales/3.Eliminar/2.btn_Delete""))",Firefox 71.0,,,2019-12-20 10:41:19,2019-12-20 10:41:19,"0,421s",PASSED
acceptAlert(),Firefox 71.0,,,2019-12-20 10:41:19,2019-12-20 10:41:19,"0,068s",PASSED
delay(5),Firefox 71.0,,,2019-12-20 10:41:19,2019-12-20 10:41:24,"5,004s",PASSED
,,,,,,,
Test Cases/2.Planes de Accion/Configuracion/8.Nivel de Criticidad/1.Test Cases General/4.Inhabilitar,Firefox 71.0,,,2019-12-20 10:41:24,2019-12-20 10:42:31,"1m - 6,247s",PASSED
"callTestCase(findTestCase(""2.Planes de Accion/Configuracion/8.Nivel de Criticidad/1.Test Cases General/0.Ver""), [:])",Firefox 71.0,,,2019-12-20 10:41:25,2019-12-20 10:42:21,"56,137s",PASSED
"test.Metodos.lista(findTestObject(""Object Repository/2.list_inputCheck""))",Firefox 71.0,,,2019-12-20 10:42:21,2019-12-20 10:42:25,"3,774s",PASSED
"click(findTestObject(""2.Planes de Accion/Configuracion/8.Nivel de Criticidad/1.Generales/4.Inhabilitar/2.btn_Disable_1""))",Firefox 71.0,,,2019-12-20 10:42:25,2019-12-20 10:42:25,"0,548s",PASSED
"click(findTestObject(""2.Planes de Accion/Configuracion/8.Nivel de Criticidad/1.Generales/4.Inhabilitar/3.btn_Disable_2""))",Firefox 71.0,,,2019-12-20 10:42:25,2019-12-20 10:42:26,"0,400s",PASSED
acceptAlert(),Firefox 71.0,,,2019-12-20 10:42:26,2019-12-20 10:42:26,"0,088s",PASSED
delay(5),Firefox 71.0,,,2019-12-20 10:42:26,2019-12-20 10:42:31,"5,003s",PASSED
,,,,,,,
Test Cases/2.Planes de Accion/Configuracion/8.Nivel de Criticidad/1.Test Cases General/5.Filtrar,Firefox 71.0,,,2019-12-20 10:42:31,2019-12-20 10:43:32,"1m - 1,061s",PASSED
"callTestCase(findTestCase(""2.Planes de Accion/Configuracion/8.Nivel de Criticidad/1.Test Cases General/0.Ver""), [:])",Firefox 71.0,,,2019-12-20 10:42:31,2019-12-20 10:43:22,"51,437s",PASSED
"click(findTestObject(""2.Planes de Accion/Configuracion/8.Nivel de Criticidad/1.Generales/5.Filtrar/1.open_filter""))",Firefox 71.0,,,2019-12-20 10:43:22,2019-12-20 10:43:23,"1,103s",PASSED
"setText(findTestObject(""2.Planes de Accion/Configuracion/8.Nivel de Criticidad/1.Generales/5.Filtrar/2.input_criticality_filtersnametext""), ""1.Alto"")",Firefox 71.0,,,2019-12-20 10:43:23,2019-12-20 10:43:24,"0,352s",PASSED
"selectOptionByValue(findTestObject(""2.Planes de Accion/Configuracion/8.Nivel de Criticidad/1.Generales/5.Filtrar/3.select_criticalty_filtersstate""), ""1"", true)",Firefox 71.0,,,2019-12-20 10:43:24,2019-12-20 10:43:25,"1,128s",PASSED
"click(findTestObject(""2.Planes de Accion/Configuracion/8.Nivel de Criticidad/1.Generales/5.Filtrar/4.btn_filter""))",Firefox 71.0,,,2019-12-20 10:43:25,2019-12-20 10:43:26,"0,580s",PASSED
delay(5),Firefox 71.0,,,2019-12-20 10:43:26,2019-12-20 10:43:31,"5,003s",PASSED
"click(findTestObject(""2.Planes de Accion/Configuracion/8.Nivel de Criticidad/1.Generales/5.Filtrar/1.open_filter""))",Firefox 71.0,,,2019-12-20 10:43:31,2019-12-20 10:43:31,"0,532s",PASSED
"click(findTestObject(""2.Planes de Accion/Configuracion/8.Nivel de Criticidad/1.Generales/5.Filtrar/5.btn_Reset""))",Firefox 71.0,,,2019-12-20 10:43:31,2019-12-20 10:43:32,"0,609s",PASSED
,,,,,,,
Test Cases/2.Planes de Accion/Configuracion/8.Nivel de Criticidad/1.Test Cases General/7.Mostrar,Firefox 71.0,,,2019-12-20 10:43:32,2019-12-20 10:44:42,"1m - 9,874s",PASSED
"callTestCase(findTestCase(""2.Planes de Accion/Configuracion/8.Nivel de Criticidad/1.Test Cases General/0.Ver""), [:])",Firefox 71.0,,,2019-12-20 10:43:32,2019-12-20 10:44:27,"55,240s",PASSED
delay(5),Firefox 71.0,,,2019-12-20 10:44:27,2019-12-20 10:44:32,"5,002s",PASSED
"test.Metodos.lista(findTestObject(""Object Repository/2.list_inputCheck""))",Firefox 71.0,,,2019-12-20 10:44:32,2019-12-20 10:44:36,"3,730s",PASSED
delay(5),Firefox 71.0,,,2019-12-20 10:44:36,2019-12-20 10:44:41,"5,007s",PASSED
"click(findTestObject(""2.Planes de Accion/Configuracion/8.Nivel de Criticidad/1.Generales/7.Mostrar/1.Show""))",Firefox 71.0,,,2019-12-20 10:44:41,2019-12-20 10:44:42,"0,532s",PASSED
