Suite/Test/Step Name,Browser,Description,Tag,Start time,End time,Duration,Status
1.Crear plan de accion,Firefox 72.0,,,2020-01-23 08:57:07,2020-01-23 08:58:45,"1m - 38,359s",ERROR
,,,,,,,
Test Cases/2.Planes de Accion/Generales/1.Index/1.Crear Plan de Accion,Firefox 72.0,,,2020-01-23 08:57:08,2020-01-23 08:58:45,"1m - 37,763s",ERROR
"callTestCase(findTestCase(""2.Planes de Accion/Daruma/Acceso al modulo""), [:])",Firefox 72.0,,,2020-01-23 08:57:09,2020-01-23 08:57:49,"40,655s",PASSED
"click(findTestObject(""2.Planes de Accion/Generales/1.Index/1.1.Crear/1.btn_Create""))",Firefox 72.0,,,2020-01-23 08:57:49,2020-01-23 08:57:50,"0,593s",PASSED
delay(5),Firefox 72.0,,,2020-01-23 08:57:50,2020-01-23 08:57:55,"5,006s",PASSED
"test.Metodos.display_list_only(findTestObject(""Generales/Select2/1.display_list_only""), 0)",Firefox 72.0,,,2020-01-23 08:57:55,2020-01-23 08:58:06,"11,141s",PASSED
"test.Metodos.element_selected(findTestObject(""Object Repository/Generales/Select2/2.select_option""), 1)",Firefox 72.0,,,2020-01-23 08:58:06,2020-01-23 08:58:13,"7,108s",PASSED
"test.Metodos.display_list_only(findTestObject(""Generales/Select2/1.display_list_only""), 1)",Firefox 72.0,,,2020-01-23 08:58:13,2020-01-23 08:58:24,"11,007s",PASSED
"test.Metodos.element_selected(findTestObject(""Object Repository/Generales/Select2/2.select_option""), 1)",Firefox 72.0,,,2020-01-23 08:58:24,2020-01-23 08:58:45,"21,420s",ERROR
