Suite/Test/Step Name,Browser,Description,Tag,Start time,End time,Duration,Status
11.Modificar Plan,Firefox 71.0,,,2020-01-03 11:50:08,2020-01-03 11:58:42,"8m - 33,316s",ERROR
,,,,,,,
Test Cases/2.Planes de Accion/Generales/1.Index/1.Crear Plan de Accion,Firefox 71.0,,,2020-01-03 11:50:09,2020-01-03 11:54:44,"4m - 35,619s",PASSED
"callTestCase(findTestCase(""2.Planes de Accion/Daruma/Acceso al modulo""), [:])",Firefox 71.0,,,2020-01-03 11:50:10,2020-01-03 11:50:57,"47,270s",PASSED
"click(findTestObject(""2.Planes de Accion/Generales/1.Index/1.1.Crear/1.btn_Create""))",Firefox 71.0,,,2020-01-03 11:50:57,2020-01-03 11:50:57,"0,580s",PASSED
delay(5),Firefox 71.0,,,2020-01-03 11:50:57,2020-01-03 11:51:02,"5,005s",PASSED
"test.Metodos.display_list_only(findTestObject(""Generales/Select2/1.display_list_only""), 0)",Firefox 71.0,,,2020-01-03 11:51:02,2020-01-03 11:51:15,"12,980s",PASSED
"test.Metodos.element_selected(findTestObject(""Object Repository/Generales/Select2/2.select_option""), 1)",Firefox 71.0,,,2020-01-03 11:51:15,2020-01-03 11:51:23,"7,075s",PASSED
"test.Metodos.display_list_only(findTestObject(""Generales/Select2/1.display_list_only""), 1)",Firefox 71.0,,,2020-01-03 11:51:23,2020-01-03 11:51:34,"11,036s",PASSED
"test.Metodos.element_selected(findTestObject(""Object Repository/Generales/Select2/2.select_option""), 1)",Firefox 71.0,,,2020-01-03 11:51:34,2020-01-03 11:51:41,"7,061s",PASSED
"test.Metodos.display_list_multi(findTestObject(""Object Repository/Generales/Select2/1.1.display_list_multi""), 0)",Firefox 71.0,,,2020-01-03 11:51:41,2020-01-03 11:51:51,"10,643s",PASSED
"test.Metodos.select2(findTestObject(""Object Repository/Generales/Select2/2.select_option""), 0)",Firefox 71.0,,,2020-01-03 11:51:51,2020-01-03 11:52:02,"11,109s",PASSED
"click(findTestObject(""2.Planes de Accion/Generales/1.Index/1.1.Crear/3.Origenes""))",Firefox 71.0,,,2020-01-03 11:52:02,2020-01-03 11:52:03,"0,916s",PASSED
"test.Metodos.display_list_multi(findTestObject(""Object Repository/Generales/Select2/1.1.display_list_multi""), 1)",Firefox 71.0,,,2020-01-03 11:52:03,2020-01-03 11:52:14,"10,844s",PASSED
"test.Metodos.select2(findTestObject(""Object Repository/Generales/Select2/2.1.select_option_multi""), 1)",Firefox 71.0,,,2020-01-03 11:52:14,2020-01-03 11:52:25,"11,075s",PASSED
"elementSelect = test.Metodos.select2_config(findTestObject(""2.Planes de Accion/Generales/1.Index/1.1.Crear/4.Element_select""))",Firefox 71.0,,,2020-01-03 11:52:25,2020-01-03 11:52:27,"1,322s",PASSED
"selectOptionByValue(findTestObject(""2.Planes de Accion/Generales/1.Index/1.1.Crear/5.select_type""), elementSelect.toString(), true)",Firefox 71.0,,,2020-01-03 11:52:27,2020-01-03 11:52:28,"1,552s",PASSED
"getNumberOfTotalOption(findTestObject(""2.Planes de Accion/Generales/1.Index/1.1.Crear/4.Element_select""))",Firefox 71.0,,,2020-01-03 11:52:28,2020-01-03 11:52:29,"0,609s",PASSED
"test.Metodos.tiny1(findTestObject(""2.Planes de Accion/Generales/1.Index/1.1.Crear/6.TinyMCE""), 0)",Firefox 71.0,,,2020-01-03 11:52:29,2020-01-03 11:52:30,"1,044s",PASSED
delay(5),Firefox 71.0,,,2020-01-03 11:52:30,2020-01-03 11:52:35,"5,004s",PASSED
"test.Metodos.tiny1(findTestObject(""2.Planes de Accion/Generales/1.Index/1.1.Crear/6.TinyMCE""), 1)",Firefox 71.0,,,2020-01-03 11:52:35,2020-01-03 11:52:36,"1,009s",PASSED
delay(5),Firefox 71.0,,,2020-01-03 11:52:36,2020-01-03 11:52:41,"5,005s",PASSED
"selectOptionByValue(findTestObject(""2.Planes de Accion/Generales/1.Index/1.1.Crear/7.select_track_freq""), ""4"", true)",Firefox 71.0,,,2020-01-03 11:52:41,2020-01-03 11:52:42,"1,056s",PASSED
"setText(findTestObject(""2.Planes de Accion/Generales/1.Index/1.1.Crear/8.input_num_periods""), ""1"")",Firefox 71.0,,,2020-01-03 11:52:42,2020-01-03 11:52:42,"0,391s",PASSED
"selectOptionByValue(findTestObject(""2.Planes de Accion/Generales/1.Index/1.1.Crear/9.select_criticality_id""), ""21"", true)",Firefox 71.0,,,2020-01-03 11:52:42,2020-01-03 11:52:45,"2,543s",PASSED
"test.Metodos.display_list_multi(findTestObject(""Object Repository/Generales/Select2/1.1.display_list_multi""), 2)",Firefox 71.0,,,2020-01-03 11:52:45,2020-01-03 11:52:55,"10,611s",PASSED
"test.Metodos.select2(findTestObject(""Object Repository/Generales/Select2/2.select_option""), 0)",Firefox 71.0,,,2020-01-03 11:52:55,2020-01-03 11:53:06,"11,093s",PASSED
"test.Metodos.display_list_multi(findTestObject(""Object Repository/Generales/Select2/1.1.display_list_multi""), 5)",Firefox 71.0,,,2020-01-03 11:53:06,2020-01-03 11:53:17,"10,594s",PASSED
delay(5),Firefox 71.0,,,2020-01-03 11:53:17,2020-01-03 11:53:22,"5,008s",PASSED
"test.Metodos.select2(findTestObject(""Object Repository/Generales/Select2/2.select_option""), 0)",Firefox 71.0,,,2020-01-03 11:53:22,2020-01-03 11:53:33,"11,068s",PASSED
"test.Metodos.display_list_multi(findTestObject(""Object Repository/Generales/Select2/1.1.display_list_multi""), 6)",Firefox 71.0,,,2020-01-03 11:53:33,2020-01-03 11:53:44,"10,630s",PASSED
"test.Metodos.select2(findTestObject(""Object Repository/Generales/Select2/2.select_option""), 0)",Firefox 71.0,,,2020-01-03 11:53:44,2020-01-03 11:53:55,"11,052s",PASSED
"test.Metodos.display_list_multi(findTestObject(""Object Repository/Generales/Select2/1.1.display_list_multi""), 7)",Firefox 71.0,,,2020-01-03 11:53:55,2020-01-03 11:54:05,"10,592s",PASSED
"test.Metodos.select2(findTestObject(""Object Repository/Generales/Select2/2.select_option""), 0)",Firefox 71.0,,,2020-01-03 11:54:05,2020-01-03 11:54:16,"11,024s",PASSED
"test.Metodos.display_list_multi(findTestObject(""Object Repository/Generales/Select2/1.1.display_list_multi""), 8)",Firefox 71.0,,,2020-01-03 11:54:16,2020-01-03 11:54:27,"10,598s",PASSED
"test.Metodos.select2(findTestObject(""Object Repository/Generales/Select2/2.select_option""), 0)",Firefox 71.0,,,2020-01-03 11:54:27,2020-01-03 11:54:38,"11,080s",PASSED
delay(5),Firefox 71.0,,,2020-01-03 11:54:38,2020-01-03 11:54:43,"5,006s",PASSED
"click(findTestObject(""2.Planes de Accion/Generales/1.Index/1.1.Crear/10.btn_Save""))",Firefox 71.0,,,2020-01-03 11:54:43,2020-01-03 11:54:44,"1,335s",PASSED
,,,,,,,
Test Cases/2.Planes de Accion/Generales/1.Index/1.1.Gestion del Plan/6.Solicitar aprobacion del plan,Firefox 71.0,,,2020-01-03 11:54:44,2020-01-03 11:55:46,"1m - 1,802s",PASSED
"callTestCase(findTestCase(""2.Planes de Accion/Daruma/Acceso al modulo""), [:])",Firefox 71.0,,,2020-01-03 11:54:45,2020-01-03 11:55:32,"46,761s",PASSED
"id = test.Metodos.lista(findTestObject(""Object Repository/2.list_inputCheck""))",Firefox 71.0,,,2020-01-03 11:55:32,2020-01-03 11:55:35,"3,856s",PASSED
"test.Metodos.select_item_managment(findTestObject(""Generales/Select Item List/1.list_index""), id)",Firefox 71.0,,,2020-01-03 11:55:35,2020-01-03 11:55:37,"1,566s",PASSED
delay(8),Firefox 71.0,,,2020-01-03 11:55:37,2020-01-03 11:55:45,"8,004s",PASSED
"click(findTestObject(""2.Planes de Accion/Generales/1.Index/1.Gestion del Plan/6.Solicitar Plan de Accion/1.btn_option_more""))",Firefox 71.0,,,2020-01-03 11:55:45,2020-01-03 11:55:46,"0,556s",PASSED
"click(findTestObject(""Object Repository/2.Planes de Accion/Generales/1.Index/1.Gestion del Plan/6.Solicitar Plan de Accion/2.btn_ask_for_approval""))",Firefox 71.0,,,2020-01-03 11:55:46,2020-01-03 11:55:46,"0,623s",PASSED
acceptAlert(),Firefox 71.0,,,2020-01-03 11:55:46,2020-01-03 11:55:46,"0,086s",PASSED
,,,,,,,
Test Cases/2.Planes de Accion/Generales/1.Index/1.1.Gestion del Plan/28.Solicitar Ajuste Plan de accion,Firefox 71.0,,,2020-01-03 11:55:46,2020-01-03 11:57:18,"1m - 31,212s",PASSED
"callTestCase(findTestCase(""2.Planes de Accion/Daruma/Acceso al modulo""), [:])",Firefox 71.0,,,2020-01-03 11:55:47,2020-01-03 11:56:44,"57,544s",PASSED
"id = test.Metodos.lista(findTestObject(""Object Repository/2.list_inputCheck""))",Firefox 71.0,,,2020-01-03 11:56:44,2020-01-03 11:56:48,"3,920s",PASSED
"test.Metodos.select_item_managment(findTestObject(""Generales/Select Item List/1.list_index""), id)",Firefox 71.0,,,2020-01-03 11:56:48,2020-01-03 11:56:50,"1,586s",PASSED
delay(8),Firefox 71.0,,,2020-01-03 11:56:50,2020-01-03 11:56:58,"8,004s",PASSED
"click(findTestObject(""Object Repository/2.Planes de Accion/Generales/1.Index/1.Gestion del Plan/9.Solicitar ajuste de Accion/1.request_adjustment""))",Firefox 71.0,,,2020-01-03 11:56:58,2020-01-03 11:56:58,"0,564s",PASSED
delay(5),Firefox 71.0,,,2020-01-03 11:56:58,2020-01-03 11:57:03,"5,003s",PASSED
"test.Metodos.tiny1(findTestObject(""Object Repository/Generales/TinyMCE/Iframe""), 0)",Firefox 71.0,,,2020-01-03 11:57:03,2020-01-03 11:57:17,"13,266s",PASSED
"click(findTestObject(""Object Repository/2.Planes de Accion/Generales/1.Index/1.Gestion del Plan/9.Solicitar ajuste de Accion/2.btn_Save""))",Firefox 71.0,,,2020-01-03 11:57:17,2020-01-03 11:57:18,"0,808s",PASSED
,,,,,,,
Test Cases/2.Planes de Accion/Generales/1.Index/1.1.Gestion del Plan/11.Modificar plan,Firefox 71.0,,,2020-01-03 11:57:18,2020-01-03 11:58:42,"1m - 24,116s",ERROR
"callTestCase(findTestCase(""2.Planes de Accion/Daruma/Acceso al modulo""), [:])",Firefox 71.0,,,2020-01-03 11:57:18,2020-01-03 11:58:10,"51,847s",PASSED
"id = test.Metodos.lista(findTestObject(""Object Repository/2.list_inputCheck""))",Firefox 71.0,,,2020-01-03 11:58:10,2020-01-03 11:58:14,"3,859s",PASSED
"test.Metodos.select_item_managment(findTestObject(""Generales/Select Item List/1.list_index""), id)",Firefox 71.0,,,2020-01-03 11:58:14,2020-01-03 11:58:15,"1,371s",PASSED
delay(5),Firefox 71.0,,,2020-01-03 11:58:15,2020-01-03 11:58:20,"5,004s",PASSED
"click(findTestObject(""2.Planes de Accion/Generales/1.Index/1.Gestion del Plan/11.Modificar Plan/1.modify_plan""))",Firefox 71.0,,,2020-01-03 11:58:20,2020-01-03 11:58:21,"0,571s",PASSED
"test.Metodos.tiny1(findTestObject(""Object Repository/Generales/TinyMCE/Iframe""), 3)",Firefox 71.0,,,2020-01-03 11:58:21,2020-01-03 11:58:42,"21,103s",ERROR
