Suite/Test/Step Name,Browser,Description,Tag,Start time,End time,Duration,Status
30.concluir plan de accion desde tareas,Firefox 72.0,,,2020-02-26 09:22:14,2020-02-26 09:32:43,"10m - 28,844s",PASSED
,,,,,,,
Test Cases/2.Planes de Accion/Generales/1.Index/1.Crear Plan de Accion,Firefox 72.0,,,2020-02-26 09:22:15,2020-02-26 09:26:01,"3m - 46,734s",PASSED
"callTestCase(findTestCase(""2.Planes de Accion/Daruma/Acceso al modulo""), [:])",Firefox 72.0,,,2020-02-26 09:22:15,2020-02-26 09:22:59,"44,213s",PASSED
delay(5),Firefox 72.0,,,2020-02-26 09:22:59,2020-02-26 09:23:04,"5,008s",PASSED
"user = test.Metodos.get_Text(findTestObject(""Object Repository/2.Planes de Accion/Generales/1.Index/1.1.Crear/1.user""))",Firefox 72.0,,,2020-02-26 09:23:04,2020-02-26 09:23:05,"0,363s",PASSED
delay(5),Firefox 72.0,,,2020-02-26 09:23:05,2020-02-26 09:23:10,"5,002s",PASSED
"click(findTestObject(""2.Planes de Accion/Generales/1.Index/1.1.Crear/1.btn_Create""))",Firefox 72.0,,,2020-02-26 09:23:10,2020-02-26 09:23:10,"0,628s",PASSED
delay(5),Firefox 72.0,,,2020-02-26 09:23:10,2020-02-26 09:23:15,"5,017s",PASSED
"test.Metodos.display_list_only(findTestObject(""Generales/Select2/1.display_list_only""), 0)",Firefox 72.0,,,2020-02-26 09:23:15,2020-02-26 09:23:27,"11,850s",PASSED
"test.Metodos.element_selected(findTestObject(""Object Repository/Generales/Select2/2.select_option""), 1)",Firefox 72.0,,,2020-02-26 09:23:27,2020-02-26 09:23:34,"7,039s",PASSED
"test.Metodos.display_list_only(findTestObject(""Generales/Select2/1.display_list_only""), 1)",Firefox 72.0,,,2020-02-26 09:23:34,2020-02-26 09:23:46,"11,113s",PASSED
"test.Metodos.element_selected(findTestObject(""Object Repository/Generales/Select2/2.select_option""), 1)",Firefox 72.0,,,2020-02-26 09:23:46,2020-02-26 09:23:53,"7,022s",PASSED
"click(findTestObject(""2.Planes de Accion/Generales/1.Index/1.1.Crear/3.Origenes""))",Firefox 72.0,,,2020-02-26 09:23:53,2020-02-26 09:23:53,"0,878s",PASSED
"elementSelect = test.Metodos.select2_config(findTestObject(""2.Planes de Accion/Generales/1.Index/1.1.Crear/4.Element_select""))",Firefox 72.0,,,2020-02-26 09:23:53,2020-02-26 09:23:55,"1,894s",PASSED
"selectOptionByValue(findTestObject(""2.Planes de Accion/Generales/1.Index/1.1.Crear/5.select_type""), elementSelect.toString(), true)",Firefox 72.0,,,2020-02-26 09:23:55,2020-02-26 09:23:57,"1,424s",PASSED
"getNumberOfTotalOption(findTestObject(""2.Planes de Accion/Generales/1.Index/1.1.Crear/4.Element_select""))",Firefox 72.0,,,2020-02-26 09:23:57,2020-02-26 09:23:57,"0,559s",PASSED
"test.Metodos.tiny1(findTestObject(""2.Planes de Accion/Generales/1.Index/1.1.Crear/6.TinyMCE""), 0)",Firefox 72.0,,,2020-02-26 09:23:57,2020-02-26 09:23:58,"0,911s",PASSED
delay(5),Firefox 72.0,,,2020-02-26 09:23:58,2020-02-26 09:24:03,"5,002s",PASSED
"test.Metodos.tiny1(findTestObject(""2.Planes de Accion/Generales/1.Index/1.1.Crear/6.TinyMCE""), 1)",Firefox 72.0,,,2020-02-26 09:24:03,2020-02-26 09:24:04,"0,991s",PASSED
delay(5),Firefox 72.0,,,2020-02-26 09:24:04,2020-02-26 09:24:09,"5,000s",PASSED
"selectOptionByValue(findTestObject(""2.Planes de Accion/Generales/1.Index/1.1.Crear/7.select_track_freq""), ""4"", true)",Firefox 72.0,,,2020-02-26 09:24:09,2020-02-26 09:24:10,"0,907s",PASSED
delay(5),Firefox 72.0,,,2020-02-26 09:24:10,2020-02-26 09:24:15,"5,000s",PASSED
"selectOptionByValue(findTestObject(""Object Repository/2.Planes de Accion/Generales/1.Index/1.1.Crear/3.select_impac_critic""), ""21"", true)",Firefox 72.0,,,2020-02-26 09:24:15,2020-02-26 09:24:18,"2,408s",PASSED
"setText(findTestObject(""2.Planes de Accion/Generales/1.Index/1.1.Crear/8.input_num_periods""), ""1"")",Firefox 72.0,,,2020-02-26 09:24:18,2020-02-26 09:24:18,"0,365s",PASSED
"test.Metodos.display_list_multi(findTestObject(""Object Repository/Generales/Select2/1.1.display_list_multi""), 2)",Firefox 72.0,,,2020-02-26 09:24:18,2020-02-26 09:24:28,"10,599s",PASSED
delay(5),Firefox 72.0,,,2020-02-26 09:24:28,2020-02-26 09:24:33,"5,002s",PASSED
"setText(findTestObject(""Object Repository/2.Planes de Accion/Generales/1.Index/1.1.Crear/1.enter""), user)",Firefox 72.0,,,2020-02-26 09:24:33,2020-02-26 09:24:34,"0,425s",PASSED
"enter = findWebElement(findTestObject(""Object Repository/2.Planes de Accion/Generales/1.Index/1.1.Crear/1.enter""), 2)",Firefox 72.0,,,2020-02-26 09:24:34,2020-02-26 09:24:36,"2,011s",PASSED
enter.sendKeys(ENTER),Firefox 72.0,,,2020-02-26 09:24:36,2020-02-26 09:24:36,"0,063s",PASSED
delay(5),Firefox 72.0,,,2020-02-26 09:24:36,2020-02-26 09:24:41,"5,001s",PASSED
"test.Metodos.display_list_multi(findTestObject(""Generales/Select2/1.1.display_list_multi""), 5)",Firefox 72.0,,,2020-02-26 09:24:41,2020-02-26 09:24:52,"10,621s",PASSED
delay(5),Firefox 72.0,,,2020-02-26 09:24:52,2020-02-26 09:24:57,"5,003s",PASSED
"test.Metodos.select2(findTestObject(""Object Repository/Generales/Select2/2.select_option""), 0)",Firefox 72.0,,,2020-02-26 09:24:57,2020-02-26 09:25:08,"11,037s",PASSED
"test.Metodos.display_list_multi(findTestObject(""Object Repository/Generales/Select2/1.1.display_list_multi""), 6)",Firefox 72.0,,,2020-02-26 09:25:08,2020-02-26 09:25:18,"10,535s",PASSED
"test.Metodos.select2(findTestObject(""Object Repository/Generales/Select2/2.select_option""), 0)",Firefox 72.0,,,2020-02-26 09:25:18,2020-02-26 09:25:29,"11,052s",PASSED
"test.Metodos.display_list_multi(findTestObject(""Object Repository/Generales/Select2/1.1.display_list_multi""), 7)",Firefox 72.0,,,2020-02-26 09:25:29,2020-02-26 09:25:40,"10,600s",PASSED
"test.Metodos.select2(findTestObject(""Object Repository/Generales/Select2/2.select_option""), 0)",Firefox 72.0,,,2020-02-26 09:25:40,2020-02-26 09:25:51,"11,033s",PASSED
delay(5),Firefox 72.0,,,2020-02-26 09:25:51,2020-02-26 09:25:56,"5,000s",PASSED
"click(findTestObject(""2.Planes de Accion/Generales/1.Index/1.1.Crear/10.btn_Save""))",Firefox 72.0,,,2020-02-26 09:25:56,2020-02-26 09:25:56,"0,575s",PASSED
delay(5),Firefox 72.0,,,2020-02-26 09:25:56,2020-02-26 09:26:01,"5,001s",PASSED
,,,,,,,
Test Cases/2.Planes de Accion/Generales/1.Index/1.1.Gestion del Plan/2.Agregar Accion,Firefox 72.0,,,2020-02-26 09:26:01,2020-02-26 09:27:15,"1m - 13,766s",PASSED
"callTestCase(findTestCase(""2.Planes de Accion/Daruma/Acceso al modulo""), [:])",Firefox 72.0,,,2020-02-26 09:26:02,2020-02-26 09:26:42,"39,850s",PASSED
"id = test.Metodos.lista(findTestObject(""Object Repository/2.list_inputCheck""))",Firefox 72.0,,,2020-02-26 09:26:42,2020-02-26 09:26:45,"3,894s",PASSED
"test.Metodos.select_item_managment(findTestObject(""Generales/Select Item List/1.list_index""), id)",Firefox 72.0,,,2020-02-26 09:26:45,2020-02-26 09:26:47,"1,058s",PASSED
delay(5),Firefox 72.0,,,2020-02-26 09:26:47,2020-02-26 09:26:52,"5,003s",PASSED
"click(findTestObject(""2.Planes de Accion/Generales/1.Index/1.Gestion del Plan/1.Analisis/1.btn_option_more""))",Firefox 72.0,,,2020-02-26 09:26:52,2020-02-26 09:26:52,"0,544s",PASSED
"click(findTestObject(""2.Planes de Accion/Generales/1.Index/1.Gestion del Plan/1.Analisis/2.btn_analyze""))",Firefox 72.0,,,2020-02-26 09:26:52,2020-02-26 09:26:53,"0,853s",PASSED
"test.Metodos.tiny1(findTestObject(""Object Repository/Generales/TinyMCE/Iframe""), 0)",Firefox 72.0,,,2020-02-26 09:26:53,2020-02-26 09:26:56,"3,294s",PASSED
"click(findTestObject(""2.Planes de Accion/Generales/1.Index/1.Gestion del Plan/1.Analisis/3.btn_Save""))",Firefox 72.0,,,2020-02-26 09:26:56,2020-02-26 09:26:57,"0,729s",PASSED
delay(5),Firefox 72.0,,,2020-02-26 09:26:57,2020-02-26 09:27:02,"5,003s",PASSED
"selectOptionByValue(findTestObject(""2.Planes de Accion/Generales/1.Index/1.Gestion del Plan/1.Analisis/4.select_cause_effect""), ""2"", false)",Firefox 72.0,,,2020-02-26 09:27:02,2020-02-26 09:27:03,"0,798s",PASSED
"click(findTestObject(""2.Planes de Accion/Generales/1.Index/1.Gestion del Plan/1.Analisis/5.inputCheck_add_actions""))",Firefox 72.0,,,2020-02-26 09:27:03,2020-02-26 09:27:03,"0,535s",PASSED
"click(findTestObject(""2.Planes de Accion/Generales/1.Index/1.Gestion del Plan/1.Analisis/3.btn_Save""))",Firefox 72.0,,,2020-02-26 09:27:03,2020-02-26 09:27:04,"0,536s",PASSED
"test.Metodos.tiny1(findTestObject(""Object Repository/Generales/TinyMCE/Iframe""), 0)",Firefox 72.0,,,2020-02-26 09:27:04,2020-02-26 09:27:09,"5,370s",PASSED
"selectOptionByValue(findTestObject(""2.Planes de Accion/Generales/1.Index/1.Gestion del Plan/1.Analisis/6.select_action_type""), ""1"", true)",Firefox 72.0,,,2020-02-26 09:27:09,2020-02-26 09:27:10,"0,995s",PASSED
"selectOptionByValue(findTestObject(""2.Planes de Accion/Generales/1.Index/1.Gestion del Plan/1.Analisis/7.select_end_date_month""), ""12"", true)",Firefox 72.0,,,2020-02-26 09:27:10,2020-02-26 09:27:11,"1,283s",PASSED
"selectOptionByValue(findTestObject(""2.Planes de Accion/Generales/1.Index/1.Gestion del Plan/1.Analisis/8.select_end_date_day""), ""31"", true)",Firefox 72.0,,,2020-02-26 09:27:11,2020-02-26 09:27:13,"1,609s",PASSED
"setText(findTestObject(""Object Repository/2.Planes de Accion/Generales/1.Index/1.Gestion del Plan/1.Analisis/9.input_initial_budget""), ""5000000"")",Firefox 72.0,,,2020-02-26 09:27:13,2020-02-26 09:27:13,"0,345s",PASSED
"setText(findTestObject(""Object Repository/2.Planes de Accion/Generales/1.Index/1.Gestion del Plan/1.Analisis/10.input_investment_budget""), ""5100000"")",Firefox 72.0,,,2020-02-26 09:27:13,2020-02-26 09:27:14,"0,353s",PASSED
"setText(findTestObject(""Object Repository/2.Planes de Accion/Generales/1.Index/1.Gestion del Plan/1.Analisis/11.input_operating_budget""), ""4800000"")",Firefox 72.0,,,2020-02-26 09:27:14,2020-02-26 09:27:14,"0,337s",PASSED
"click(findTestObject(""2.Planes de Accion/Generales/1.Index/1.Gestion del Plan/1.Analisis/12.inputCheck_exclude_consolidate""))",Firefox 72.0,,,2020-02-26 09:27:14,2020-02-26 09:27:15,"0,516s",PASSED
"click(findTestObject(""2.Planes de Accion/Generales/1.Index/1.Gestion del Plan/1.Analisis/3.btn_Save""))",Firefox 72.0,,,2020-02-26 09:27:15,2020-02-26 09:27:15,"0,565s",PASSED
,,,,,,,
Test Cases/2.Planes de Accion/Generales/1.Index/1.1.Gestion del Plan/6.Solicitar aprobacion del plan,Firefox 72.0,,,2020-02-26 09:27:15,2020-02-26 09:28:07,"51,532s",PASSED
"callTestCase(findTestCase(""2.Planes de Accion/Daruma/Acceso al modulo""), [:])",Firefox 72.0,,,2020-02-26 09:27:15,2020-02-26 09:27:53,"37,091s",PASSED
"id = test.Metodos.lista(findTestObject(""Object Repository/2.list_inputCheck""))",Firefox 72.0,,,2020-02-26 09:27:53,2020-02-26 09:27:56,"3,864s",PASSED
"test.Metodos.select_item_managment(findTestObject(""Generales/Select Item List/1.list_index""), id)",Firefox 72.0,,,2020-02-26 09:27:56,2020-02-26 09:27:57,"1,049s",PASSED
delay(8),Firefox 72.0,,,2020-02-26 09:27:57,2020-02-26 09:28:05,"8,001s",PASSED
"click(findTestObject(""2.Planes de Accion/Generales/1.Index/1.Gestion del Plan/6.Solicitar Plan de Accion/1.btn_option_more""))",Firefox 72.0,,,2020-02-26 09:28:05,2020-02-26 09:28:06,"0,520s",PASSED
"click(findTestObject(""Object Repository/2.Planes de Accion/Generales/1.Index/1.Gestion del Plan/6.Solicitar Plan de Accion/2.btn_ask_for_approval""))",Firefox 72.0,,,2020-02-26 09:28:06,2020-02-26 09:28:07,"0,706s",PASSED
acceptAlert(),Firefox 72.0,,,2020-02-26 09:28:07,2020-02-26 09:28:07,"0,087s",PASSED
,,,,,,,
Test Cases/2.Planes de Accion/Generales/1.Index/1.1.Gestion del Plan/29.aprobar acci\u00F3n desde la secci\u00F3n de tareas,Firefox 72.0,,,2020-02-26 09:28:07,2020-02-26 09:29:16,"1m - 9,136s",PASSED
"callTestCase(findTestCase(""Login""), [:])",Firefox 72.0,,,2020-02-26 09:28:07,2020-02-26 09:28:37,"29,950s",PASSED
delay(5),Firefox 72.0,,,2020-02-26 09:28:37,2020-02-26 09:28:42,"5,002s",PASSED
"click(findTestObject(""2.Planes de Accion/Generales/1.Index/1.Gestion del Plan/29.aprobar acción desde la sección de tareas/1.Task""))",Firefox 72.0,,,2020-02-26 09:28:42,2020-02-26 09:28:43,"0,652s",PASSED
delay(5),Firefox 72.0,,,2020-02-26 09:28:43,2020-02-26 09:28:48,"5,001s",PASSED
"click(findTestObject(""2.Planes de Accion/Generales/1.Index/1.Gestion del Plan/29.aprobar acción desde la sección de tareas/1.List_task_action_plan""))",Firefox 72.0,,,2020-02-26 09:28:48,2020-02-26 09:28:48,"0,533s",PASSED
delay(5),Firefox 72.0,,,2020-02-26 09:28:48,2020-02-26 09:28:53,"5,004s",PASSED
"click(findTestObject(""Object Repository/2.Planes de Accion/Generales/1.Index/1.Gestion del Plan/29.aprobar acción desde la sección de tareas/1.accion_name""))",Firefox 72.0,,,2020-02-26 09:28:53,2020-02-26 09:28:54,"0,515s",PASSED
delay(5),Firefox 72.0,,,2020-02-26 09:28:54,2020-02-26 09:28:59,"5,001s",PASSED
"test.Metodos.tiny1(findTestObject(""2.Planes de Accion/Generales/1.Index/1.1.Crear/6.TinyMCE""), 0)",Firefox 72.0,,,2020-02-26 09:28:59,2020-02-26 09:28:59,"0,814s",PASSED
delay(5),Firefox 72.0,,,2020-02-26 09:28:59,2020-02-26 09:29:04,"5,002s",PASSED
"selectOptionByValue(findTestObject(""2.Planes de Accion/Generales/1.Index/1.Gestion del Plan/29.aprobar acción desde la sección de tareas/1.select""), ""100"", false)",Firefox 72.0,,,2020-02-26 09:29:04,2020-02-26 09:29:05,"0,806s",PASSED
delay(5),Firefox 72.0,,,2020-02-26 09:29:05,2020-02-26 09:29:10,"5,003s",PASSED
"click(findTestObject(""Object Repository/2.Planes de Accion/Generales/1.Index/1.Gestion del Plan/29.aprobar acción desde la sección de tareas/1.btnsave""))",Firefox 72.0,,,2020-02-26 09:29:10,2020-02-26 09:29:11,"0,571s",PASSED
delay(5),Firefox 72.0,,,2020-02-26 09:29:11,2020-02-26 09:29:16,"5,001s",PASSED
,,,,,,,
Test Cases/2.Planes de Accion/Generales/1.Index/1.1.Gestion del Plan/30.concluir plan de accion,Firefox 72.0,,,2020-02-26 09:29:16,2020-02-26 09:30:17,"1m - 1,235s",PASSED
"callTestCase(findTestCase(""Login""), [:])",Firefox 72.0,,,2020-02-26 09:29:16,2020-02-26 09:29:44,"27,962s",PASSED
delay(5),Firefox 72.0,,,2020-02-26 09:29:44,2020-02-26 09:29:49,"5,001s",PASSED
"click(findTestObject(""2.Planes de Accion/Generales/1.Index/1.Gestion del Plan/29.aprobar acción desde la sección de tareas/1.Task""))",Firefox 72.0,,,2020-02-26 09:29:49,2020-02-26 09:29:50,"0,648s",PASSED
delay(5),Firefox 72.0,,,2020-02-26 09:29:50,2020-02-26 09:29:55,"5,001s",PASSED
"click(findTestObject(""2.Planes de Accion/Generales/1.Index/1.Gestion del Plan/29.aprobar acción desde la sección de tareas/1.List_task_action_plan""))",Firefox 72.0,,,2020-02-26 09:29:55,2020-02-26 09:29:55,"0,527s",PASSED
delay(5),Firefox 72.0,,,2020-02-26 09:29:55,2020-02-26 09:30:00,"5,001s",PASSED
"click(findTestObject(""Object Repository/2.Planes de Accion/Generales/1.Index/1.Gestion del Plan/30.concluir plan de accion/1.accion_name""))",Firefox 72.0,,,2020-02-26 09:30:00,2020-02-26 09:30:01,"0,517s",PASSED
delay(5),Firefox 72.0,,,2020-02-26 09:30:01,2020-02-26 09:30:06,"5,001s",PASSED
"test.Metodos.tiny1(findTestObject(""2.Planes de Accion/Generales/1.Index/1.1.Crear/6.TinyMCE""), 0)",Firefox 72.0,,,2020-02-26 09:30:06,2020-02-26 09:30:07,"0,823s",PASSED
delay(5),Firefox 72.0,,,2020-02-26 09:30:07,2020-02-26 09:30:12,"5,002s",PASSED
"click(findTestObject(""Object Repository/2.Planes de Accion/Generales/1.Index/1.Gestion del Plan/30.concluir plan de accion/1.btn_save""))",Firefox 72.0,,,2020-02-26 09:30:12,2020-02-26 09:30:12,"0,564s",PASSED
delay(5),Firefox 72.0,,,2020-02-26 09:30:12,2020-02-26 09:30:17,"5,000s",PASSED
,,,,,,,
Test Cases/2.Planes de Accion/Generales/1.Index/1.1.Gestion del Plan/31.seguimiento plan de accion,Firefox 72.0,,,2020-02-26 09:30:17,2020-02-26 09:31:24,"1m - 6,954s",PASSED
"callTestCase(findTestCase(""Login""), [:])",Firefox 72.0,,,2020-02-26 09:30:17,2020-02-26 09:30:45,"28,152s",PASSED
delay(5),Firefox 72.0,,,2020-02-26 09:30:45,2020-02-26 09:30:50,"5,001s",PASSED
"click(findTestObject(""2.Planes de Accion/Generales/1.Index/1.Gestion del Plan/29.aprobar acción desde la sección de tareas/1.Task""))",Firefox 72.0,,,2020-02-26 09:30:50,2020-02-26 09:30:51,"0,658s",PASSED
delay(5),Firefox 72.0,,,2020-02-26 09:30:51,2020-02-26 09:30:56,"5,001s",PASSED
"click(findTestObject(""2.Planes de Accion/Generales/1.Index/1.Gestion del Plan/29.aprobar acción desde la sección de tareas/1.List_task_action_plan""))",Firefox 72.0,,,2020-02-26 09:30:56,2020-02-26 09:30:57,"0,549s",PASSED
delay(5),Firefox 72.0,,,2020-02-26 09:30:57,2020-02-26 09:31:02,"5,001s",PASSED
"click(findTestObject(""Object Repository/2.Planes de Accion/Generales/1.Index/1.Gestion del Plan/30.concluir plan de accion/1.accion_name""))",Firefox 72.0,,,2020-02-26 09:31:02,2020-02-26 09:31:02,"0,545s",PASSED
delay(5),Firefox 72.0,,,2020-02-26 09:31:02,2020-02-26 09:31:07,"5,000s",PASSED
"test.Metodos.tiny1(findTestObject(""2.Planes de Accion/Generales/1.Index/1.1.Crear/6.TinyMCE""), 0)",Firefox 72.0,,,2020-02-26 09:31:07,2020-02-26 09:31:08,"0,772s",PASSED
delay(5),Firefox 72.0,,,2020-02-26 09:31:08,2020-02-26 09:31:13,"5,001s",PASSED
"click(findTestObject(""Object Repository/2.Planes de Accion/Generales/1.Index/1.Gestion del Plan/31.seguimiento plan de accion/1.input_check""))",Firefox 72.0,,,2020-02-26 09:31:13,2020-02-26 09:31:14,"0,520s",PASSED
delay(5),Firefox 72.0,,,2020-02-26 09:31:14,2020-02-26 09:31:19,"5,002s",PASSED
"click(findTestObject(""Object Repository/2.Planes de Accion/Generales/1.Index/1.Gestion del Plan/31.seguimiento plan de accion/1.btn_save""))",Firefox 72.0,,,2020-02-26 09:31:19,2020-02-26 09:31:19,"0,560s",PASSED
delay(5),Firefox 72.0,,,2020-02-26 09:31:19,2020-02-26 09:31:24,"5,001s",PASSED
,,,,,,,
Test Cases/2.Planes de Accion/Generales/1.Index/1.1.Gestion del Plan/32.concluir plan,Firefox 72.0,,,2020-02-26 09:31:24,2020-02-26 09:32:43,"1m - 19,008s",PASSED
"callTestCase(findTestCase(""Login""), [:])",Firefox 72.0,,,2020-02-26 09:31:24,2020-02-26 09:31:54,"29,193s",PASSED
delay(5),Firefox 72.0,,,2020-02-26 09:31:54,2020-02-26 09:31:59,"5,002s",PASSED
palabra = test.Metodos.randomString(),Firefox 72.0,,,2020-02-26 09:31:59,2020-02-26 09:31:59,"0,017s",PASSED
"click(findTestObject(""2.Planes de Accion/Generales/1.Index/1.Gestion del Plan/29.aprobar acción desde la sección de tareas/1.Task""))",Firefox 72.0,,,2020-02-26 09:31:59,2020-02-26 09:31:59,"0,662s",PASSED
delay(5),Firefox 72.0,,,2020-02-26 09:31:59,2020-02-26 09:32:04,"5,001s",PASSED
"click(findTestObject(""2.Planes de Accion/Generales/1.Index/1.Gestion del Plan/29.aprobar acción desde la sección de tareas/1.List_task_action_plan""))",Firefox 72.0,,,2020-02-26 09:32:04,2020-02-26 09:32:05,"0,545s",PASSED
delay(5),Firefox 72.0,,,2020-02-26 09:32:05,2020-02-26 09:32:10,"5,000s",PASSED
"click(findTestObject(""Object Repository/2.Planes de Accion/Generales/1.Index/1.Gestion del Plan/29.aprobar acción desde la sección de tareas/1.accion_name""))",Firefox 72.0,,,2020-02-26 09:32:10,2020-02-26 09:32:10,"0,519s",PASSED
delay(5),Firefox 72.0,,,2020-02-26 09:32:10,2020-02-26 09:32:15,"5,001s",PASSED
"click(findTestObject(""Object Repository/2.Planes de Accion/Generales/1.Index/1.Gestion del Plan/32.concluir plan/1.input_check""))",Firefox 72.0,,,2020-02-26 09:32:15,2020-02-26 09:32:16,"0,519s",PASSED
delay(5),Firefox 72.0,,,2020-02-26 09:32:16,2020-02-26 09:32:21,"5,003s",PASSED
"click(findTestObject(""Object Repository/2.Planes de Accion/Generales/1.Index/1.Gestion del Plan/32.concluir plan/2.input_check""))",Firefox 72.0,,,2020-02-26 09:32:21,2020-02-26 09:32:21,"0,523s",PASSED
delay(5),Firefox 72.0,,,2020-02-26 09:32:21,2020-02-26 09:32:26,"5,001s",PASSED
"test.Metodos.tiny1(findTestObject(""2.Planes de Accion/Generales/1.Index/1.1.Crear/6.TinyMCE""), 0)",Firefox 72.0,,,2020-02-26 09:32:26,2020-02-26 09:32:27,"0,826s",PASSED
delay(5),Firefox 72.0,,,2020-02-26 09:32:27,2020-02-26 09:32:32,"5,002s",PASSED
"setText(findTestObject(""Object Repository/2.Planes de Accion/Generales/1.Index/1.Gestion del Plan/32.concluir plan/1.text_area""), palabra)",Firefox 72.0,,,2020-02-26 09:32:32,2020-02-26 09:32:33,"0,386s",PASSED
delay(5),Firefox 72.0,,,2020-02-26 09:32:33,2020-02-26 09:32:38,"5,001s",PASSED
"click(findTestObject(""Object Repository/2.Planes de Accion/Generales/1.Index/1.Gestion del Plan/32.concluir plan/1.btn_save""))",Firefox 72.0,,,2020-02-26 09:32:38,2020-02-26 09:32:38,"0,563s",PASSED
delay(5),Firefox 72.0,,,2020-02-26 09:32:38,2020-02-26 09:32:43,"5,001s",PASSED
