Suite/Test/Step Name,Browser,Description,Tag,Start time,End time,Duration,Status
Relacion Entre Variable de Impacto y Nivel de Criticidad,Firefox 71.0,,,2019-12-23 08:02:01,2019-12-23 08:10:33,"8m - 32,208s",ERROR
,,,,,,,
Test Cases/2.Planes de Accion/Configuracion/9.Relaciones entre Variables de impacto y Niveles de criticidad/1.Test Cases General/0.Ver,Firefox 71.0,,,2019-12-23 08:02:02,2019-12-23 08:03:18,"1m - 16,521s",PASSED
"callTestCase(findTestCase(""2.Planes de Accion/Daruma/Acceso al modulo""), [:])",Firefox 71.0,,,2019-12-23 08:02:02,2019-12-23 08:03:12,"1m - 9,393s",PASSED
"click(findTestObject(""2.Planes de Accion/Configuracion/9.Relacion entre Variables de Impacto y Nivel de Criticidad/1.Generales/0.Ver/1.a_Configuration""))",Firefox 71.0,,,2019-12-23 08:03:12,2019-12-23 08:03:12,"0,711s",PASSED
"click(findTestObject(""2.Planes de Accion/Configuracion/9.Relacion entre Variables de Impacto y Nivel de Criticidad/1.Generales/0.Ver/2.a_Relaciones Var_Nivel""))",Firefox 71.0,,,2019-12-23 08:03:12,2019-12-23 08:03:13,"0,831s",PASSED
delay(5),Firefox 71.0,,,2019-12-23 08:03:13,2019-12-23 08:03:18,"5,005s",PASSED
,,,,,,,
Test Cases/2.Planes de Accion/Configuracion/9.Relaciones entre Variables de impacto y Niveles de criticidad/1.Test Cases General/1.Crear,Firefox 71.0,,,2019-12-23 08:03:18,2019-12-23 08:04:38,"1m - 19,403s",PASSED
"callTestCase(findTestCase(""2.Planes de Accion/Configuracion/9.Relaciones entre Variables de impacto y Niveles de criticidad/1.Test Cases General/0.Ver""), [:])",Firefox 71.0,,,2019-12-23 08:03:19,2019-12-23 08:04:21,"1m - 2,314s",PASSED
"click(findTestObject(""2.Planes de Accion/Configuracion/9.Relacion entre Variables de Impacto y Nivel de Criticidad/1.Generales/1.Crear/1.btn_Create""))",Firefox 71.0,,,2019-12-23 08:04:21,2019-12-23 08:04:22,"0,765s",PASSED
"element = test.Metodos.select2_config(findTestObject(""2.Planes de Accion/Configuracion/9.Relacion entre Variables de Impacto y Nivel de Criticidad/1.Generales/1.Crear/2.select_variable_impact""))",Firefox 71.0,,,2019-12-23 08:04:22,2019-12-23 08:04:26,"4,510s",PASSED
"selectOptionByValue(findTestObject(""2.Planes de Accion/Configuracion/9.Relacion entre Variables de Impacto y Nivel de Criticidad/1.Generales/1.Crear/2.select_variable_impact""), element.toString(), false)",Firefox 71.0,,,2019-12-23 08:04:26,2019-12-23 08:04:27,"0,933s",PASSED
"element2 = test.Metodos.select2_config(findTestObject(""2.Planes de Accion/Configuracion/9.Relacion entre Variables de Impacto y Nivel de Criticidad/1.Generales/1.Crear/3.select_criticality_level""))",Firefox 71.0,,,2019-12-23 08:04:27,2019-12-23 08:04:28,"1,196s",PASSED
"selectOptionByValue(findTestObject(""2.Planes de Accion/Configuracion/9.Relacion entre Variables de Impacto y Nivel de Criticidad/1.Generales/1.Crear/3.select_criticality_level""), element2.toString(), false)",Firefox 71.0,,,2019-12-23 08:04:28,2019-12-23 08:04:29,"0,857s",PASSED
"test.Metodos.EdiTtiny1(findTestObject(""Object Repository/2.Planes de Accion/Configuracion/9.Relacion entre Variables de Impacto y Nivel de Criticidad/1.Generales/Iframe TinyMCE""), 0)",Firefox 71.0,,,2019-12-23 08:04:29,2019-12-23 08:04:32,"2,590s",PASSED
"click(findTestObject(""2.Planes de Accion/Configuracion/9.Relacion entre Variables de Impacto y Nivel de Criticidad/1.Generales/1.Crear/4.btn_Save""))",Firefox 71.0,,,2019-12-23 08:04:32,2019-12-23 08:04:33,"0,801s",PASSED
delay(5),Firefox 71.0,,,2019-12-23 08:04:33,2019-12-23 08:04:38,"5,004s",PASSED
,,,,,,,
Test Cases/2.Planes de Accion/Configuracion/9.Relaciones entre Variables de impacto y Niveles de criticidad/1.Test Cases General/2.Editar,Firefox 71.0,,,2019-12-23 08:04:38,2019-12-23 08:05:52,"1m - 14,329s",ERROR
"callTestCase(findTestCase(""2.Planes de Accion/Configuracion/9.Relaciones entre Variables de impacto y Niveles de criticidad/1.Test Cases General/0.Ver""), [:])",Firefox 71.0,,,2019-12-23 08:04:38,2019-12-23 08:05:35,"56,266s",PASSED
"test.Metodos.lista(findTestObject(""2.Planes de Accion/Configuracion/9.Relacion entre Variables de Impacto y Nivel de Criticidad/1.Generales/2.Editar/3.select_variable_impact""))",Firefox 71.0,,,2019-12-23 08:05:35,2019-12-23 08:05:52,"17,489s",ERROR
,,,,,,,
Test Cases/2.Planes de Accion/Configuracion/9.Relaciones entre Variables de impacto y Niveles de criticidad/1.Test Cases General/3.Eliminar,Firefox 71.0,,,2019-12-23 08:05:52,2019-12-23 08:07:08,"1m - 15,944s",PASSED
"callTestCase(findTestCase(""2.Planes de Accion/Configuracion/9.Relaciones entre Variables de impacto y Niveles de criticidad/1.Test Cases General/0.Ver""), [:])",Firefox 71.0,,,2019-12-23 08:05:53,2019-12-23 08:06:58,"1m - 5,096s",PASSED
"test.Metodos.lista(findTestObject(""Object Repository/2.list_inputCheck""))",Firefox 71.0,,,2019-12-23 08:06:58,2019-12-23 08:07:02,"4,414s",PASSED
"click(findTestObject(""2.Planes de Accion/Configuracion/9.Relacion entre Variables de Impacto y Nivel de Criticidad/1.Generales/3.Eliminar/2.btn_Delete""))",Firefox 71.0,,,2019-12-23 08:07:02,2019-12-23 08:07:03,"0,788s",PASSED
acceptAlert(),Firefox 71.0,,,2019-12-23 08:07:03,2019-12-23 08:07:03,"0,172s",PASSED
delay(5),Firefox 71.0,,,2019-12-23 08:07:03,2019-12-23 08:07:08,"5,003s",PASSED
,,,,,,,
Test Cases/2.Planes de Accion/Configuracion/9.Relaciones entre Variables de impacto y Niveles de criticidad/1.Test Cases General/4.Inhabilitar,Firefox 71.0,,,2019-12-23 08:07:08,2019-12-23 08:08:14,"1m - 5,609s",PASSED
"callTestCase(findTestCase(""2.Planes de Accion/Configuracion/9.Relaciones entre Variables de impacto y Niveles de criticidad/1.Test Cases General/0.Ver""), [:])",Firefox 71.0,,,2019-12-23 08:07:08,2019-12-23 08:08:04,"55,242s",PASSED
"test.Metodos.lista(findTestObject(""Object Repository/2.list_inputCheck""))",Firefox 71.0,,,2019-12-23 08:08:04,2019-12-23 08:08:08,"3,956s",PASSED
"click(findTestObject(""Object Repository/2.Planes de Accion/Configuracion/9.Relacion entre Variables de Impacto y Nivel de Criticidad/1.Generales/4.Inhabilitar/2.btn_Disable_1""))",Firefox 71.0,,,2019-12-23 08:08:08,2019-12-23 08:08:08,"0,551s",PASSED
"click(findTestObject(""2.Planes de Accion/Configuracion/9.Relacion entre Variables de Impacto y Nivel de Criticidad/1.Generales/4.Inhabilitar/3.btn_Disable_2""))",Firefox 71.0,,,2019-12-23 08:08:08,2019-12-23 08:08:09,"0,409s",PASSED
acceptAlert(),Firefox 71.0,,,2019-12-23 08:08:09,2019-12-23 08:08:09,"0,088s",PASSED
delay(5),Firefox 71.0,,,2019-12-23 08:08:09,2019-12-23 08:08:14,"5,004s",PASSED
,,,,,,,
Test Cases/2.Planes de Accion/Configuracion/9.Relaciones entre Variables de impacto y Niveles de criticidad/1.Test Cases General/5.Filtrar,Firefox 71.0,,,2019-12-23 08:08:14,2019-12-23 08:09:19,"1m - 5,515s",PASSED
"callTestCase(findTestCase(""2.Planes de Accion/Configuracion/9.Relaciones entre Variables de impacto y Niveles de criticidad/1.Test Cases General/0.Ver""), [:])",Firefox 71.0,,,2019-12-23 08:08:14,2019-12-23 08:09:08,"54,091s",PASSED
"click(findTestObject(""2.Planes de Accion/Configuracion/9.Relacion entre Variables de Impacto y Nivel de Criticidad/1.Generales/5.Filtrar/1.open_filter""))",Firefox 71.0,,,2019-12-23 08:09:08,2019-12-23 08:09:09,"0,791s",PASSED
"selectOptionByValue(findTestObject(""2.Planes de Accion/Configuracion/9.Relacion entre Variables de Impacto y Nivel de Criticidad/1.Generales/5.Filtrar/2.select_variable_impact""), ""4"", true)",Firefox 71.0,,,2019-12-23 08:09:09,2019-12-23 08:09:10,"1,345s",PASSED
"selectOptionByValue(findTestObject(""2.Planes de Accion/Configuracion/9.Relacion entre Variables de Impacto y Nivel de Criticidad/1.Generales/5.Filtrar/3.select_criticality_level""), ""10"", true)",Firefox 71.0,,,2019-12-23 08:09:10,2019-12-23 08:09:12,"1,256s",PASSED
"click(findTestObject(""2.Planes de Accion/Configuracion/9.Relacion entre Variables de Impacto y Nivel de Criticidad/1.Generales/5.Filtrar/4.btn_filter""))",Firefox 71.0,,,2019-12-23 08:09:12,2019-12-23 08:09:12,"0,564s",PASSED
delay(5),Firefox 71.0,,,2019-12-23 08:09:12,2019-12-23 08:09:17,"5,002s",PASSED
"click(findTestObject(""2.Planes de Accion/Configuracion/9.Relacion entre Variables de Impacto y Nivel de Criticidad/1.Generales/5.Filtrar/1.open_filter""))",Firefox 71.0,,,2019-12-23 08:09:17,2019-12-23 08:09:18,"0,532s",PASSED
"click(findTestObject(""2.Planes de Accion/Configuracion/9.Relacion entre Variables de Impacto y Nivel de Criticidad/1.Generales/5.Filtrar/5.btn_Reset""))",Firefox 71.0,,,2019-12-23 08:09:18,2019-12-23 08:09:19,"1,496s",PASSED
,,,,,,,
Test Cases/2.Planes de Accion/Configuracion/9.Relaciones entre Variables de impacto y Niveles de criticidad/1.Test Cases General/7.Mostrar,Firefox 71.0,,,2019-12-23 08:09:19,2019-12-23 08:10:33,"1m - 13,583s",PASSED
"callTestCase(findTestCase(""2.Planes de Accion/Configuracion/9.Relaciones entre Variables de impacto y Niveles de criticidad/1.Test Cases General/0.Ver""), [:])",Firefox 71.0,,,2019-12-23 08:09:20,2019-12-23 08:10:18,"58,218s",PASSED
delay(5),Firefox 71.0,,,2019-12-23 08:10:18,2019-12-23 08:10:23,"5,005s",PASSED
"test.Metodos.lista(findTestObject(""Object Repository/2.list_inputCheck""))",Firefox 71.0,,,2019-12-23 08:10:23,2019-12-23 08:10:27,"3,778s",PASSED
delay(5),Firefox 71.0,,,2019-12-23 08:10:27,2019-12-23 08:10:32,"5,003s",PASSED
"click(findTestObject(""2.Planes de Accion/Configuracion/9.Relacion entre Variables de Impacto y Nivel de Criticidad/1.Generales/7.Mostrar/1.Show""))",Firefox 71.0,,,2019-12-23 08:10:32,2019-12-23 08:10:33,"0,595s",PASSED
