Suite/Test/Step Name,Browser,Description,Tag,Start time,End time,Duration,Status
14.Seguimiento Accion,Firefox 71.0,,,2019-12-27 16:03:01,2019-12-27 16:17:12,"14m - 11,634s",FAILED
,,,,,,,
Test Cases/2.Planes de Accion/Generales/1.Index/1.Crear Plan de Accion,Firefox 71.0,,,2019-12-27 16:03:01,2019-12-27 16:07:40,"4m - 39,007s",PASSED
"callTestCase(findTestCase(""2.Planes de Accion/Daruma/Acceso al modulo""), [:])",Firefox 71.0,,,2019-12-27 16:03:02,2019-12-27 16:03:49,"47,513s",PASSED
"click(findTestObject(""2.Planes de Accion/Generales/1.Index/1.1.Crear/1.btn_Create""))",Firefox 71.0,,,2019-12-27 16:03:49,2019-12-27 16:03:50,"0,659s",PASSED
delay(5),Firefox 71.0,,,2019-12-27 16:03:50,2019-12-27 16:03:55,"5,005s",PASSED
"test.Metodos.display_list_only(findTestObject(""Generales/Select2/1.display_list_only""), 0)",Firefox 71.0,,,2019-12-27 16:03:55,2019-12-27 16:04:07,"12,334s",PASSED
"test.Metodos.element_selected(findTestObject(""Object Repository/Generales/Select2/2.select_option""), 1)",Firefox 71.0,,,2019-12-27 16:04:07,2019-12-27 16:04:15,"7,105s",PASSED
"test.Metodos.display_list_only(findTestObject(""Generales/Select2/1.display_list_only""), 1)",Firefox 71.0,,,2019-12-27 16:04:15,2019-12-27 16:04:26,"11,066s",PASSED
"test.Metodos.element_selected(findTestObject(""Object Repository/Generales/Select2/2.select_option""), 1)",Firefox 71.0,,,2019-12-27 16:04:26,2019-12-27 16:04:33,"7,059s",PASSED
"test.Metodos.display_list_multi(findTestObject(""Object Repository/Generales/Select2/1.1.display_list_multi""), 0)",Firefox 71.0,,,2019-12-27 16:04:33,2019-12-27 16:04:43,"10,633s",PASSED
"test.Metodos.select2(findTestObject(""Object Repository/Generales/Select2/2.select_option""), 0)",Firefox 71.0,,,2019-12-27 16:04:43,2019-12-27 16:04:54,"11,074s",PASSED
"click(findTestObject(""2.Planes de Accion/Generales/1.Index/1.1.Crear/3.Origenes""))",Firefox 71.0,,,2019-12-27 16:04:54,2019-12-27 16:04:55,"0,897s",PASSED
"test.Metodos.display_list_multi(findTestObject(""Object Repository/Generales/Select2/1.1.display_list_multi""), 1)",Firefox 71.0,,,2019-12-27 16:04:55,2019-12-27 16:05:06,"10,833s",PASSED
"test.Metodos.select2(findTestObject(""Object Repository/Generales/Select2/2.1.select_option_multi""), 1)",Firefox 71.0,,,2019-12-27 16:05:06,2019-12-27 16:05:17,"11,158s",PASSED
"elementSelect = test.Metodos.select2_config(findTestObject(""2.Planes de Accion/Generales/1.Index/1.1.Crear/4.Element_select""))",Firefox 71.0,,,2019-12-27 16:05:17,2019-12-27 16:05:19,"1,381s",PASSED
"selectOptionByValue(findTestObject(""2.Planes de Accion/Generales/1.Index/1.1.Crear/5.select_type""), elementSelect.toString(), true)",Firefox 71.0,,,2019-12-27 16:05:19,2019-12-27 16:05:20,"1,513s",PASSED
"getNumberOfTotalOption(findTestObject(""2.Planes de Accion/Generales/1.Index/1.1.Crear/4.Element_select""))",Firefox 71.0,,,2019-12-27 16:05:20,2019-12-27 16:05:21,"0,588s",PASSED
"test.Metodos.tiny1(findTestObject(""2.Planes de Accion/Generales/1.Index/1.1.Crear/6.TinyMCE""), 0)",Firefox 71.0,,,2019-12-27 16:05:21,2019-12-27 16:05:22,"1,055s",PASSED
delay(5),Firefox 71.0,,,2019-12-27 16:05:22,2019-12-27 16:05:27,"5,005s",PASSED
"test.Metodos.tiny1(findTestObject(""2.Planes de Accion/Generales/1.Index/1.1.Crear/6.TinyMCE""), 1)",Firefox 71.0,,,2019-12-27 16:05:27,2019-12-27 16:05:28,"1,021s",PASSED
delay(5),Firefox 71.0,,,2019-12-27 16:05:28,2019-12-27 16:05:33,"5,004s",PASSED
"selectOptionByValue(findTestObject(""2.Planes de Accion/Generales/1.Index/1.1.Crear/7.select_track_freq""), ""4"", true)",Firefox 71.0,,,2019-12-27 16:05:33,2019-12-27 16:05:34,"1,118s",PASSED
"setText(findTestObject(""2.Planes de Accion/Generales/1.Index/1.1.Crear/8.input_num_periods""), ""1"")",Firefox 71.0,,,2019-12-27 16:05:34,2019-12-27 16:05:37,"2,979s",PASSED
"selectOptionByValue(findTestObject(""2.Planes de Accion/Generales/1.Index/1.1.Crear/9.select_criticality_id""), ""21"", true)",Firefox 71.0,,,2019-12-27 16:05:37,2019-12-27 16:05:40,"3,259s",PASSED
"test.Metodos.display_list_multi(findTestObject(""Object Repository/Generales/Select2/1.1.display_list_multi""), 2)",Firefox 71.0,,,2019-12-27 16:05:40,2019-12-27 16:05:51,"10,622s",PASSED
"test.Metodos.select2(findTestObject(""Object Repository/Generales/Select2/2.select_option""), 0)",Firefox 71.0,,,2019-12-27 16:05:51,2019-12-27 16:06:02,"11,101s",PASSED
"test.Metodos.display_list_multi(findTestObject(""Object Repository/Generales/Select2/1.1.display_list_multi""), 5)",Firefox 71.0,,,2019-12-27 16:06:02,2019-12-27 16:06:12,"10,584s",PASSED
delay(5),Firefox 71.0,,,2019-12-27 16:06:12,2019-12-27 16:06:18,"5,015s",PASSED
"test.Metodos.select2(findTestObject(""Object Repository/Generales/Select2/2.select_option""), 0)",Firefox 71.0,,,2019-12-27 16:06:18,2019-12-27 16:06:29,"11,034s",PASSED
"test.Metodos.display_list_multi(findTestObject(""Object Repository/Generales/Select2/1.1.display_list_multi""), 6)",Firefox 71.0,,,2019-12-27 16:06:29,2019-12-27 16:06:39,"10,624s",PASSED
"test.Metodos.select2(findTestObject(""Object Repository/Generales/Select2/2.select_option""), 0)",Firefox 71.0,,,2019-12-27 16:06:39,2019-12-27 16:06:51,"12,182s",PASSED
"test.Metodos.display_list_multi(findTestObject(""Object Repository/Generales/Select2/1.1.display_list_multi""), 7)",Firefox 71.0,,,2019-12-27 16:06:51,2019-12-27 16:07:02,"10,594s",PASSED
"test.Metodos.select2(findTestObject(""Object Repository/Generales/Select2/2.select_option""), 0)",Firefox 71.0,,,2019-12-27 16:07:02,2019-12-27 16:07:13,"11,049s",PASSED
"test.Metodos.display_list_multi(findTestObject(""Object Repository/Generales/Select2/1.1.display_list_multi""), 8)",Firefox 71.0,,,2019-12-27 16:07:13,2019-12-27 16:07:24,"10,573s",PASSED
"test.Metodos.select2(findTestObject(""Object Repository/Generales/Select2/2.select_option""), 0)",Firefox 71.0,,,2019-12-27 16:07:24,2019-12-27 16:07:35,"11,057s",PASSED
delay(5),Firefox 71.0,,,2019-12-27 16:07:35,2019-12-27 16:07:40,"5,005s",PASSED
"click(findTestObject(""2.Planes de Accion/Generales/1.Index/1.1.Crear/10.btn_Save""))",Firefox 71.0,,,2019-12-27 16:07:40,2019-12-27 16:07:40,"0,603s",PASSED
,,,,,,,
Test Cases/2.Planes de Accion/Generales/1.Index/1.1.Gestion del Plan/2.Agregar Accion,Firefox 71.0,,,2019-12-27 16:07:40,2019-12-27 16:09:05,"1m - 24,801s",PASSED
"callTestCase(findTestCase(""2.Planes de Accion/Daruma/Acceso al modulo""), [:])",Firefox 71.0,,,2019-12-27 16:07:41,2019-12-27 16:08:28,"46,774s",PASSED
"id = test.Metodos.lista(findTestObject(""Object Repository/2.list_inputCheck""))",Firefox 71.0,,,2019-12-27 16:08:28,2019-12-27 16:08:31,"3,848s",PASSED
"test.Metodos.select_item_managment(findTestObject(""Generales/Select Item List/1.list_index""), id)",Firefox 71.0,,,2019-12-27 16:08:31,2019-12-27 16:08:33,"1,430s",PASSED
delay(5),Firefox 71.0,,,2019-12-27 16:08:33,2019-12-27 16:08:38,"5,004s",PASSED
"click(findTestObject(""2.Planes de Accion/Generales/1.Index/1.Gestion del Plan/1.Analisis/1.btn_option_more""))",Firefox 71.0,,,2019-12-27 16:08:38,2019-12-27 16:08:40,"2,050s",PASSED
"click(findTestObject(""2.Planes de Accion/Generales/1.Index/1.Gestion del Plan/1.Analisis/2.btn_analyze""))",Firefox 71.0,,,2019-12-27 16:08:40,2019-12-27 16:08:41,"0,781s",PASSED
"test.Metodos.tiny1(findTestObject(""Object Repository/Generales/TinyMCE/Iframe""), 0)",Firefox 71.0,,,2019-12-27 16:08:41,2019-12-27 16:08:44,"3,643s",PASSED
"click(findTestObject(""2.Planes de Accion/Generales/1.Index/1.Gestion del Plan/1.Analisis/3.btn_Save""))",Firefox 71.0,,,2019-12-27 16:08:44,2019-12-27 16:08:46,"1,876s",PASSED
delay(5),Firefox 71.0,,,2019-12-27 16:08:46,2019-12-27 16:08:51,"5,006s",PASSED
"selectOptionByValue(findTestObject(""2.Planes de Accion/Generales/1.Index/1.Gestion del Plan/1.Analisis/4.select_cause_effect""), ""2"", false)",Firefox 71.0,,,2019-12-27 16:08:51,2019-12-27 16:08:52,"0,801s",PASSED
"click(findTestObject(""2.Planes de Accion/Generales/1.Index/1.Gestion del Plan/1.Analisis/5.inputCheck_add_actions""))",Firefox 71.0,,,2019-12-27 16:08:52,2019-12-27 16:08:52,"0,526s",PASSED
"click(findTestObject(""2.Planes de Accion/Generales/1.Index/1.Gestion del Plan/1.Analisis/3.btn_Save""))",Firefox 71.0,,,2019-12-27 16:08:52,2019-12-27 16:08:53,"0,559s",PASSED
"test.Metodos.tiny1(findTestObject(""Object Repository/Generales/TinyMCE/Iframe""), 0)",Firefox 71.0,,,2019-12-27 16:08:53,2019-12-27 16:08:59,"5,577s",PASSED
"selectOptionByValue(findTestObject(""2.Planes de Accion/Generales/1.Index/1.Gestion del Plan/1.Analisis/6.select_action_type""), ""1"", true)",Firefox 71.0,,,2019-12-27 16:08:59,2019-12-27 16:09:00,"1,151s",PASSED
"selectOptionByValue(findTestObject(""2.Planes de Accion/Generales/1.Index/1.Gestion del Plan/1.Analisis/7.select_end_date_month""), ""12"", true)",Firefox 71.0,,,2019-12-27 16:09:00,2019-12-27 16:09:01,"1,197s",PASSED
"selectOptionByValue(findTestObject(""2.Planes de Accion/Generales/1.Index/1.Gestion del Plan/1.Analisis/8.select_end_date_day""), ""31"", true)",Firefox 71.0,,,2019-12-27 16:09:01,2019-12-27 16:09:03,"1,740s",PASSED
"setText(findTestObject(""Object Repository/2.Planes de Accion/Generales/1.Index/1.Gestion del Plan/1.Analisis/9.input_initial_budget""), ""5000000"")",Firefox 71.0,,,2019-12-27 16:09:03,2019-12-27 16:09:03,"0,429s",PASSED
"setText(findTestObject(""Object Repository/2.Planes de Accion/Generales/1.Index/1.Gestion del Plan/1.Analisis/10.input_investment_budget""), ""5100000"")",Firefox 71.0,,,2019-12-27 16:09:03,2019-12-27 16:09:03,"0,362s",PASSED
"setText(findTestObject(""Object Repository/2.Planes de Accion/Generales/1.Index/1.Gestion del Plan/1.Analisis/11.input_operating_budget""), ""4800000"")",Firefox 71.0,,,2019-12-27 16:09:03,2019-12-27 16:09:04,"0,385s",PASSED
"click(findTestObject(""2.Planes de Accion/Generales/1.Index/1.Gestion del Plan/1.Analisis/12.inputCheck_exclude_consolidate""))",Firefox 71.0,,,2019-12-27 16:09:04,2019-12-27 16:09:04,"0,586s",PASSED
"click(findTestObject(""2.Planes de Accion/Generales/1.Index/1.Gestion del Plan/1.Analisis/3.btn_Save""))",Firefox 71.0,,,2019-12-27 16:09:04,2019-12-27 16:09:05,"0,601s",PASSED
,,,,,,,
Test Cases/2.Planes de Accion/Generales/1.Index/1.1.Gestion del Plan/6.Solicitar aprobacion del plan,Firefox 71.0,,,2019-12-27 16:09:05,2019-12-27 16:10:09,"1m - 4,340s",PASSED
"callTestCase(findTestCase(""2.Planes de Accion/Daruma/Acceso al modulo""), [:])",Firefox 71.0,,,2019-12-27 16:09:05,2019-12-27 16:09:53,"47,735s",PASSED
"id = test.Metodos.lista(findTestObject(""Object Repository/2.list_inputCheck""))",Firefox 71.0,,,2019-12-27 16:09:53,2019-12-27 16:09:57,"3,794s",PASSED
"test.Metodos.select_item_managment(findTestObject(""Generales/Select Item List/1.list_index""), id)",Firefox 71.0,,,2019-12-27 16:09:57,2019-12-27 16:09:58,"1,347s",PASSED
delay(8),Firefox 71.0,,,2019-12-27 16:09:58,2019-12-27 16:10:06,"8,002s",PASSED
"click(findTestObject(""2.Planes de Accion/Generales/1.Index/1.Gestion del Plan/6.Solicitar Plan de Accion/1.btn_option_more""))",Firefox 71.0,,,2019-12-27 16:10:06,2019-12-27 16:10:09,"2,443s",PASSED
"click(findTestObject(""Object Repository/2.Planes de Accion/Generales/1.Index/1.Gestion del Plan/6.Solicitar Plan de Accion/2.btn_ask_for_approval""))",Firefox 71.0,,,2019-12-27 16:10:09,2019-12-27 16:10:09,"0,690s",PASSED
acceptAlert(),Firefox 71.0,,,2019-12-27 16:10:09,2019-12-27 16:10:09,"0,093s",PASSED
,,,,,,,
Test Cases/2.Planes de Accion/Generales/1.Index/1.1.Gestion del Plan/7.Ejecutar Acciones,Firefox 71.0,,,2019-12-27 16:10:09,2019-12-27 16:11:21,"1m - 12,017s",PASSED
"callTestCase(findTestCase(""2.Planes de Accion/Daruma/Acceso al modulo""), [:])",Firefox 71.0,,,2019-12-27 16:10:10,2019-12-27 16:10:56,"45,739s",PASSED
"id = test.Metodos.lista(findTestObject(""Object Repository/2.list_inputCheck""))",Firefox 71.0,,,2019-12-27 16:10:56,2019-12-27 16:10:59,"3,816s",PASSED
"test.Metodos.select_item_managment(findTestObject(""Generales/Select Item List/1.list_index""), id)",Firefox 71.0,,,2019-12-27 16:10:59,2019-12-27 16:11:01,"1,377s",PASSED
delay(8),Firefox 71.0,,,2019-12-27 16:11:01,2019-12-27 16:11:09,"8,002s",PASSED
"test.Metodos.select_items_actions(""#action-list-table > tbody > tr > td > a"")",Firefox 71.0,,,2019-12-27 16:11:09,2019-12-27 16:11:09,"0,501s",PASSED
delay(5),Firefox 71.0,,,2019-12-27 16:11:09,2019-12-27 16:11:14,"5,006s",PASSED
"test.Metodos.select2_multiselect(findTestObject(""Object Repository/2.Planes de Accion/Generales/1.Index/1.Gestion del Plan/7.Crear Tareas del Plan de Accion/1.add_list""), 0)",Firefox 71.0,,,2019-12-27 16:11:14,2019-12-27 16:11:15,"0,562s",PASSED
"enter = findWebElement(findTestObject(""Object Repository/2.Planes de Accion/Generales/1.Index/1.Gestion del Plan/7.Crear Tareas del Plan de Accion/2.input_task_list_name""), 5)",Firefox 71.0,,,2019-12-27 16:11:15,2019-12-27 16:11:15,"0,303s",PASSED
enter.sendKeys(ENTER),Firefox 71.0,,,2019-12-27 16:11:15,2019-12-27 16:11:15,"0,041s",PASSED
delay(5),Firefox 71.0,,,2019-12-27 16:11:15,2019-12-27 16:11:20,"5,002s",PASSED
"test.Metodos.select2_multiselect(findTestObject(""Object Repository/2.Planes de Accion/Generales/1.Index/1.Gestion del Plan/7.Crear Tareas del Plan de Accion/1.add_list""), 1)",Firefox 71.0,,,2019-12-27 16:11:20,2019-12-27 16:11:21,"0,529s",PASSED
"setText(findTestObject(""Object Repository/2.Planes de Accion/Generales/1.Index/1.Gestion del Plan/7.Crear Tareas del Plan de Accion/4.input_task_notes""), ""Una tarea..."")",Firefox 71.0,,,2019-12-27 16:11:21,2019-12-27 16:11:21,"0,349s",PASSED
"enter2 = findWebElement(findTestObject(""Object Repository/2.Planes de Accion/Generales/1.Index/1.Gestion del Plan/7.Crear Tareas del Plan de Accion/4.input_task_notes""), 5)",Firefox 71.0,,,2019-12-27 16:11:21,2019-12-27 16:11:21,"0,274s",PASSED
enter2.sendKeys(ENTER),Firefox 71.0,,,2019-12-27 16:11:21,2019-12-27 16:11:21,"0,041s",PASSED
,,,,,,,
Test Cases/2.Planes de Accion/Generales/1.Index/1.1.Gestion del Plan/8.Aprobar acciones,Firefox 71.0,,,2019-12-27 16:11:21,2019-12-27 16:12:30,"1m - 8,649s",PASSED
"callTestCase(findTestCase(""2.Planes de Accion/Daruma/Acceso al modulo""), [:])",Firefox 71.0,,,2019-12-27 16:11:22,2019-12-27 16:12:08,"46,387s",PASSED
"id = test.Metodos.lista(findTestObject(""Object Repository/2.list_inputCheck""))",Firefox 71.0,,,2019-12-27 16:12:08,2019-12-27 16:12:12,"3,814s",PASSED
"test.Metodos.select_item_managment(findTestObject(""Generales/Select Item List/1.list_index""), id)",Firefox 71.0,,,2019-12-27 16:12:12,2019-12-27 16:12:13,"1,220s",PASSED
delay(8),Firefox 71.0,,,2019-12-27 16:12:13,2019-12-27 16:12:21,"8,006s",PASSED
"test.Metodos.select_items_actions(""#action-list-table > tbody > tr > td > a"")",Firefox 71.0,,,2019-12-27 16:12:21,2019-12-27 16:12:22,"0,484s",PASSED
delay(5),Firefox 71.0,,,2019-12-27 16:12:22,2019-12-27 16:12:27,"5,004s",PASSED
"test.Metodos.selectItem_taskState(findTestObject(""Object Repository/2.Planes de Accion/Generales/1.Index/1.Gestion del Plan/8.Aprobar Acciones/2.inputCheck_task_state""))",Firefox 71.0,,,2019-12-27 16:12:27,2019-12-27 16:12:28,"1,400s",PASSED
"click(findTestObject(""Object Repository/2.Planes de Accion/Generales/1.Index/1.Gestion del Plan/8.Aprobar Acciones/3.btn_return_actionPlan""))",Firefox 71.0,,,2019-12-27 16:12:28,2019-12-27 16:12:30,"1,968s",PASSED
,,,,,,,
Test Cases/2.Planes de Accion/Generales/1.Index/1.1.Gestion del Plan/16.Seguir Accion,Firefox 71.0,,,2019-12-27 16:12:30,2019-12-27 16:14:01,"1m - 30,409s",PASSED
"callTestCase(findTestCase(""2.Planes de Accion/Daruma/Acceso al modulo""), [:])",Firefox 71.0,,,2019-12-27 16:12:30,2019-12-27 16:13:19,"48,568s",PASSED
"id = test.Metodos.lista(findTestObject(""Object Repository/2.list_inputCheck""))",Firefox 71.0,,,2019-12-27 16:13:19,2019-12-27 16:13:23,"3,820s",PASSED
"test.Metodos.select_item_managment(findTestObject(""Generales/Select Item List/1.list_index""), id)",Firefox 71.0,,,2019-12-27 16:13:23,2019-12-27 16:13:24,"1,334s",PASSED
delay(10),Firefox 71.0,,,2019-12-27 16:13:24,2019-12-27 16:13:34,"10,002s",PASSED
"test.Metodos.select_items_actions(""#action-list-table > tbody > tr > td > a"")",Firefox 71.0,,,2019-12-27 16:13:34,2019-12-27 16:13:35,"0,487s",PASSED
delay(5),Firefox 71.0,,,2019-12-27 16:13:35,2019-12-27 16:13:40,"5,007s",PASSED
"click(findTestObject(""2.Planes de Accion/Generales/1.Index/1.Gestion del Plan/16.Seguir Accion/btn_conclude action""))",Firefox 71.0,,,2019-12-27 16:13:40,2019-12-27 16:13:44,"4,233s",PASSED
delay(5),Firefox 71.0,,,2019-12-27 16:13:44,2019-12-27 16:13:49,"5,004s",PASSED
"test.Metodos.tiny1(findTestObject(""Object Repository/Generales/TinyMCE/Iframe""), 0)",Firefox 71.0,,,2019-12-27 16:13:49,2019-12-27 16:13:50,"1,052s",PASSED
"selectOptionByValue(findTestObject(""2.Planes de Accion/Generales/1.Index/1.Gestion del Plan/16.Seguir Accion/select1""), ""100"", true)",Firefox 71.0,,,2019-12-27 16:13:50,2019-12-27 16:13:53,"3,467s",PASSED
"click(findTestObject(""2.Planes de Accion/Generales/1.Index/1.Gestion del Plan/16.Seguir Accion/button_save""))",Firefox 71.0,,,2019-12-27 16:13:53,2019-12-27 16:13:54,"0,888s",PASSED
delay(5),Firefox 71.0,,,2019-12-27 16:13:54,2019-12-27 16:13:59,"5,004s",PASSED
"click(findTestObject(""2.Planes de Accion/Generales/1.Index/1.Gestion del Plan/16.Seguir Accion/a_return""))",Firefox 71.0,,,2019-12-27 16:13:59,2019-12-27 16:14:01,"1,287s",PASSED
,,,,,,,
Test Cases/2.Planes de Accion/Generales/1.Index/1.1.Gestion del Plan/17.Concluir Accion,Firefox 71.0,,,2019-12-27 16:14:01,2019-12-27 16:15:20,"1m - 19,871s",PASSED
"callTestCase(findTestCase(""2.Planes de Accion/Daruma/Acceso al modulo""), [:])",Firefox 71.0,,,2019-12-27 16:14:01,2019-12-27 16:14:46,"45,290s",PASSED
"id = test.Metodos.lista(findTestObject(""Object Repository/2.list_inputCheck""))",Firefox 71.0,,,2019-12-27 16:14:46,2019-12-27 16:14:50,"3,816s",PASSED
"test.Metodos.select_item_managment(findTestObject(""Generales/Select Item List/1.list_index""), id)",Firefox 71.0,,,2019-12-27 16:14:50,2019-12-27 16:14:51,"1,342s",PASSED
delay(5),Firefox 71.0,,,2019-12-27 16:14:51,2019-12-27 16:14:56,"5,002s",PASSED
"test.Metodos.select_items_actions(""#action-list-table > tbody > tr > td > a"")",Firefox 71.0,,,2019-12-27 16:14:56,2019-12-27 16:15:02,"5,648s",PASSED
"click(findTestObject(""2.Planes de Accion/Generales/1.Index/1.Gestion del Plan/17.Concluir Accion/1.Conclude_ActionF""))",Firefox 71.0,,,2019-12-27 16:15:02,2019-12-27 16:15:09,"7,219s",PASSED
"test.Metodos.tiny1(findTestObject(""Object Repository/Generales/TinyMCE/Iframe""), 0)",Firefox 71.0,,,2019-12-27 16:15:09,2019-12-27 16:15:20,"10,404s",PASSED
"click(findTestObject(""2.Planes de Accion/Generales/1.Index/1.Gestion del Plan/17.Concluir Accion/5.Button""))",Firefox 71.0,,,2019-12-27 16:15:20,2019-12-27 16:15:20,"0,812s",PASSED
,,,,,,,
Test Cases/2.Planes de Accion/Generales/1.Index/1.1.Gestion del Plan/14.Seguimiento Accion,Firefox 71.0,,,2019-12-27 16:15:20,2019-12-27 16:17:12,"1m - 52,003s",FAILED
"callTestCase(findTestCase(""2.Planes de Accion/Daruma/Acceso al modulo""), [:])",Firefox 71.0,,,2019-12-27 16:15:21,2019-12-27 16:16:05,"44,634s",PASSED
"id = test.Metodos.lista(findTestObject(""Object Repository/2.list_inputCheck""))",Firefox 71.0,,,2019-12-27 16:16:05,2019-12-27 16:16:09,"3,847s",PASSED
"test.Metodos.select_item_managment(findTestObject(""Generales/Select Item List/1.list_index""), id)",Firefox 71.0,,,2019-12-27 16:16:09,2019-12-27 16:16:11,"1,368s",PASSED
delay(10),Firefox 71.0,,,2019-12-27 16:16:11,2019-12-27 16:16:21,"10,001s",PASSED
"click(findTestObject(""2.Planes de Accion/Generales/1.Index/1.Gestion del Plan/14.Seguimiento Accion/1.Seguimiento""))",Firefox 71.0,,,2019-12-27 16:16:21,2019-12-27 16:16:21,"0,520s",PASSED
"test.Metodos.tiny1(findTestObject(""Object Repository/Generales/TinyMCE/Iframe""), 0)",Firefox 71.0,,,2019-12-27 16:16:21,2019-12-27 16:16:28,"7,242s",PASSED
"click(findTestObject(""Object Repository/2.Planes de Accion/Generales/1.Index/1.Gestion del Plan/14.Seguimiento Accion/input2""))",Firefox 71.0,,,2019-12-27 16:16:28,2019-12-27 16:16:29,"0,743s",PASSED
"click(findTestObject(""Object Repository/2.Planes de Accion/Generales/1.Index/1.Gestion del Plan/14.Seguimiento Accion/input_Return2""))",Firefox 71.0,,,2019-12-27 16:16:29,2019-12-27 16:16:30,"0,822s",PASSED
"click(findTestObject(""Object Repository/2.Planes de Accion/Generales/1.Index/1.Gestion del Plan/14.Seguimiento Accion/a_s2""))",Firefox 71.0,,,2019-12-27 16:16:30,2019-12-27 16:17:12,"42,555s",FAILED
