Suite/Test/Step Name,Browser,Description,Tag,Start time,End time,Duration,Status
Configuracion General 1,Firefox 65.0,,,2019-06-27 11:30:12,2019-06-27 11:35:23,"5m - 11,135s",INCOMPLETE
,,,,,,,
Test Cases/1.Indicadores/Test Case General de Configuracion,Firefox 65.0,,,2019-06-27 11:30:12,2019-06-27 11:35:23,"5m - 10,812s",FAILED
"callTestCase(findTestCase(""1.Indicadores/Daruma/Acceso al modulo""), [:])",Firefox 65.0,,,2019-06-27 11:30:13,2019-06-27 11:35:23,"5m - 10,134s",FAILED
