Suite/Test/Step Name;Browser;Description;Tag;Start time;End time;Duration;Status
Configuracion General 2;Firefox 65.0;;;27/06/2019 16:31;27/06/2019 16:36;5m - 18,622s;INCOMPLETE
;;;;;;;
Test Cases/1.Indicadores/Configuracion/1.Test General de Configuracion Tipo;Firefox 65.0;;;27/06/2019 16:31;27/06/2019 16:32;1m - 5,262s;PASSED
"callTestCase(findTestCase(""1.Indicadores/Daruma/Acceso al modulo""), [:])";Firefox 65.0;;;27/06/2019 16:31;27/06/2019 16:31;25,942s;PASSED
"click(findTestObject(""1.Indicadores/Configuracion/1.Tipos/1.Alto/0.Ver/1.a_Configuration""))";Firefox 65.0;;;27/06/2019 16:31;27/06/2019 16:31;5,052s;PASSED
"click(findTestObject(""1.Indicadores/Configuracion/1.Tipos/1.Alto/0.Ver/2.a_Types""))";Firefox 65.0;;;27/06/2019 16:31;27/06/2019 16:31;0,299s;PASSED
"click(findTestObject(""1.Indicadores/Configuracion/1.Tipos/1.Alto/1.Crear/1.btn_Create""))";Firefox 65.0;;;27/06/2019 16:31;27/06/2019 16:31;1,807s;PASSED
"setText(findTestObject(""1.Indicadores/Configuracion/1.Tipos/1.Alto/1.Crear/2.input_typename""), ""Katalon"")";Firefox 65.0;;;27/06/2019 16:31;27/06/2019 16:31;2,101s;PASSED
"click(findTestObject(""1.Indicadores/Configuracion/1.Tipos/1.Alto/1.Crear/3.inputCheck_selectAll""))";Firefox 65.0;;;27/06/2019 16:31;27/06/2019 16:31;0,487s;PASSED
"click(findTestObject(""1.Indicadores/Configuracion/1.Tipos/1.Alto/1.Crear/3.inputCheck_selectAll""))";Firefox 65.0;;;27/06/2019 16:31;27/06/2019 16:31;0,258s;PASSED
"click(findTestObject(""1.Indicadores/Configuracion/1.Tipos/1.Alto/1.Crear/4.inputCheck_notes_required""))";Firefox 65.0;;;27/06/2019 16:31;27/06/2019 16:31;0,289s;PASSED
"setText(findTestObject(""1.Indicadores/Configuracion/1.Tipos/1.Alto/1.Crear/5.textarea_Description""), ""Esto es una prueba par Katalon."")";Firefox 65.0;;;27/06/2019 16:31;27/06/2019 16:31;0,125s;PASSED
"click(findTestObject(""1.Indicadores/Configuracion/1.Tipos/1.Alto/1.Crear/6.btn_Save""))";Firefox 65.0;;;27/06/2019 16:31;27/06/2019 16:31;0,291s;PASSED
"click(findTestObject(""Object Repository/1.Indicadores/TestCase General/Volver_Tipo""))";Firefox 65.0;;;27/06/2019 16:31;27/06/2019 16:31;0,257s;PASSED
delay(5);Firefox 65.0;;;27/06/2019 16:31;27/06/2019 16:32;5,010s;PASSED
"click(findTestObject(""1.Indicadores/Configuracion/1.Tipos/1.Alto/2.Editar/1.inputCheck_items""))";Firefox 65.0;;;27/06/2019 16:32;27/06/2019 16:32;0,262s;PASSED
"click(findTestObject(""1.Indicadores/Configuracion/1.Tipos/1.Alto/2.Editar/2.btn_Edit""))";Firefox 65.0;;;27/06/2019 16:32;27/06/2019 16:32;0,385s;PASSED
"setText(findTestObject(""1.Indicadores/Configuracion/1.Tipos/1.Alto/2.Editar/3.input_typename""), ""Edicion"")";Firefox 65.0;;;27/06/2019 16:32;27/06/2019 16:32;1,642s;PASSED
"click(findTestObject(""1.Indicadores/Configuracion/1.Tipos/1.Alto/2.Editar/4.inputCheck_DeselectAll""))";Firefox 65.0;;;27/06/2019 16:32;27/06/2019 16:32;0,252s;PASSED
"click(findTestObject(""1.Indicadores/Configuracion/1.Tipos/1.Alto/2.Editar/5.inputCheck_DeselectAll""))";Firefox 65.0;;;27/06/2019 16:32;27/06/2019 16:32;0,240s;PASSED
"click(findTestObject(""1.Indicadores/Configuracion/1.Tipos/1.Alto/2.Editar/6.inputCheck_notes_required""))";Firefox 65.0;;;27/06/2019 16:32;27/06/2019 16:32;0,240s;PASSED
"setText(findTestObject(""1.Indicadores/Configuracion/1.Tipos/1.Alto/2.Editar/7.textarea_Description""), ""Estoy editando un registro"")";Firefox 65.0;;;27/06/2019 16:32;27/06/2019 16:32;0,095s;PASSED
"click(findTestObject(""1.Indicadores/Configuracion/1.Tipos/1.Alto/2.Editar/8.btn_Save""))";Firefox 65.0;;;27/06/2019 16:32;27/06/2019 16:32;0,259s;PASSED
"click(findTestObject(""Object Repository/1.Indicadores/TestCase General/Volver_Tipo""))";Firefox 65.0;;;27/06/2019 16:32;27/06/2019 16:32;0,276s;PASSED
delay(5);Firefox 65.0;;;27/06/2019 16:32;27/06/2019 16:32;5,004s;PASSED
"click(findTestObject(""1.Indicadores/Configuracion/1.Tipos/1.Alto/3.Eliminar/1.inputCheck_Items""))";Firefox 65.0;;;27/06/2019 16:32;27/06/2019 16:32;8,405s;PASSED
"click(findTestObject(""1.Indicadores/Configuracion/1.Tipos/1.Alto/3.Eliminar/2.btn_Delete""))";Firefox 65.0;;;27/06/2019 16:32;27/06/2019 16:32;0,117s;PASSED
acceptAlert();Firefox 65.0;;;27/06/2019 16:32;27/06/2019 16:32;0,080s;PASSED
delay(5);Firefox 65.0;;;27/06/2019 16:32;27/06/2019 16:32;5,005s;PASSED
"click(findTestObject(""1.Indicadores/Configuracion/1.Tipos/1.Alto/4.Inhabilitar/1.inputCheck_Items""))";Firefox 65.0;;;27/06/2019 16:32;27/06/2019 16:32;0,275s;PASSED
"click(findTestObject(""1.Indicadores/Configuracion/1.Tipos/1.Alto/4.Inhabilitar/2.btn_Disable_1""))";Firefox 65.0;;;27/06/2019 16:32;27/06/2019 16:32;0,256s;PASSED
"click(findTestObject(""1.Indicadores/Configuracion/1.Tipos/1.Alto/4.Inhabilitar/3.btn_Disable_2""))";Firefox 65.0;;;27/06/2019 16:32;27/06/2019 16:32;0,086s;PASSED
acceptAlert();Firefox 65.0;;;27/06/2019 16:32;27/06/2019 16:32;0,059s;PASSED
;;;;;;;
Test Cases/1.Indicadores/Configuracion/2.Test Cases de Configuracion Clases;Firefox 65.0;;;27/06/2019 16:32;27/06/2019 16:33;1m - 16,092s;FAILED
"callTestCase(findTestCase(""1.Indicadores/Daruma/Acceso al modulo""), [:])";Firefox 65.0;;;27/06/2019 16:32;27/06/2019 16:32;26,018s;PASSED
delay(5);Firefox 65.0;;;27/06/2019 16:32;27/06/2019 16:32;5,002s;PASSED
"click(findTestObject(""1.Indicadores/Configuracion/2.Clases/1.Alto/0.Ver/1.a_Configuration""))";Firefox 65.0;;;27/06/2019 16:32;27/06/2019 16:32;0,296s;PASSED
delay(5);Firefox 65.0;;;27/06/2019 16:32;27/06/2019 16:33;5,003s;PASSED
"click(findTestObject(""1.Indicadores/Configuracion/2.Clases/1.Alto/0.Ver/2.a_Class""))";Firefox 65.0;;;27/06/2019 16:33;27/06/2019 16:33;0,318s;PASSED
delay(3);Firefox 65.0;;;27/06/2019 16:33;27/06/2019 16:33;3,006s;PASSED
"click(findTestObject(""1.Indicadores/Configuracion/2.Clases/1.Alto/1.Crear/1.btn_Create""))";Firefox 65.0;;;27/06/2019 16:33;27/06/2019 16:33;0,324s;PASSED
palabra = test.Metodos.randomString();Firefox 65.0;;;27/06/2019 16:33;27/06/2019 16:33;0,027s;PASSED
"setText(findTestObject(""1.Indicadores/Configuracion/2.Clases/1.Alto/1.Crear/2.input_Classname""), palabra)";Firefox 65.0;;;27/06/2019 16:33;27/06/2019 16:33;1,640s;PASSED
"setText(findTestObject(""1.Indicadores/Configuracion/2.Clases/1.Alto/1.Crear/3.textarea_Description""), ""Estamos Creando un registro."")";Firefox 65.0;;;27/06/2019 16:33;27/06/2019 16:33;0,113s;PASSED
"click(findTestObject(""1.Indicadores/Configuracion/2.Clases/1.Alto/1.Crear/4.btn_Save""))";Firefox 65.0;;;27/06/2019 16:33;27/06/2019 16:33;0,264s;PASSED
"click(findTestObject(""Object Repository/1.Indicadores/TestCase General/Volver_Clases""))";Firefox 65.0;;;27/06/2019 16:33;27/06/2019 16:33;0,252s;PASSED
delay(3);Firefox 65.0;;;27/06/2019 16:33;27/06/2019 16:33;3,002s;PASSED
"click(findTestObject(""1.Indicadores/Configuracion/2.Clases/1.Alto/2.Editar/1.inputCheck_Items""))";Firefox 65.0;;;27/06/2019 16:33;27/06/2019 16:33;30,578s;FAILED
;;;;;;;
Test Cases/1.Indicadores/Configuracion/3.Test Cases de Configuracion Fallas;Firefox 65.0;;;27/06/2019 16:33;27/06/2019 16:34;46,498s;PASSED
"callTestCase(findTestCase(""1.Indicadores/Daruma/Acceso al modulo""), [:])";Firefox 65.0;;;27/06/2019 16:33;27/06/2019 16:34;27,599s;PASSED
"click(findTestObject(""1.Indicadores/Configuracion/3.Fallas/1.Alto/0.Ver/1.a_Configuration""))";Firefox 65.0;;;27/06/2019 16:34;27/06/2019 16:34;4,892s;PASSED
"click(findTestObject(""1.Indicadores/Configuracion/3.Fallas/1.Alto/0.Ver/2.a_Fail""))";Firefox 65.0;;;27/06/2019 16:34;27/06/2019 16:34;0,321s;PASSED
delay(3);Firefox 65.0;;;27/06/2019 16:34;27/06/2019 16:34;3,004s;PASSED
"click(findTestObject(""1.Indicadores/Configuracion/3.Fallas/1.Alto/1.Crear/1.btn_Create""))";Firefox 65.0;;;27/06/2019 16:34;27/06/2019 16:34;0,292s;PASSED
"setText(findTestObject(""1.Indicadores/Configuracion/3.Fallas/1.Alto/1.Crear/2.input_failname""), ""PRUEBA"")";Firefox 65.0;;;27/06/2019 16:34;27/06/2019 16:34;1,592s;PASSED
"setText(findTestObject(""1.Indicadores/Configuracion/3.Fallas/1.Alto/1.Crear/3.textarea_Description""), ""Estamos creando un registro"")";Firefox 65.0;;;27/06/2019 16:34;27/06/2019 16:34;0,156s;PASSED
"click(findTestObject(""1.Indicadores/Configuracion/3.Fallas/1.Alto/1.Crear/4.inputCheck_List""))";Firefox 65.0;;;27/06/2019 16:34;27/06/2019 16:34;0,283s;PASSED
"click(findTestObject(""1.Indicadores/Configuracion/3.Fallas/1.Alto/1.Crear/5.inputCheck_List""))";Firefox 65.0;;;27/06/2019 16:34;27/06/2019 16:34;0,272s;PASSED
"click(findTestObject(""1.Indicadores/Configuracion/3.Fallas/1.Alto/1.Crear/6.btn_Save""))";Firefox 65.0;;;27/06/2019 16:34;27/06/2019 16:34;0,272s;PASSED
"click(findTestObject(""Object Repository/1.Indicadores/TestCase General/Volver_Fallas""))";Firefox 65.0;;;27/06/2019 16:34;27/06/2019 16:34;0,258s;PASSED
"click(findTestObject(""1.Indicadores/Configuracion/3.Fallas/1.Alto/2.Editar/1.inputCheck_Items""))";Firefox 65.0;;;27/06/2019 16:34;27/06/2019 16:34;1,794s;PASSED
"click(findTestObject(""1.Indicadores/Configuracion/3.Fallas/1.Alto/2.Editar/2.btn_Edit""))";Firefox 65.0;;;27/06/2019 16:34;27/06/2019 16:34;0,316s;PASSED
"setText(findTestObject(""1.Indicadores/Configuracion/3.Fallas/1.Alto/2.Editar/3.input_failname""), ""Edicion de la Prueba"")";Firefox 65.0;;;27/06/2019 16:34;27/06/2019 16:34;0,663s;PASSED
"setText(findTestObject(""1.Indicadores/Configuracion/3.Fallas/1.Alto/2.Editar/4.textarea_Description""), ""Estamos Editando un registro"")";Firefox 65.0;;;27/06/2019 16:34;27/06/2019 16:34;0,095s;PASSED
"click(findTestObject(""1.Indicadores/Configuracion/3.Fallas/1.Alto/2.Editar/5.inputCheck_List""))";Firefox 65.0;;;27/06/2019 16:34;27/06/2019 16:34;0,269s;PASSED
"click(findTestObject(""1.Indicadores/Configuracion/3.Fallas/1.Alto/2.Editar/6.btn_Save""))";Firefox 65.0;;;27/06/2019 16:34;27/06/2019 16:34;0,257s;PASSED
"click(findTestObject(""Object Repository/1.Indicadores/TestCase General/Volver_Fallas""))";Firefox 65.0;;;27/06/2019 16:34;27/06/2019 16:34;0,247s;PASSED
"click(findTestObject(""1.Indicadores/Configuracion/3.Fallas/1.Alto/3.Eliminar/1.inputCheck_Items""))";Firefox 65.0;;;27/06/2019 16:34;27/06/2019 16:34;2,893s;PASSED
"click(findTestObject(""1.Indicadores/Configuracion/3.Fallas/1.Alto/3.Eliminar/2.btn_Delete""))";Firefox 65.0;;;27/06/2019 16:34;27/06/2019 16:34;0,074s;PASSED
acceptAlert();Firefox 65.0;;;27/06/2019 16:34;27/06/2019 16:34;0,047s;PASSED
"click(findTestObject(""1.Indicadores/Configuracion/3.Fallas/1.Alto/4.Inhabilitar/1.inputCheck_Items""))";Firefox 65.0;;;27/06/2019 16:34;27/06/2019 16:34;0,283s;PASSED
"click(findTestObject(""1.Indicadores/Configuracion/3.Fallas/1.Alto/4.Inhabilitar/2.btn_Disable_1""))";Firefox 65.0;;;27/06/2019 16:34;27/06/2019 16:34;0,266s;PASSED
"click(findTestObject(""1.Indicadores/Configuracion/3.Fallas/1.Alto/4.Inhabilitar/3.btn_Disable_2""))";Firefox 65.0;;;27/06/2019 16:34;27/06/2019 16:34;0,087s;PASSED
acceptAlert();Firefox 65.0;;;27/06/2019 16:34;27/06/2019 16:34;0,049s;PASSED
;;;;;;;
Test Cases/1.Indicadores/Configuracion/4.Test Cases de Configuracion Grupos;Firefox 65.0;;;27/06/2019 16:34;27/06/2019 16:35;41,472s;FAILED
"callTestCase(findTestCase(""1.Indicadores/Daruma/Acceso al modulo""), [:])";Firefox 65.0;;;27/06/2019 16:34;27/06/2019 16:34;25,332s;PASSED
"click(findTestObject(""1.Indicadores/Configuracion/4.Grupos/1.Alto/0.Ver/1.a_Configuration""))";Firefox 65.0;;;27/06/2019 16:34;27/06/2019 16:34;4,937s;PASSED
"click(findTestObject(""1.Indicadores/Configuracion/4.Grupos/1.Alto/0.Ver/2.a_Group""))";Firefox 65.0;;;27/06/2019 16:34;27/06/2019 16:34;0,318s;PASSED
delay(3);Firefox 65.0;;;27/06/2019 16:34;27/06/2019 16:35;3,003s;PASSED
"click(findTestObject(""1.Indicadores/Configuracion/4.Grupos/1.Alto/1.Crear/1.btn_Create""))";Firefox 65.0;;;27/06/2019 16:35;27/06/2019 16:35;0,312s;PASSED
"setText(findTestObject(""1.Indicadores/Configuracion/4.Grupos/1.Alto/1.Crear/2.input_groupname""), ""Prueba Katalon"")";Firefox 65.0;;;27/06/2019 16:35;27/06/2019 16:35;1,643s;PASSED
"setText(findTestObject(""1.Indicadores/Configuracion/4.Grupos/1.Alto/1.Crear/3.textarea_Description""), ""Estamos creando un registro real..."")";Firefox 65.0;;;27/06/2019 16:35;27/06/2019 16:35;0,120s;PASSED
"selectOptionByValue(findTestObject(""1.Indicadores/Configuracion/4.Grupos/1.Alto/1.Crear/4.select_Weighing""), ""5"", true)";Firefox 65.0;;;27/06/2019 16:35;27/06/2019 16:35;1,138s;PASSED
"click(findTestObject(""1.Indicadores/Configuracion/4.Grupos/1.Alto/1.Crear/5.btn_Save""))";Firefox 65.0;;;27/06/2019 16:35;27/06/2019 16:35;0,256s;PASSED
"click(findTestObject(""Object Repository/1.Indicadores/TestCase General/Volver_Grupos""))";Firefox 65.0;;;27/06/2019 16:35;27/06/2019 16:35;0,286s;PASSED
"click(findTestObject(""1.Indicadores/Configuracion/4.Grupos/1.Alto/2.Editar/1.inputCheck_Items""))";Firefox 65.0;;;27/06/2019 16:35;27/06/2019 16:35;1,794s;PASSED
"click(findTestObject(""1.Indicadores/Configuracion/4.Grupos/1.Alto/2.Editar/2.btn_Edit""))";Firefox 65.0;;;27/06/2019 16:35;27/06/2019 16:35;0,293s;PASSED
"setText(findTestObject(""1.Indicadores/Configuracion/4.Grupos/1.Alto/2.Editar/3.input_groupname""), ""Editando un registro"")";Firefox 65.0;;;27/06/2019 16:35;27/06/2019 16:35;0,616s;PASSED
"setText(findTestObject(""1.Indicadores/Configuracion/4.Grupos/1.Alto/2.Editar/4.textarea_Description""), ""Estamos Editando un registro"")";Firefox 65.0;;;27/06/2019 16:35;27/06/2019 16:35;0,096s;PASSED
"selectOptionByValue(findTestObject(""1.Indicadores/Configuracion/4.Grupos/1.Alto/2.Editar/5.select_Weighing""), ""10"", true)";Firefox 65.0;;;27/06/2019 16:35;27/06/2019 16:35;1,074s;FAILED
;;;;;;;
Test Cases/1.Indicadores/Configuracion/5.Test Cases de Configuracion Categoria;Firefox 65.0;;;27/06/2019 16:35;27/06/2019 16:35;45,309s;PASSED
"callTestCase(findTestCase(""1.Indicadores/Daruma/Acceso al modulo""), [:])";Firefox 65.0;;;27/06/2019 16:35;27/06/2019 16:35;24,529s;PASSED
"click(findTestObject(""1.Indicadores/Configuracion/5.Categoria/1.Alto/0.Ver/1.a_Configurations""))";Firefox 65.0;;;27/06/2019 16:35;27/06/2019 16:35;4,906s;PASSED
"click(findTestObject(""1.Indicadores/Configuracion/5.Categoria/1.Alto/0.Ver/2.a_Category""))";Firefox 65.0;;;27/06/2019 16:35;27/06/2019 16:35;0,299s;PASSED
delay(3);Firefox 65.0;;;27/06/2019 16:35;27/06/2019 16:35;3,003s;PASSED
"click(findTestObject(""1.Indicadores/Configuracion/5.Categoria/1.Alto/1.Crear/1.btn_Create""))";Firefox 65.0;;;27/06/2019 16:35;27/06/2019 16:35;0,296s;PASSED
"setText(findTestObject(""1.Indicadores/Configuracion/5.Categoria/1.Alto/1.Crear/2.input_categoryname""), ""Prueba Katalon"")";Firefox 65.0;;;27/06/2019 16:35;27/06/2019 16:35;1,626s;PASSED
"selectOptionByValue(findTestObject(""1.Indicadores/Configuracion/5.Categoria/1.Alto/1.Crear/3.select_Group""), ""1"", true)";Firefox 65.0;;;27/06/2019 16:35;27/06/2019 16:35;0,428s;PASSED
"setText(findTestObject(""1.Indicadores/Configuracion/5.Categoria/1.Alto/1.Crear/4.textarea_Description""), ""Estamos creando un registro..."")";Firefox 65.0;;;27/06/2019 16:35;27/06/2019 16:35;0,111s;PASSED
"selectOptionByValue(findTestObject(""1.Indicadores/Configuracion/5.Categoria/1.Alto/1.Crear/5.select_Weight""), ""5"", true)";Firefox 65.0;;;27/06/2019 16:35;27/06/2019 16:35;1,282s;PASSED
"click(findTestObject(""1.Indicadores/Configuracion/5.Categoria/1.Alto/1.Crear/6.btn_Save""))";Firefox 65.0;;;27/06/2019 16:35;27/06/2019 16:35;0,261s;PASSED
"click(findTestObject(""Object Repository/1.Indicadores/TestCase General/Volver_Categoria""))";Firefox 65.0;;;27/06/2019 16:35;27/06/2019 16:35;0,258s;PASSED
"click(findTestObject(""1.Indicadores/Configuracion/5.Categoria/1.Alto/2.Editar/1.inputCheck_Items""))";Firefox 65.0;;;27/06/2019 16:35;27/06/2019 16:35;1,759s;PASSED
"click(findTestObject(""1.Indicadores/Configuracion/5.Categoria/1.Alto/2.Editar/2.btn_Edit""))";Firefox 65.0;;;27/06/2019 16:35;27/06/2019 16:35;0,275s;PASSED
"setText(findTestObject(""1.Indicadores/Configuracion/5.Categoria/1.Alto/2.Editar/3.input_categoryname""), ""Editando un registro"")";Firefox 65.0;;;27/06/2019 16:35;27/06/2019 16:35;1,138s;PASSED
"selectOptionByValue(findTestObject(""1.Indicadores/Configuracion/5.Categoria/1.Alto/2.Editar/4.select_Group""), ""2"", true)";Firefox 65.0;;;27/06/2019 16:35;27/06/2019 16:35;0,386s;PASSED
"setText(findTestObject(""1.Indicadores/Configuracion/5.Categoria/1.Alto/2.Editar/5.textarea_Description""), ""Estamos Ediatndo un registro..."")";Firefox 65.0;;;27/06/2019 16:35;27/06/2019 16:35;0,175s;PASSED
"selectOptionByValue(findTestObject(""1.Indicadores/Configuracion/5.Categoria/1.Alto/2.Editar/6.select_weight""), ""10"", true)";Firefox 65.0;;;27/06/2019 16:35;27/06/2019 16:35;1,240s;PASSED
"click(findTestObject(""1.Indicadores/Configuracion/5.Categoria/1.Alto/2.Editar/7.btn_Save""))";Firefox 65.0;;;27/06/2019 16:35;27/06/2019 16:35;0,275s;PASSED
"click(findTestObject(""Object Repository/1.Indicadores/TestCase General/Volver_Categoria""))";Firefox 65.0;;;27/06/2019 16:35;27/06/2019 16:35;0,252s;PASSED
"click(findTestObject(""1.Indicadores/Configuracion/5.Categoria/1.Alto/3.Eliminar/1.inputCheck_Items""))";Firefox 65.0;;;27/06/2019 16:35;27/06/2019 16:35;1,782s;PASSED
"click(findTestObject(""1.Indicadores/Configuracion/5.Categoria/1.Alto/3.Eliminar/2.btn_Delete""))";Firefox 65.0;;;27/06/2019 16:35;27/06/2019 16:35;0,083s;PASSED
acceptAlert();Firefox 65.0;;;27/06/2019 16:35;27/06/2019 16:35;0,055s;PASSED
"click(findTestObject(""1.Indicadores/Configuracion/5.Categoria/1.Alto/4.Inhabilitar/1.inputCheck_Items""))";Firefox 65.0;;;27/06/2019 16:35;27/06/2019 16:35;0,277s;PASSED
"click(findTestObject(""1.Indicadores/Configuracion/5.Categoria/1.Alto/4.Inhabilitar/2.btn_Disable_1""))";Firefox 65.0;;;27/06/2019 16:35;27/06/2019 16:35;0,243s;PASSED
"click(findTestObject(""1.Indicadores/Configuracion/5.Categoria/1.Alto/4.Inhabilitar/3.btn_Disable_2""))";Firefox 65.0;;;27/06/2019 16:35;27/06/2019 16:35;0,072s;PASSED
acceptAlert();Firefox 65.0;;;27/06/2019 16:35;27/06/2019 16:35;0,046s;PASSED
;;;;;;;
Test Cases/1.Indicadores/Configuracion/6.Test Cases de Configuracion Roles;Firefox 65.0;;;27/06/2019 16:35;27/06/2019 16:36;43,640s;PASSED
"callTestCase(findTestCase(""1.Indicadores/Daruma/Acceso al modulo""), [:])";Firefox 65.0;;;27/06/2019 16:35;27/06/2019 16:36;26,325s;PASSED
"click(findTestObject(""1.Indicadores/Configuracion/6.Roles/1.Alto/0.Ver/1.a_Configuration""))";Firefox 65.0;;;27/06/2019 16:36;27/06/2019 16:36;4,870s;PASSED
"click(findTestObject(""1.Indicadores/Configuracion/6.Roles/1.Alto/0.Ver/2.a_Roles""))";Firefox 65.0;;;27/06/2019 16:36;27/06/2019 16:36;0,317s;PASSED
"click(findTestObject(""1.Indicadores/Configuracion/6.Roles/1.Alto/1.Crear/1.btn_Create""))";Firefox 65.0;;;27/06/2019 16:36;27/06/2019 16:36;1,855s;PASSED
"setText(findTestObject(""1.Indicadores/Configuracion/6.Roles/1.Alto/1.Crear/2.input_rolename""), ""Prueba Calidad"")";Firefox 65.0;;;27/06/2019 16:36;27/06/2019 16:36;1,609s;PASSED
"selectOptionByValue(findTestObject(""1.Indicadores/Configuracion/6.Roles/1.Alto/1.Crear/3.select_role_type""), ""3"", true)";Firefox 65.0;;;27/06/2019 16:36;27/06/2019 16:36;0,388s;PASSED
"setText(findTestObject(""1.Indicadores/Configuracion/6.Roles/1.Alto/1.Crear/4.textarea_Description""), ""Esto es una prueba de Katalon"")";Firefox 65.0;;;27/06/2019 16:36;27/06/2019 16:36;0,105s;PASSED
"click(findTestObject(""1.Indicadores/Configuracion/6.Roles/1.Alto/1.Crear/5.btn_Save""))";Firefox 65.0;;;27/06/2019 16:36;27/06/2019 16:36;0,280s;PASSED
"click(findTestObject(""Object Repository/1.Indicadores/TestCase General/Volver_Roles""))";Firefox 65.0;;;27/06/2019 16:36;27/06/2019 16:36;0,260s;PASSED
"click(findTestObject(""1.Indicadores/Configuracion/6.Roles/1.Alto/2.Editar/1.inputCheck_Items""))";Firefox 65.0;;;27/06/2019 16:36;27/06/2019 16:36;2,268s;PASSED
"click(findTestObject(""1.Indicadores/Configuracion/6.Roles/1.Alto/2.Editar/2.btn_Edit""))";Firefox 65.0;;;27/06/2019 16:36;27/06/2019 16:36;0,304s;PASSED
"setText(findTestObject(""1.Indicadores/Configuracion/6.Roles/1.Alto/2.Editar/3.input_rolename""), ""Edicion prueba..."")";Firefox 65.0;;;27/06/2019 16:36;27/06/2019 16:36;0,674s;PASSED
"selectOptionByValue(findTestObject(""1.Indicadores/Configuracion/6.Roles/1.Alto/2.Editar/4.select_role_type""), ""4"", true)";Firefox 65.0;;;27/06/2019 16:36;27/06/2019 16:36;0,350s;PASSED
"setText(findTestObject(""1.Indicadores/Configuracion/6.Roles/1.Alto/2.Editar/5.textarea_Description""), ""Esto es una edicion de Katalon"")";Firefox 65.0;;;27/06/2019 16:36;27/06/2019 16:36;0,101s;PASSED
"click(findTestObject(""1.Indicadores/Configuracion/6.Roles/1.Alto/2.Editar/6.btn_Save""))";Firefox 65.0;;;27/06/2019 16:36;27/06/2019 16:36;0,271s;PASSED
"click(findTestObject(""Object Repository/1.Indicadores/TestCase General/Volver_Roles""))";Firefox 65.0;;;27/06/2019 16:36;27/06/2019 16:36;0,253s;PASSED
"click(findTestObject(""1.Indicadores/Configuracion/6.Roles/1.Alto/3.Eliminar/1.inputCheck_Items""))";Firefox 65.0;;;27/06/2019 16:36;27/06/2019 16:36;2,290s;PASSED
"click(findTestObject(""1.Indicadores/Configuracion/6.Roles/1.Alto/3.Eliminar/2.btn_Delete""))";Firefox 65.0;;;27/06/2019 16:36;27/06/2019 16:36;0,096s;PASSED
acceptAlert();Firefox 65.0;;;27/06/2019 16:36;27/06/2019 16:36;0,027s;PASSED
"click(findTestObject(""1.Indicadores/Configuracion/6.Roles/1.Alto/4.Inhabilitar/1.inputCheck_Items""))";Firefox 65.0;;;27/06/2019 16:36;27/06/2019 16:36;0,336s;PASSED
"click(findTestObject(""1.Indicadores/Configuracion/6.Roles/1.Alto/4.Inhabilitar/2.btn_Disable_1""))";Firefox 65.0;;;27/06/2019 16:36;27/06/2019 16:36;0,278s;PASSED
"click(findTestObject(""1.Indicadores/Configuracion/6.Roles/1.Alto/4.Inhabilitar/3.btn_Disable_2""))";Firefox 65.0;;;27/06/2019 16:36;27/06/2019 16:36;0,065s;PASSED
acceptAlert();Firefox 65.0;;;27/06/2019 16:36;27/06/2019 16:36;0,053s;PASSED
