Suite/Test/Step Name,Browser,Description,Tag,Start time,End time,Duration,Status
1.Filtro_Eejcucion,Firefox 72.0,,,2020-01-21 11:23:25,2020-01-21 11:24:22,"57,222s",FAILED
,,,,,,,
Test Cases/2.Planes de Accion/Generales/4.Ejecucion/1.Filtro_Ejecucion,Firefox 72.0,,,2020-01-21 11:23:26,2020-01-21 11:24:22,"56,687s",FAILED
"callTestCase(findTestCase(""2.Planes de Accion/Daruma/Acceso al modulo""), [:])",Firefox 72.0,,,2020-01-21 11:23:26,2020-01-21 11:24:07,"40,927s",PASSED
delay(6),Firefox 72.0,,,2020-01-21 11:24:07,2020-01-21 11:24:13,"6,012s",PASSED
"click(findTestObject(""2.Planes de Accion/Daruma/Acceso al modulo/4.Open_Ejecution""))",Firefox 72.0,,,2020-01-21 11:24:13,2020-01-21 11:24:14,"0,685s",PASSED
"click(findTestObject(""2.Planes de Accion/Generales/3.Ejecucion/1filter""))",Firefox 72.0,,,2020-01-21 11:24:14,2020-01-21 11:24:15,"1,366s",PASSED
"elementSelect1 = test.Metodos.select2_config(findTestObject(""2.Planes de Accion/Generales/3.Ejecucion/2select_type_plan""))",Firefox 72.0,,,2020-01-21 11:24:15,2020-01-21 11:24:16,"0,907s",PASSED
"selectOptionByValue(findTestObject(""2.Planes de Accion/Generales/3.Ejecucion/2select_type_plan""), elementSelect1.toString(), true)",Firefox 72.0,,,2020-01-21 11:24:16,2020-01-21 11:24:17,"1,264s",PASSED
"elementSelect = test.Metodos.select2_config(findTestObject(""2.Planes de Accion/Generales/3.Ejecucion/3Select_Origin""))",Firefox 72.0,,,2020-01-21 11:24:17,2020-01-21 11:24:19,"1,135s",PASSED
"selectOptionByValue(findTestObject(""2.Planes de Accion/Generales/3.Ejecucion/3Select_Origin""), elementSelect.toString(), true)",Firefox 72.0,,,2020-01-21 11:24:19,2020-01-21 11:24:20,"1,368s",PASSED
"setText(findTestObject(""2.Planes de Accion/Generales/3.Ejecucion/4input_Lider""), ""fredy sandoval"")",Firefox 72.0,,,2020-01-21 11:24:20,2020-01-21 11:24:20,"0,380s",PASSED
"setText(findTestObject(""2.Planes de Accion/Generales/3.Ejecucion/5input_responsible""), ""fredy sandoval"")",Firefox 72.0,,,2020-01-21 11:24:20,2020-01-21 11:24:21,"0,375s",PASSED
"setText(findTestObject(""2.Planes de Accion/Generales/3.Ejecucion/6input_filtername""), ""prueba"")",Firefox 72.0,,,2020-01-21 11:24:21,2020-01-21 11:24:21,"0,396s",PASSED
"setText(findTestObject(""2.Planes de Accion/Generales/3.Ejecucion/7input_filternotes""), ""prueba"")",Firefox 72.0,,,2020-01-21 11:24:21,2020-01-21 11:24:21,"0,439s",PASSED
"selectOptionByValue(findTestObject(""2.Planes de Accion/Generales/3.Ejecucion/8select_financiacion""), ""11"", true)",Firefox 72.0,,,2020-01-21 11:24:21,2020-01-21 11:24:22,"0,825s",FAILED
