Suite/Test/Step Name,Browser,Description,Tag,Start time,End time,Duration,Status
8.Informes-Reporte_Estad\u00EDsticas por planes_Imprimir,Firefox 71.0,,,2020-01-02 17:24:13,2020-01-02 17:25:31,"1m - 18,333s",PASSED
,,,,,,,
Test Cases/2.Planes de Accion/Generales/5.Informes/8.Informes-Reporte_Estad\u00EDsticas por planes_Imprimir,Firefox 71.0,,,2020-01-02 17:24:14,2020-01-02 17:25:31,"1m - 17,831s",PASSED
"callTestCase(findTestCase(""2.Planes de Accion/Daruma/Acceso al modulo""), [:])",Firefox 71.0,,,2020-01-02 17:24:14,2020-01-02 17:25:00,"45,544s",PASSED
delay(6),Firefox 71.0,,,2020-01-02 17:25:00,2020-01-02 17:25:06,"6,023s",PASSED
"click(findTestObject(""2.Planes de Accion/Daruma/Acceso al modulo/5.Open_Reports""))",Firefox 71.0,,,2020-01-02 17:25:06,2020-01-02 17:25:06,"0,628s",PASSED
"click(findTestObject(""2.Planes de Accion/Generales/4.Informes/5.Informes-Reporte_Estadísticas por planes/1.estadisticas por planes""))",Firefox 71.0,,,2020-01-02 17:25:06,2020-01-02 17:25:12,"5,650s",PASSED
"switchToWindowUrl(""http://52.11.126.234/app.php/staff/actionplan/indexReportState"")",Firefox 71.0,,,2020-01-02 17:25:12,2020-01-02 17:25:14,"1,907s",PASSED
delay(6),Firefox 71.0,,,2020-01-02 17:25:14,2020-01-02 17:25:20,"6,005s",PASSED
"click(findTestObject(""2.Planes de Accion/Generales/4.Informes/8.Informes-Reporte_Estadísticas por planes_imprimir/1.Print""))",Firefox 71.0,,,2020-01-02 17:25:20,2020-01-02 17:25:31,"11,473s",PASSED
