Suite/Test/Step Name,Browser,Description,Tag,Start time,End time,Duration,Status
Ejemplo Video,Firefox 65.0,,,2019-06-27 16:40:37,2019-06-27 16:42:50,"2m - 12,747s",INCOMPLETE
,,,,,,,
Test Cases/1.Indicadores/Generales/1.Index/1.Test Cases Alto Nivel/5.Create Action Plan,Firefox 65.0,,,2019-06-27 16:40:38,2019-06-27 16:42:50,"2m - 12,367s",PASSED
"callTestCase(findTestCase(""1.Indicadores/Daruma/Acceso al modulo""), [:])",Firefox 65.0,,,2019-06-27 16:40:39,2019-06-27 16:41:11,"31,666s",PASSED
delay(5),Firefox 65.0,,,2019-06-27 16:41:11,2019-06-27 16:41:16,"5,005s",PASSED
"click(findTestObject(""1.Indicadores/General/1.Index/5.Create Action Plan/1.inputCheck_Item""))",Firefox 65.0,,,2019-06-27 16:41:16,2019-06-27 16:41:16,"0,324s",PASSED
"click(findTestObject(""1.Indicadores/General/1.Index/5.Create Action Plan/2.btn_indicator_options""))",Firefox 65.0,,,2019-06-27 16:41:16,2019-06-27 16:41:17,"0,297s",PASSED
"click(findTestObject(""1.Indicadores/General/1.Index/5.Create Action Plan/3.a_create_action_plan""))",Firefox 65.0,,,2019-06-27 16:41:17,2019-06-27 16:41:17,"0,336s",PASSED
delay(5),Firefox 65.0,,,2019-06-27 16:41:17,2019-06-27 16:41:22,"5,006s",PASSED
"test.Metodos.list_Action(findTestObject(""1.Indicadores/General/1.Index/5.Create Action Plan/16.select_Item_follow_up""), 5)",Firefox 65.0,,,2019-06-27 16:41:22,2019-06-27 16:41:29,"6,572s",PASSED
"test.Metodos.element_selected(findTestObject(""1.Indicadores/General/1.Index/5.Create Action Plan/15.select_Responsible""))",Firefox 65.0,,,2019-06-27 16:41:29,2019-06-27 16:41:35,"6,809s",PASSED
delay(5),Firefox 65.0,,,2019-06-27 16:41:35,2019-06-27 16:41:40,"5,005s",PASSED
"test.Metodos.list_Action(findTestObject(""1.Indicadores/General/1.Index/5.Create Action Plan/16.select_Item_follow_up""), 6)",Firefox 65.0,,,2019-06-27 16:41:40,2019-06-27 16:41:47,"6,357s",PASSED
"test.Metodos.element_selected(findTestObject(""1.Indicadores/General/1.Index/5.Create Action Plan/15.select_Responsible""))",Firefox 65.0,,,2019-06-27 16:41:47,2019-06-27 16:41:54,"6,769s",PASSED
delay(5),Firefox 65.0,,,2019-06-27 16:41:54,2019-06-27 16:41:59,"5,005s",PASSED
"test.Metodos.list_Action(findTestObject(""1.Indicadores/General/1.Index/5.Create Action Plan/16.select_Item_follow_up""), 7)",Firefox 65.0,,,2019-06-27 16:41:59,2019-06-27 16:42:05,"6,409s",PASSED
"test.Metodos.element_selected(findTestObject(""1.Indicadores/General/1.Index/5.Create Action Plan/15.select_Responsible""))",Firefox 65.0,,,2019-06-27 16:42:05,2019-06-27 16:42:12,"6,779s",PASSED
delay(5),Firefox 65.0,,,2019-06-27 16:42:12,2019-06-27 16:42:17,"5,006s",PASSED
"test.Metodos.list_Action(findTestObject(""1.Indicadores/General/1.Index/5.Create Action Plan/16.select_Item_follow_up""), 8)",Firefox 65.0,,,2019-06-27 16:42:17,2019-06-27 16:42:23,"6,330s",PASSED
"test.Metodos.element_selected(findTestObject(""1.Indicadores/General/1.Index/5.Create Action Plan/15.select_Responsible""))",Firefox 65.0,,,2019-06-27 16:42:23,2019-06-27 16:42:30,"6,754s",PASSED
delay(5),Firefox 65.0,,,2019-06-27 16:42:30,2019-06-27 16:42:35,"5,004s",PASSED
"test.Metodos.list_Action(findTestObject(""1.Indicadores/General/1.Index/5.Create Action Plan/16.select_Item_follow_up""), 9)",Firefox 65.0,,,2019-06-27 16:42:35,2019-06-27 16:42:41,"6,316s",PASSED
"test.Metodos.element_selected(findTestObject(""1.Indicadores/General/1.Index/5.Create Action Plan/15.select_Responsible""))",Firefox 65.0,,,2019-06-27 16:42:41,2019-06-27 16:42:48,"6,760s",PASSED
