Suite/Test/Step Name,Browser,Description,Tag,Start time,End time,Duration,Status
5.Agregar Nota Avance,Firefox 71.0,,,2019-12-27 11:43:44,2019-12-27 11:49:14,"5m - 30,185s",PASSED
,,,,,,,
Test Cases/2.Planes de Accion/Generales/1.Index/1.Crear Plan de Accion,Firefox 71.0,,,2019-12-27 11:43:45,2019-12-27 11:48:15,"4m - 30,266s",PASSED
"callTestCase(findTestCase(""2.Planes de Accion/Daruma/Acceso al modulo""), [:])",Firefox 71.0,,,2019-12-27 11:43:45,2019-12-27 11:44:28,"42,117s",PASSED
"click(findTestObject(""2.Planes de Accion/Generales/1.Index/1.1.Crear/1.btn_Create""))",Firefox 71.0,,,2019-12-27 11:44:28,2019-12-27 11:44:28,"0,637s",PASSED
delay(5),Firefox 71.0,,,2019-12-27 11:44:28,2019-12-27 11:44:33,"5,010s",PASSED
"test.Metodos.display_list_only(findTestObject(""Generales/Select2/1.display_list_only""), 0)",Firefox 71.0,,,2019-12-27 11:44:33,2019-12-27 11:44:46,"12,676s",PASSED
"test.Metodos.element_selected(findTestObject(""Object Repository/Generales/Select2/2.select_option""), 1)",Firefox 71.0,,,2019-12-27 11:44:46,2019-12-27 11:44:53,"7,073s",PASSED
"test.Metodos.display_list_only(findTestObject(""Generales/Select2/1.display_list_only""), 1)",Firefox 71.0,,,2019-12-27 11:44:53,2019-12-27 11:45:04,"11,045s",PASSED
"test.Metodos.element_selected(findTestObject(""Object Repository/Generales/Select2/2.select_option""), 1)",Firefox 71.0,,,2019-12-27 11:45:04,2019-12-27 11:45:11,"7,072s",PASSED
"test.Metodos.display_list_multi(findTestObject(""Object Repository/Generales/Select2/1.1.display_list_multi""), 0)",Firefox 71.0,,,2019-12-27 11:45:11,2019-12-27 11:45:22,"10,632s",PASSED
"test.Metodos.select2(findTestObject(""Object Repository/Generales/Select2/2.select_option""), 0)",Firefox 71.0,,,2019-12-27 11:45:22,2019-12-27 11:45:33,"11,134s",PASSED
"click(findTestObject(""2.Planes de Accion/Generales/1.Index/1.1.Crear/3.Origenes""))",Firefox 71.0,,,2019-12-27 11:45:33,2019-12-27 11:45:34,"0,915s",PASSED
"test.Metodos.display_list_multi(findTestObject(""Object Repository/Generales/Select2/1.1.display_list_multi""), 1)",Firefox 71.0,,,2019-12-27 11:45:34,2019-12-27 11:45:45,"10,916s",PASSED
"test.Metodos.select2(findTestObject(""Object Repository/Generales/Select2/2.1.select_option_multi""), 1)",Firefox 71.0,,,2019-12-27 11:45:45,2019-12-27 11:45:56,"11,100s",PASSED
"elementSelect = test.Metodos.select2_config(findTestObject(""2.Planes de Accion/Generales/1.Index/1.1.Crear/4.Element_select""))",Firefox 71.0,,,2019-12-27 11:45:56,2019-12-27 11:45:57,"1,338s",PASSED
"selectOptionByValue(findTestObject(""2.Planes de Accion/Generales/1.Index/1.1.Crear/5.select_type""), elementSelect.toString(), true)",Firefox 71.0,,,2019-12-27 11:45:57,2019-12-27 11:45:59,"1,491s",PASSED
"getNumberOfTotalOption(findTestObject(""2.Planes de Accion/Generales/1.Index/1.1.Crear/4.Element_select""))",Firefox 71.0,,,2019-12-27 11:45:59,2019-12-27 11:45:59,"0,603s",PASSED
"test.Metodos.tiny1(findTestObject(""2.Planes de Accion/Generales/1.Index/1.1.Crear/6.TinyMCE""), 0)",Firefox 71.0,,,2019-12-27 11:45:59,2019-12-27 11:46:00,"1,040s",PASSED
delay(5),Firefox 71.0,,,2019-12-27 11:46:00,2019-12-27 11:46:05,"5,004s",PASSED
"test.Metodos.tiny1(findTestObject(""2.Planes de Accion/Generales/1.Index/1.1.Crear/6.TinyMCE""), 1)",Firefox 71.0,,,2019-12-27 11:46:05,2019-12-27 11:46:06,"0,933s",PASSED
delay(5),Firefox 71.0,,,2019-12-27 11:46:06,2019-12-27 11:46:11,"5,004s",PASSED
"selectOptionByValue(findTestObject(""2.Planes de Accion/Generales/1.Index/1.1.Crear/7.select_track_freq""), ""4"", true)",Firefox 71.0,,,2019-12-27 11:46:11,2019-12-27 11:46:12,"1,068s",PASSED
"setText(findTestObject(""2.Planes de Accion/Generales/1.Index/1.1.Crear/8.input_num_periods""), ""1"")",Firefox 71.0,,,2019-12-27 11:46:12,2019-12-27 11:46:13,"0,443s",PASSED
"selectOptionByValue(findTestObject(""2.Planes de Accion/Generales/1.Index/1.1.Crear/9.select_criticality_id""), ""21"", true)",Firefox 71.0,,,2019-12-27 11:46:13,2019-12-27 11:46:15,"2,585s",PASSED
"test.Metodos.display_list_multi(findTestObject(""Object Repository/Generales/Select2/1.1.display_list_multi""), 2)",Firefox 71.0,,,2019-12-27 11:46:15,2019-12-27 11:46:26,"10,628s",PASSED
"test.Metodos.select2(findTestObject(""Object Repository/Generales/Select2/2.select_option""), 0)",Firefox 71.0,,,2019-12-27 11:46:26,2019-12-27 11:46:37,"11,071s",PASSED
"test.Metodos.display_list_multi(findTestObject(""Object Repository/Generales/Select2/1.1.display_list_multi""), 5)",Firefox 71.0,,,2019-12-27 11:46:37,2019-12-27 11:46:48,"10,609s",PASSED
delay(5),Firefox 71.0,,,2019-12-27 11:46:48,2019-12-27 11:46:53,"5,006s",PASSED
"test.Metodos.select2(findTestObject(""Object Repository/Generales/Select2/2.select_option""), 0)",Firefox 71.0,,,2019-12-27 11:46:53,2019-12-27 11:47:04,"11,074s",PASSED
"test.Metodos.display_list_multi(findTestObject(""Object Repository/Generales/Select2/1.1.display_list_multi""), 6)",Firefox 71.0,,,2019-12-27 11:47:04,2019-12-27 11:47:14,"10,594s",PASSED
"test.Metodos.select2(findTestObject(""Object Repository/Generales/Select2/2.select_option""), 0)",Firefox 71.0,,,2019-12-27 11:47:14,2019-12-27 11:47:26,"11,469s",PASSED
"test.Metodos.display_list_multi(findTestObject(""Object Repository/Generales/Select2/1.1.display_list_multi""), 7)",Firefox 71.0,,,2019-12-27 11:47:26,2019-12-27 11:47:36,"10,605s",PASSED
"test.Metodos.select2(findTestObject(""Object Repository/Generales/Select2/2.select_option""), 0)",Firefox 71.0,,,2019-12-27 11:47:36,2019-12-27 11:47:47,"11,023s",PASSED
"test.Metodos.display_list_multi(findTestObject(""Object Repository/Generales/Select2/1.1.display_list_multi""), 8)",Firefox 71.0,,,2019-12-27 11:47:47,2019-12-27 11:47:58,"10,602s",PASSED
"test.Metodos.select2(findTestObject(""Object Repository/Generales/Select2/2.select_option""), 0)",Firefox 71.0,,,2019-12-27 11:47:58,2019-12-27 11:48:09,"11,058s",PASSED
delay(5),Firefox 71.0,,,2019-12-27 11:48:09,2019-12-27 11:48:14,"5,007s",PASSED
"click(findTestObject(""2.Planes de Accion/Generales/1.Index/1.1.Crear/10.btn_Save""))",Firefox 71.0,,,2019-12-27 11:48:14,2019-12-27 11:48:15,"0,904s",PASSED
,,,,,,,
Test Cases/2.Planes de Accion/Generales/1.Index/1.1.Gestion del Plan/5.Agregar nota de Avance,Firefox 71.0,,,2019-12-27 11:48:15,2019-12-27 11:49:14,"59,342s",PASSED
"callTestCase(findTestCase(""2.Planes de Accion/Daruma/Acceso al modulo""), [:])",Firefox 71.0,,,2019-12-27 11:48:15,2019-12-27 11:48:53,"37,584s",PASSED
"id = test.Metodos.lista(findTestObject(""Object Repository/2.list_inputCheck""))",Firefox 71.0,,,2019-12-27 11:48:53,2019-12-27 11:48:57,"3,860s",PASSED
"test.Metodos.select_item_managment(findTestObject(""Generales/Select Item List/1.list_index""), id)",Firefox 71.0,,,2019-12-27 11:48:57,2019-12-27 11:48:58,"1,382s",PASSED
delay(8),Firefox 71.0,,,2019-12-27 11:48:58,2019-12-27 11:49:06,"8,004s",PASSED
"click(findTestObject(""2.Planes de Accion/Generales/1.Index/1.Gestion del Plan/5.Agregar Nota/1.btn_option_more""))",Firefox 71.0,,,2019-12-27 11:49:06,2019-12-27 11:49:07,"0,603s",PASSED
"click(findTestObject(""2.Planes de Accion/Generales/1.Index/1.Gestion del Plan/5.Agregar Nota/1.btn_newNote""))",Firefox 71.0,,,2019-12-27 11:49:07,2019-12-27 11:49:08,"0,818s",PASSED
"test.Metodos.tiny1(findTestObject(""Object Repository/Generales/TinyMCE/Iframe""), 0)",Firefox 71.0,,,2019-12-27 11:49:08,2019-12-27 11:49:14,"5,962s",PASSED
"click(findTestObject(""Object Repository/2.Planes de Accion/Generales/1.Index/1.Gestion del Plan/5.Agregar Nota/3.btn_Save""))",Firefox 71.0,,,2019-12-27 11:49:14,2019-12-27 11:49:14,"0,824s",PASSED
